"NameFilesTest"	"LinksetCardinality(|L|)"	"total"	"ru"	"te"	"it"	"lo"	"hi"	"en"	"es"	"th"	"ko"	"ja"	"ms"	"tr"	"pt"	"pl"	"zh"	"de"	"fr"	"hu"	"cs"	"fa"	"sk"	"uk"	"ar"	"sv"	"nl"	"hr"	"no"	"el"	"lt"	"lv"	"en-us"	"zh-cn"	"et"	"ca"	"mt"	"ro"	"eu"	"sl"	"fi"	"ga"	"bg"
"testVoidEARThGEMETSirioPrivate.csvEARTh_Agrovoc_exactMatch"	"1438"	"23290"	"1264"	"477"	"9"	"1105"	"1257"	"0"	"1342"	"1254"	"1093"	"1221"	"32"	"1382"	"1309"	"1253"	"1312"	"1385"	"1344"	"1226"	"1377"	"1240"	"1202"	"126"	"1079"	"1"	"0.0"	"0.0"	"0.0"	"0.0"	"0.0"	"0.0"	"0.0"	"0.0"	"0.0"	"0.0"	"0.0"	"0.0"	"0.0"	"0.0"	"0.0"	"0.0"	"0.0"
"testVoidEARThGEMETSirioPrivate.csvEARTh_GEMET_exactMatch"	"4365"	"126378"	"4236"	"0.0"	"35"	"0.0"	"0.0"	"0"	"4257"	"0.0"	"0.0"	"0.0"	"0.0"	"4251"	"4328"	"4162"	"0.0"	"4239"	"4253"	"4244"	"4206"	"0.0"	"4203"	"4242"	"4256"	"3799"	"4205"	"3877"	"4236"	"4195"	"4238"	"4251"	"4328"	"4228"	"4215"	"4231"	"4269"	"4255"	"4189"	"4215"	"4177"	"4302"	"4256"
