"NameFilesTest"	"LinksetCardinality(|L|)"	"total"	"ru"	"te"	"it"	"lo"	"hi"	"en"	"es"	"th"	"ko"	"ja"	"ms"	"tr"	"pt"	"pl"	"zh"	"de"	"fr"	"hu"	"cs"	"fa"	"sk"	"uk"	"ar"	"sv"	"nl"	"hr"	"no"	"el"	"lt"	"lv"	"en-us"	"zh-cn"	"et"	"ca"	"mt"	"ro"	"eu"	"sl"	"fi"	"ga"	"bg"
"testVoidEARThGEMETSirioPrivate.csvEARTh_Agrovoc_exactMatch"	"1438"	"13915"	"716"	"190"	"716"	"292"	"709"	"781"	"785"	"671"	"227"	"559"	"68"	"1286"	"661"	"831"	"647"	"1114"	"784"	"656"	"754"	"833"	"566"	"48"	"21"	"0.0"	"0.0"	"0.0"	"0.0"	"0.0"	"0.0"	"0.0"	"0.0"	"0.0"	"0.0"	"0.0"	"0.0"	"0.0"	"0.0"	"0.0"	"0.0"	"0.0"	"0.0"
"testVoidEARThGEMETSirioPrivate.csvEARTh_GEMET_exactMatch"	"4365"	"4140"	"0.0"	"0.0"	"0"	"0.0"	"0.0"	"4"	"0.0"	"0.0"	"0.0"	"0.0"	"0.0"	"0.0"	"0.0"	"0.0"	"0.0"	"0.0"	"0.0"	"0.0"	"0.0"	"0.0"	"78"	"0.0"	"0.0"	"577"	"0.0"	"1032"	"0.0"	"857"	"0.0"	"0.0"	"1"	"5"	"3"	"0.0"	"1"	"0.0"	"1370"	"0.0"	"212"	"0.0"	"0.0"
