"http://xxx/15039"	"4"
"http://xxx/6623"	"4"
"http://xxx/4162"	"4"
"http://xxx/9203"	"3"
"http://xxx/9092"	"3"
"http://xxx/9121"	"4"
"http://xxx/9073"	"4"
"http://xxx/6923"	"4"
"http://xxx/6373"	"3"
"http://xxx/4985"	"4"
"http://xxx/7028"	"4"
"http://xxx/4194"	"4"
"http://xxx/1636"	"4"
"http://xxx/14950"	"4"
"http://xxx/1732"	"4"
"http://xxx/1787"	"4"
"http://xxx/13560"	"4"
"http://xxx/1791"	"4"
"http://xxx/13697"	"4"
"http://xxx/4301"	"4"
"http://xxx/1762"	"4"
"http://xxx/1590"	"3"
"http://xxx/4164"	"4"
"http://xxx/1929"	"4"
"http://xxx/8563"	"4"
"http://xxx/6637"	"3"
"http://xxx/1446"	"4"
"http://xxx/4430"	"3"
"http://xxx/1630"	"3"
"http://xxx/6802"	"3"
"http://xxx/1712"	"3"
"http://xxx/6647"	"3"
"http://xxx/1862"	"3"
"http://xxx/6103"	"4"
"http://xxx/2798"	"4"
"http://xxx/4788"	"3"
"http://xxx/6675"	"3"
"http://xxx/6658"	"3"
"http://xxx/6464"	"3"
"http://xxx/4789"	"3"
"http://xxx/8663"	"3"
"http://xxx/183"	"3"
"http://xxx/1776"	"4"
"http://xxx/9308"	"3"
"http://xxx/1594"	"3"
"http://xxx/8582"	"4"
"http://xxx/1591"	"3"
"http://xxx/5006"	"3"
"http://xxx/8570"	"3"
"http://xxx/2829"	"4"
"http://xxx/8102"	"3"
"http://xxx/7193"	"3"
"http://xxx/2300"	"3"
"http://xxx/1588"	"4"
"http://xxx/452"	"3"
"http://xxx/9313"	"4"
"http://xxx/2697"	"4"
"http://xxx/443"	"4"
"http://xxx/6326"	"3"
"http://xxx/2700"	"4"
"http://xxx/7603"	"1"
"http://xxx/2461"	"4"
"http://xxx/4599"	"3"
"http://xxx/1476"	"4"
"http://xxx/6740"	"4"
"http://xxx/9380"	"4"
"http://xxx/4648"	"4"
"http://xxx/835"	"4"
"http://xxx/4635"	"4"
"http://xxx/4629"	"4"
"http://xxx/7843"	"4"
"http://xxx/547"	"3"
"http://xxx/5857"	"4"
"http://xxx/14975"	"3"
"http://xxx/5498"	"4"
"http://xxx/1517"	"3"
"http://xxx/1516"	"4"
"http://xxx/5033"	"3"
"http://xxx/5513"	"1"
"http://xxx/4233"	"1"
"http://xxx/5572"	"4"
"http://xxx/2733"	"4"
"http://xxx/215"	"4"
"http://xxx/2533"	"4"
"http://xxx/8398"	"4"
"http://xxx/8571"	"4"
"http://xxx/8639"	"4"
"http://xxx/2555"	"4"
"http://xxx/8832"	"4"
"http://xxx/6662"	"3"
"http://xxx/6859"	"4"
"http://xxx/6661"	"4"
"http://xxx/6663"	"3"
"http://xxx/5778"	"4"
"http://xxx/7083"	"3"
"http://xxx/8212"	"3"
"http://xxx/8213"	"4"
"http://xxx/1628"	"3"
"http://xxx/5777"	"3"
"http://xxx/2386"	"3"
"http://xxx/7982"	"1"
"http://xxx/2457"	"4"
"http://xxx/81"	"4"
"http://xxx/827"	"3"
"http://xxx/883"	"3"
"http://xxx/2456"	"3"
"http://xxx/391"	"3"
"http://xxx/868"	"3"
"http://xxx/2437"	"3"
"http://xxx/14933"	"4"
"http://xxx/2441"	"3"
"http://xxx/143"	"3"
"http://xxx/5088"	"3"
"http://xxx/9149"	"4"
"http://xxx/5757"	"4"
"http://xxx/2470"	"3"
"http://xxx/8262"	"4"
"http://xxx/4805"	"4"
"http://xxx/2525"	"4"
"http://xxx/664"	"4"
"http://xxx/833"	"3"
"http://xxx/5759"	"4"
"http://xxx/5607"	"4"
"http://xxx/798"	"4"
"http://xxx/1480"	"3"
"http://xxx/8908"	"3"
"http://xxx/899"	"3"
"http://xxx/2450"	"3"
"http://xxx/842"	"3"
"http://xxx/8925"	"1"
"http://xxx/6299"	"3"
"http://xxx/1613"	"4"
"http://xxx/4321"	"1"
"http://xxx/14418"	"4"
"http://xxx/8014"	"4"
"http://xxx/9165"	"4"
"http://xxx/6270"	"4"
"http://xxx/7641"	"4"
"http://xxx/2722"	"4"
"http://xxx/1911"	"4"
"http://xxx/8525"	"4"
"http://xxx/8590"	"4"
"http://xxx/2319"	"3"
"http://xxx/7340"	"4"
"http://xxx/516"	"3"
"http://xxx/8008"	"3"
"http://xxx/7001"	"4"
"http://xxx/4082"	"3"
"http://xxx/517"	"4"
"http://xxx/1955"	"4"
"http://xxx/8766"	"4"
"http://xxx/6274"	"4"
"http://xxx/2393"	"4"
"http://xxx/9244"	"3"
"http://xxx/2343"	"4"
"http://xxx/7355"	"4"
"http://xxx/9257"	"4"
"http://xxx/6817"	"4"
"http://xxx/8852"	"4"
"http://xxx/9290"	"3"
"http://xxx/9255"	"4"
"http://xxx/5439"	"3"
"http://xxx/5836"	"3"
"http://xxx/9130"	"3"
"http://xxx/7756"	"4"
"http://xxx/7629"	"4"
"http://xxx/9062"	"4"
"http://xxx/7630"	"4"
"http://xxx/2599"	"3"
"http://xxx/3960"	"4"
"http://xxx/5963"	"4"
"http://xxx/2735"	"4"
"http://xxx/4254"	"4"
"http://xxx/2606"	"4"
"http://xxx/3974"	"3"
"http://xxx/7129"	"3"
"http://xxx/7127"	"4"
"http://xxx/14938"	"4"
"http://xxx/5745"	"4"
"http://xxx/7465"	"3"
"http://xxx/5360"	"3"
"http://xxx/529"	"3"
"http://xxx/9422"	"3"
"http://xxx/1921"	"3"
"http://xxx/7679"	"4"
"http://xxx/1912"	"4"
"http://xxx/7823"	"4"
"http://xxx/2801"	"4"
"http://xxx/23"	"4"
"http://xxx/4567"	"3"
"http://xxx/14939"	"4"
"http://xxx/2285"	"3"
"http://xxx/14858"	"4"
"http://xxx/5444"	"3"
"http://xxx/4793"	"3"
"http://xxx/3977"	"3"
"http://xxx/969"	"3"
"http://xxx/14982"	"3"
"http://xxx/8522"	"3"
"http://xxx/8527"	"4"
"http://xxx/8658"	"4"
"http://xxx/7354"	"4"
"http://xxx/2839"	"4"
"http://xxx/4678"	"4"
"http://xxx/2527"	"4"
"http://xxx/388"	"3"
"http://xxx/6940"	"4"
"http://xxx/7293"	"4"
"http://xxx/8598"	"4"
"http://xxx/282"	"4"
"http://xxx/4902"	"4"
"http://xxx/1622"	"4"
"http://xxx/5816"	"4"
"http://xxx/7320"	"4"
"http://xxx/8585"	"4"
"http://xxx/7684"	"3"
"http://xxx/8073"	"3"
"http://xxx/267"	"3"
"http://xxx/9254"	"3"
"http://xxx/7742"	"4"
"http://xxx/9245"	"4"
"http://xxx/6092"	"3"
"http://xxx/8847"	"4"
"http://xxx/8031"	"3"
"http://xxx/1807"	"3"
"http://xxx/1880"	"3"
"http://xxx/8955"	"3"
"http://xxx/8707"	"3"
"http://xxx/6047"	"3"
"http://xxx/6046"	"4"
"http://xxx/4115"	"3"
"http://xxx/2227"	"4"
"http://xxx/4116"	"4"
"http://xxx/7571"	"3"
"http://xxx/7227"	"3"
"http://xxx/167"	"1"
"http://xxx/6979"	"4"
"http://xxx/7900"	"4"
"http://xxx/4682"	"4"
"http://xxx/1743"	"1"
"http://xxx/2516"	"4"
"http://xxx/9040"	"4"
"http://xxx/15036"	"4"
"http://xxx/193"	"3"
"http://xxx/2501"	"4"
"http://xxx/4686"	"4"
"http://xxx/2493"	"3"
"http://xxx/2845"	"4"
"http://xxx/2494"	"4"
"http://xxx/2476"	"3"
"http://xxx/2505"	"4"
"http://xxx/2498"	"3"
"http://xxx/2088"	"4"
"http://xxx/8724"	"4"
"http://xxx/2723"	"3"
"http://xxx/7484"	"4"
"http://xxx/4414"	"4"
"http://xxx/5062"	"4"
"http://xxx/2731"	"4"
"http://xxx/4187"	"3"
"http://xxx/7457"	"4"
"http://xxx/7237"	"4"
"http://xxx/4530"	"4"
"http://xxx/2512"	"4"
"http://xxx/2569"	"4"
"http://xxx/8279"	"4"
"http://xxx/2508"	"3"
"http://xxx/2364"	"4"
"http://xxx/2490"	"3"
"http://xxx/2511"	"4"
"http://xxx/2158"	"4"
"http://xxx/2484"	"4"
"http://xxx/8566"	"3"
"http://xxx/5064"	"3"
"http://xxx/5068"	"4"
"http://xxx/4228"	"3"
"http://xxx/14949"	"3"
"http://xxx/2778"	"1"
"http://xxx/2818"	"4"
"http://xxx/2814"	"4"
"http://xxx/5003"	"4"
"http://xxx/7197"	"3"
"http://xxx/2771"	"3"
"http://xxx/6775"	"4"
"http://xxx/8075"	"1"
"http://xxx/2803"	"4"
"http://xxx/6107"	"4"
"http://xxx/8076"	"4"
"http://xxx/1974"	"3"
"http://xxx/4302"	"4"
"http://xxx/5877"	"3"
"http://xxx/8068"	"3"
"http://xxx/14917"	"4"
"http://xxx/14857"	"4"
"http://xxx/2666"	"4"
"http://xxx/6708"	"4"
"http://xxx/2672"	"4"
"http://xxx/4468"	"4"
"http://xxx/8077"	"3"
"http://xxx/9141"	"4"
"http://xxx/8074"	"3"
"http://xxx/397"	"4"
"http://xxx/4259"	"3"
"http://xxx/7079"	"3"
"http://xxx/9241"	"3"
"http://xxx/1975"	"3"
"http://xxx/1462"	"1"
"http://xxx/5219"	"4"
"http://xxx/5196"	"4"
"http://xxx/9269"	"4"
"http://xxx/1474"	"4"
"http://xxx/1473"	"4"
"http://xxx/1469"	"4"
"http://xxx/1464"	"4"
"http://xxx/1471"	"4"
"http://xxx/6033"	"3"
"http://xxx/2570"	"4"
"http://xxx/14900"	"4"
"http://xxx/14920"	"4"
"http://xxx/20"	"4"
"http://xxx/14921"	"4"
"http://xxx/14919"	"4"
"http://xxx/2713"	"4"
"http://xxx/7094"	"4"
"http://xxx/91"	"4"
"http://xxx/8610"	"4"
"http://xxx/14918"	"4"
"http://xxx/4359"	"4"
"http://xxx/8487"	"4"
"http://xxx/5108"	"4"
"http://xxx/5195"	"4"
"http://xxx/5992"	"4"
"http://xxx/4917"	"4"
"http://xxx/14935"	"4"
"http://xxx/9096"	"4"
"http://xxx/14922"	"4"
"http://xxx/14923"	"4"
"http://xxx/2308"	"4"
"http://xxx/4873"	"4"
"http://xxx/8411"	"4"
"http://xxx/4151"	"4"
"http://xxx/1556"	"4"
"http://xxx/6123"	"4"
"http://xxx/5623"	"4"
"http://xxx/1864"	"4"
"http://xxx/1536"	"4"
"http://xxx/57"	"4"
"http://xxx/8521"	"4"
"http://xxx/947"	"4"
"http://xxx/14899"	"4"
"http://xxx/486"	"4"
"http://xxx/5825"	"4"
"http://xxx/8516"	"3"
"http://xxx/5193"	"4"
"http://xxx/8727"	"3"
"http://xxx/1941"	"3"
"http://xxx/7769"	"4"
"http://xxx/4077"	"3"
"http://xxx/2347"	"3"
"http://xxx/2105"	"4"
"http://xxx/1491"	"3"
"http://xxx/6364"	"3"
"http://xxx/465"	"4"
"http://xxx/543"	"4"
"http://xxx/8693"	"3"
"http://xxx/9274"	"3"
"http://xxx/468"	"4"
"http://xxx/9270"	"3"
"http://xxx/9276"	"3"
"http://xxx/626"	"3"
"http://xxx/5327"	"4"
"http://xxx/5099"	"4"
"http://xxx/5000"	"3"
"http://xxx/1470"	"3"
"http://xxx/5220"	"3"
"http://xxx/2562"	"3"
"http://xxx/849"	"4"
"http://xxx/1574"	"4"
"http://xxx/2041"	"4"
"http://xxx/7688"	"4"
"http://xxx/2566"	"4"
"http://xxx/2782"	"4"
"http://xxx/2565"	"4"
"http://xxx/6889"	"4"
"http://xxx/4650"	"4"
"http://xxx/2802"	"4"
"http://xxx/4906"	"4"
"http://xxx/8801"	"4"
"http://xxx/15032"	"3"
"http://xxx/15033"	"3"
"http://xxx/2036"	"3"
"http://xxx/9352"	"4"
"http://xxx/7236"	"3"
"http://xxx/2220"	"4"
"http://xxx/7233"	"4"
"http://xxx/7362"	"4"
"http://xxx/7238"	"4"
"http://xxx/8341"	"4"
"http://xxx/475"	"4"
"http://xxx/7240"	"4"
"http://xxx/7241"	"4"
"http://xxx/2406"	"3"
"http://xxx/617"	"4"
"http://xxx/7529"	"4"
"http://xxx/6407"	"3"
"http://xxx/14243"	"4"
"http://xxx/6402"	"4"
"http://xxx/14848"	"3"
"http://xxx/890"	"3"
"http://xxx/867"	"4"
"http://xxx/5994"	"3"
"http://xxx/8129"	"4"
"http://xxx/7937"	"4"
"http://xxx/7938"	"4"
"http://xxx/5644"	"4"
"http://xxx/7933"	"4"
"http://xxx/14936"	"3"
"http://xxx/14937"	"3"
"http://xxx/9095"	"3"
"http://xxx/9008"	"4"
"http://xxx/6888"	"3"
"http://xxx/6884"	"4"
"http://xxx/2309"	"3"
"http://xxx/2307"	"3"
"http://xxx/8412"	"3"
"http://xxx/5094"	"4"
"http://xxx/8405"	"4"
"http://xxx/4408"	"4"
"http://xxx/6319"	"4"
"http://xxx/5457"	"4"
"http://xxx/8542"	"4"
"http://xxx/6959"	"4"
"http://xxx/631"	"4"
"http://xxx/3890"	"3"
"http://xxx/6229"	"4"
"http://xxx/4965"	"4"
"http://xxx/8995"	"4"
"http://xxx/1686"	"4"
"http://xxx/2582"	"4"
"http://xxx/8898"	"4"
"http://xxx/8711"	"4"
"http://xxx/6221"	"4"
"http://xxx/8125"	"4"
"http://xxx/4937"	"4"
"http://xxx/5307"	"4"
"http://xxx/1550"	"4"
"http://xxx/9286"	"4"
"http://xxx/8226"	"4"
"http://xxx/5804"	"4"
"http://xxx/8977"	"4"
"http://xxx/6120"	"4"
"http://xxx/2592"	"4"
"http://xxx/1578"	"4"
"http://xxx/954"	"4"
"http://xxx/1571"	"4"
"http://xxx/2564"	"4"
"http://xxx/1865"	"3"
"http://xxx/9214"	"3"
"http://xxx/5892"	"4"
"http://xxx/9196"	"4"
"http://xxx/9147"	"4"
"http://xxx/9232"	"4"
"http://xxx/9138"	"4"
"http://xxx/9184"	"4"
"http://xxx/5640"	"4"
"http://xxx/4146"	"4"
"http://xxx/13839"	"4"
"http://xxx/8739"	"4"
"http://xxx/4320"	"4"
"http://xxx/60"	"4"
"http://xxx/4832"	"4"
"http://xxx/7882"	"1"
"http://xxx/7866"	"4"
"http://xxx/7899"	"3"
"http://xxx/7851"	"4"
"http://xxx/8167"	"4"
"http://xxx/7895"	"3"
"http://xxx/6094"	"3"
"http://xxx/7846"	"3"
"http://xxx/4948"	"4"
"http://xxx/7886"	"3"
"http://xxx/5521"	"4"
"http://xxx/7848"	"3"
"http://xxx/4607"	"4"
"http://xxx/7860"	"4"
"http://xxx/7845"	"3"
"http://xxx/7902"	"3"
"http://xxx/7874"	"4"
"http://xxx/4070"	"3"
"http://xxx/4257"	"1"
"http://xxx/2394"	"4"
"http://xxx/4189"	"4"
"http://xxx/6815"	"4"
"http://xxx/8755"	"4"
"http://xxx/9236"	"4"
"http://xxx/9289"	"4"
"http://xxx/14976"	"4"
"http://xxx/4623"	"4"
"http://xxx/7897"	"4"
"http://xxx/4566"	"4"
"http://xxx/1748"	"4"
"http://xxx/13561"	"4"
"http://xxx/2044"	"4"
"http://xxx/8305"	"4"
"http://xxx/5081"	"4"
"http://xxx/1700"	"4"
"http://xxx/7690"	"4"
"http://xxx/7036"	"4"
"http://xxx/9246"	"4"
"http://xxx/6953"	"4"
"http://xxx/7195"	"4"
"http://xxx/4282"	"4"
"http://xxx/4624"	"4"
"http://xxx/6650"	"4"
"http://xxx/7057"	"4"
"http://xxx/5761"	"4"
"http://xxx/6833"	"4"
"http://xxx/9013"	"4"
"http://xxx/9157"	"4"
"http://xxx/2693"	"4"
"http://xxx/8940"	"4"
"http://xxx/15027"	"4"
"http://xxx/9227"	"4"
"http://xxx/5187"	"4"
"http://xxx/2002"	"4"
"http://xxx/7201"	"4"
"http://xxx/1846"	"4"
"http://xxx/8303"	"4"
"http://xxx/2115"	"4"
"http://xxx/8337"	"4"
"http://xxx/7941"	"4"
"http://xxx/6736"	"4"
"http://xxx/8227"	"4"
"http://xxx/2333"	"4"
"http://xxx/7926"	"4"
"http://xxx/2327"	"4"
"http://xxx/7044"	"4"
"http://xxx/9356"	"4"
"http://xxx/8095"	"4"
"http://xxx/7894"	"4"
"http://xxx/2747"	"4"
"http://xxx/2595"	"4"
"http://xxx/5684"	"4"
"http://xxx/2712"	"4"
"http://xxx/4098"	"4"
"http://xxx/7108"	"4"
"http://xxx/4455"	"4"
"http://xxx/8804"	"4"
"http://xxx/6417"	"3"
"http://xxx/6428"	"3"
"http://xxx/6405"	"4"
"http://xxx/6397"	"4"
"http://xxx/6396"	"4"
"http://xxx/1728"	"3"
"http://xxx/8339"	"4"
"http://xxx/1724"	"4"
"http://xxx/7276"	"3"
"http://xxx/6228"	"4"
"http://xxx/7244"	"4"
"http://xxx/7257"	"4"
"http://xxx/7093"	"4"
"http://xxx/1515"	"4"
"http://xxx/6285"	"4"
"http://xxx/8829"	"4"
"http://xxx/4062"	"4"
"http://xxx/7625"	"4"
"http://xxx/1775"	"4"
"http://xxx/1781"	"4"
"http://xxx/6718"	"4"
"http://xxx/4171"	"4"
"http://xxx/2264"	"4"
"http://xxx/5318"	"4"
"http://xxx/2759"	"4"
"http://xxx/4177"	"4"
"http://xxx/2186"	"4"
"http://xxx/1891"	"4"
"http://xxx/2361"	"4"
"http://xxx/5741"	"4"
"http://xxx/5148"	"4"
"http://xxx/8650"	"4"
"http://xxx/5983"	"4"
"http://xxx/7774"	"4"
"http://xxx/7491"	"4"
"http://xxx/1681"	"4"
"http://xxx/7037"	"4"
"http://xxx/1659"	"4"
"http://xxx/2744"	"3"
"http://xxx/3906"	"4"
"http://xxx/2588"	"4"
"http://xxx/2746"	"4"
"http://xxx/9118"	"3"
"http://xxx/4548"	"3"
"http://xxx/8371"	"3"
"http://xxx/8758"	"3"
"http://xxx/224"	"3"
"http://xxx/1730"	"3"
"http://xxx/2435"	"3"
"http://xxx/2618"	"3"
"http://xxx/6233"	"4"
"http://xxx/7612"	"3"
"http://xxx/6055"	"4"
"http://xxx/2167"	"3"
"http://xxx/6838"	"3"
"http://xxx/9136"	"4"
"http://xxx/7035"	"4"
"http://xxx/6234"	"4"
"http://xxx/6841"	"4"
"http://xxx/13722"	"4"
"http://xxx/9043"	"4"
"http://xxx/7594"	"4"
"http://xxx/1456"	"4"
"http://xxx/9210"	"3"
"http://xxx/14962"	"3"
"http://xxx/5995"	"3"
"http://xxx/9143"	"3"
"http://xxx/7636"	"4"
"http://xxx/7613"	"4"
"http://xxx/8036"	"4"
"http://xxx/7739"	"4"
"http://xxx/9139"	"4"
"http://xxx/2344"	"3"
"http://xxx/2339"	"4"
"http://xxx/6536"	"3"
"http://xxx/7119"	"3"
"http://xxx/8447"	"3"
"http://xxx/8452"	"4"
"http://xxx/8440"	"4"
"http://xxx/7058"	"3"
"http://xxx/8731"	"3"
"http://xxx/4260"	"4"
"http://xxx/7324"	"3"
"http://xxx/5186"	"3"
"http://xxx/5179"	"3"
"http://xxx/5169"	"3"
"http://xxx/14965"	"3"
"http://xxx/6291"	"4"
"http://xxx/8330"	"4"
"http://xxx/2707"	"4"
"http://xxx/6327"	"4"
"http://xxx/4313"	"4"
"http://xxx/6654"	"4"
"http://xxx/9161"	"4"
"http://xxx/2052"	"4"
"http://xxx/9170"	"4"
"http://xxx/9106"	"3"
"http://xxx/9125"	"4"
"http://xxx/9041"	"4"
"http://xxx/9048"	"4"
"http://xxx/7015"	"4"
"http://xxx/5956"	"4"
"http://xxx/2238"	"3"
"http://xxx/6798"	"4"
"http://xxx/2286"	"1"
"http://xxx/14934"	"4"
"http://xxx/8454"	"4"
"http://xxx/14873"	"4"
"http://xxx/786"	"4"
"http://xxx/2282"	"4"
"http://xxx/959"	"4"
"http://xxx/2173"	"4"
"http://xxx/616"	"4"
"http://xxx/4785"	"4"
"http://xxx/5011"	"3"
"http://xxx/14663"	"4"
"http://xxx/7868"	"4"
"http://xxx/2284"	"3"
"http://xxx/14886"	"4"
"http://xxx/6205"	"4"
"http://xxx/4303"	"4"
"http://xxx/4851"	"3"
"http://xxx/1979"	"4"
"http://xxx/421"	"4"
"http://xxx/4571"	"3"
"http://xxx/4908"	"4"
"http://xxx/2626"	"1"
"http://xxx/1971"	"3"
"http://xxx/1969"	"4"
"http://xxx/7086"	"3"
"http://xxx/3878"	"3"
"http://xxx/4051"	"4"
"http://xxx/6453"	"3"
"http://xxx/5293"	"3"
"http://xxx/7077"	"3"
"http://xxx/5788"	"3"
"http://xxx/4743"	"3"
"http://xxx/2534"	"3"
"http://xxx/2536"	"4"
"http://xxx/2535"	"4"
"http://xxx/1970"	"3"
"http://xxx/3880"	"3"
"http://xxx/2824"	"4"
"http://xxx/6124"	"1"
"http://xxx/4169"	"4"
"http://xxx/6292"	"4"
"http://xxx/2242"	"4"
"http://xxx/8564"	"4"
"http://xxx/9088"	"3"
"http://xxx/2810"	"3"
"http://xxx/2442"	"4"
"http://xxx/2463"	"4"
"http://xxx/2821"	"4"
"http://xxx/2477"	"4"
"http://xxx/9324"	"4"
"http://xxx/14835"	"4"
"http://xxx/8892"	"4"
"http://xxx/6230"	"1"
"http://xxx/4085"	"4"
"http://xxx/8450"	"4"
"http://xxx/2617"	"4"
"http://xxx/7472"	"4"
"http://xxx/5624"	"3"
"http://xxx/6226"	"4"
"http://xxx/5658"	"4"
"http://xxx/59"	"3"
"http://xxx/7945"	"4"
"http://xxx/7942"	"4"
"http://xxx/634"	"3"
"http://xxx/888"	"3"
"http://xxx/5733"	"3"
"http://xxx/6894"	"4"
"http://xxx/5225"	"3"
"http://xxx/7842"	"4"
"http://xxx/2196"	"4"
"http://xxx/1988"	"4"
"http://xxx/5524"	"3"
"http://xxx/612"	"4"
"http://xxx/640"	"4"
"http://xxx/9231"	"4"
"http://xxx/7890"	"4"
"http://xxx/2405"	"4"
"http://xxx/496"	"3"
"http://xxx/5093"	"4"
"http://xxx/611"	"4"
"http://xxx/4719"	"3"
"http://xxx/4543"	"3"
"http://xxx/6066"	"4"
"http://xxx/5144"	"4"
"http://xxx/6180"	"4"
"http://xxx/2517"	"4"
"http://xxx/702"	"4"
"http://xxx/6776"	"4"
"http://xxx/4158"	"4"
"http://xxx/5870"	"4"
"http://xxx/8974"	"4"
"http://xxx/2706"	"4"
"http://xxx/6181"	"4"
"http://xxx/8543"	"4"
"http://xxx/5086"	"4"
"http://xxx/7009"	"4"
"http://xxx/8556"	"4"
"http://xxx/8546"	"4"
"http://xxx/14245"	"4"
"http://xxx/8140"	"4"
"http://xxx/4296"	"4"
"http://xxx/2042"	"4"
"http://xxx/14254"	"4"
"http://xxx/5090"	"4"
"http://xxx/6967"	"3"
"http://xxx/6161"	"4"
"http://xxx/7084"	"4"
"http://xxx/7413"	"4"
"http://xxx/5503"	"4"
"http://xxx/5510"	"3"
"http://xxx/9242"	"4"
"http://xxx/442"	"4"
"http://xxx/5501"	"4"
"http://xxx/591"	"4"
"http://xxx/1649"	"4"
"http://xxx/5529"	"4"
"http://xxx/5418"	"4"
"http://xxx/7012"	"3"
"http://xxx/5305"	"4"
"http://xxx/7010"	"4"
"http://xxx/7014"	"4"
"http://xxx/8540"	"3"
"http://xxx/5184"	"4"
"http://xxx/8545"	"3"
"http://xxx/6358"	"3"
"http://xxx/2233"	"4"
"http://xxx/1993"	"3"
"http://xxx/2257"	"3"
"http://xxx/265"	"3"
"http://xxx/263"	"4"
"http://xxx/636"	"4"
"http://xxx/4209"	"4"
"http://xxx/976"	"4"
"http://xxx/4474"	"4"
"http://xxx/5993"	"4"
"http://xxx/7875"	"4"
"http://xxx/2689"	"4"
"http://xxx/2245"	"4"
"http://xxx/6465"	"4"
"http://xxx/4491"	"4"
"http://xxx/5718"	"4"
"http://xxx/5728"	"4"
"http://xxx/5712"	"4"
"http://xxx/6527"	"1"
"http://xxx/2584"	"4"
"http://xxx/4056"	"4"
"http://xxx/9344"	"4"
"http://xxx/4984"	"4"
"http://xxx/2060"	"3"
"http://xxx/6528"	"4"
"http://xxx/2055"	"4"
"http://xxx/6517"	"3"
"http://xxx/8834"	"3"
"http://xxx/7352"	"3"
"http://xxx/963"	"1"
"http://xxx/4448"	"4"
"http://xxx/4440"	"4"
"http://xxx/14930"	"4"
"http://xxx/1772"	"4"
"http://xxx/8025"	"4"
"http://xxx/4124"	"4"
"http://xxx/8641"	"3"
"http://xxx/8648"	"4"
"http://xxx/4676"	"4"
"http://xxx/7969"	"4"
"http://xxx/6059"	"4"
"http://xxx/8653"	"4"
"http://xxx/14931"	"3"
"http://xxx/14932"	"4"
"http://xxx/4072"	"3"
"http://xxx/4073"	"4"
"http://xxx/4767"	"4"
"http://xxx/7003"	"4"
"http://xxx/9166"	"4"
"http://xxx/8229"	"4"
"http://xxx/9221"	"4"
"http://xxx/9206"	"4"
"http://xxx/7495"	"4"
"http://xxx/4009"	"3"
"http://xxx/9180"	"3"
"http://xxx/9178"	"3"
"http://xxx/8028"	"3"
"http://xxx/8784"	"3"
"http://xxx/9176"	"3"
"http://xxx/5279"	"3"
"http://xxx/6287"	"3"
"http://xxx/4253"	"4"
"http://xxx/7075"	"4"
"http://xxx/6710"	"4"
"http://xxx/2160"	"4"
"http://xxx/2554"	"4"
"http://xxx/6279"	"4"
"http://xxx/5486"	"4"
"http://xxx/6378"	"4"
"http://xxx/2218"	"4"
"http://xxx/6705"	"4"
"http://xxx/8841"	"4"
"http://xxx/8797"	"4"
"http://xxx/7709"	"3"
"http://xxx/4893"	"4"
"http://xxx/9225"	"3"
"http://xxx/9417"	"3"
"http://xxx/4278"	"4"
"http://xxx/2514"	"4"
"http://xxx/9358"	"1"
"http://xxx/8289"	"4"
"http://xxx/6828"	"4"
"http://xxx/813"	"3"
"http://xxx/1391"	"4"
"http://xxx/8986"	"4"
"http://xxx/6755"	"4"
"http://xxx/4838"	"4"
"http://xxx/473"	"4"
"http://xxx/8096"	"4"
"http://xxx/7632"	"1"
"http://xxx/4268"	"4"
"http://xxx/9140"	"4"
"http://xxx/9051"	"4"
"http://xxx/7733"	"4"
"http://xxx/2187"	"4"
"http://xxx/794"	"4"
"http://xxx/2326"	"3"
"http://xxx/7156"	"3"
"http://xxx/1584"	"4"
"http://xxx/6146"	"4"
"http://xxx/7662"	"3"
"http://xxx/7654"	"4"
"http://xxx/9362"	"3"
"http://xxx/6062"	"3"
"http://xxx/6441"	"3"
"http://xxx/15040"	"3"
"http://xxx/9077"	"3"
"http://xxx/4274"	"4"
"http://xxx/9042"	"4"
"http://xxx/1583"	"4"
"http://xxx/9301"	"3"
"http://xxx/8547"	"3"
"http://xxx/5297"	"3"
"http://xxx/5289"	"4"
"http://xxx/8969"	"3"
"http://xxx/5913"	"3"
"http://xxx/1651"	"4"
"http://xxx/821"	"4"
"http://xxx/229"	"3"
"http://xxx/1877"	"4"
"http://xxx/5437"	"3"
"http://xxx/4857"	"4"
"http://xxx/6336"	"3"
"http://xxx/453"	"3"
"http://xxx/7725"	"4"
"http://xxx/429"	"4"
"http://xxx/14652"	"4"
"http://xxx/9127"	"3"
"http://xxx/9132"	"4"
"http://xxx/2330"	"4"
"http://xxx/7628"	"4"
"http://xxx/1576"	"4"
"http://xxx/4276"	"4"
"http://xxx/795"	"4"
"http://xxx/6111"	"4"
"http://xxx/2305"	"4"
"http://xxx/4626"	"4"
"http://xxx/15038"	"3"
"http://xxx/7920"	"3"
"http://xxx/9082"	"3"
"http://xxx/7681"	"3"
"http://xxx/9044"	"4"
"http://xxx/7981"	"4"
"http://xxx/6909"	"4"
"http://xxx/6937"	"3"
"http://xxx/7483"	"3"
"http://xxx/2625"	"4"
"http://xxx/7486"	"4"
"http://xxx/8866"	"4"
"http://xxx/7489"	"4"
"http://xxx/4834"	"3"
"http://xxx/8"	"3"
"http://xxx/9099"	"3"
"http://xxx/6001"	"4"
"http://xxx/4575"	"3"
"http://xxx/8070"	"3"
"http://xxx/7972"	"3"
"http://xxx/7970"	"4"
"http://xxx/7328"	"3"
"http://xxx/4845"	"3"
"http://xxx/4283"	"3"
"http://xxx/4273"	"3"
"http://xxx/1742"	"3"
"http://xxx/7565"	"3"
"http://xxx/5049"	"4"
"http://xxx/4855"	"4"
"http://xxx/5417"	"4"
"http://xxx/7698"	"4"
"http://xxx/7173"	"3"
"http://xxx/7168"	"4"
"http://xxx/9382"	"3"
"http://xxx/5424"	"3"
"http://xxx/6747"	"3"
"http://xxx/2340"	"4"
"http://xxx/5484"	"3"
"http://xxx/8782"	"3"
"http://xxx/5511"	"3"
"http://xxx/471"	"3"
"http://xxx/6743"	"3"
"http://xxx/4661"	"4"
"http://xxx/9321"	"3"
"http://xxx/913"	"4"
"http://xxx/894"	"3"
"http://xxx/7137"	"4"
"http://xxx/5029"	"3"
"http://xxx/170"	"3"
"http://xxx/7950"	"4"
"http://xxx/5692"	"4"
"http://xxx/9293"	"4"
"http://xxx/542"	"3"
"http://xxx/5794"	"3"
"http://xxx/464"	"3"
"http://xxx/5145"	"3"
"http://xxx/14844"	"4"
"http://xxx/7948"	"3"
"http://xxx/4195"	"3"
"http://xxx/5694"	"3"
"http://xxx/9019"	"4"
"http://xxx/598"	"3"
"http://xxx/2412"	"4"
"http://xxx/7949"	"4"
"http://xxx/1513"	"3"
"http://xxx/1512"	"4"
"http://xxx/13567"	"4"
"http://xxx/4589"	"4"
"http://xxx/4858"	"4"
"http://xxx/4454"	"4"
"http://xxx/8386"	"3"
"http://xxx/9297"	"4"
"http://xxx/552"	"4"
"http://xxx/5023"	"4"
"http://xxx/8704"	"4"
"http://xxx/4545"	"4"
"http://xxx/6276"	"4"
"http://xxx/4590"	"4"
"http://xxx/8997"	"4"
"http://xxx/3893"	"4"
"http://xxx/4514"	"3"
"http://xxx/531"	"4"
"http://xxx/6225"	"3"
"http://xxx/4659"	"4"
"http://xxx/4602"	"3"
"http://xxx/1527"	"3"
"http://xxx/8887"	"3"
"http://xxx/8158"	"3"
"http://xxx/772"	"4"
"http://xxx/7497"	"4"
"http://xxx/5415"	"3"
"http://xxx/7034"	"3"
"http://xxx/1796"	"4"
"http://xxx/9235"	"3"
"http://xxx/7528"	"4"
"http://xxx/2377"	"3"
"http://xxx/7420"	"4"
"http://xxx/4133"	"3"
"http://xxx/4132"	"4"
"http://xxx/4666"	"3"
"http://xxx/14951"	"4"
"http://xxx/7618"	"4"
"http://xxx/5667"	"4"
"http://xxx/2275"	"4"
"http://xxx/2156"	"4"
"http://xxx/7"	"4"
"http://xxx/5317"	"4"
"http://xxx/7880"	"3"
"http://xxx/4636"	"4"
"http://xxx/5959"	"4"
"http://xxx/4065"	"4"
"http://xxx/7144"	"4"
"http://xxx/8627"	"4"
"http://xxx/8967"	"4"
"http://xxx/8032"	"4"
"http://xxx/7353"	"4"
"http://xxx/4594"	"4"
"http://xxx/9151"	"4"
"http://xxx/8380"	"4"
"http://xxx/4311"	"4"
"http://xxx/14856"	"4"
"http://xxx/14896"	"4"
"http://xxx/14879"	"4"
"http://xxx/14881"	"4"
"http://xxx/6801"	"4"
"http://xxx/1605"	"4"
"http://xxx/14883"	"4"
"http://xxx/7477"	"4"
"http://xxx/14862"	"4"
"http://xxx/5664"	"3"
"http://xxx/14878"	"3"
"http://xxx/14882"	"3"
"http://xxx/14893"	"3"
"http://xxx/14880"	"3"
"http://xxx/4967"	"3"
"http://xxx/14869"	"4"
"http://xxx/1984"	"3"
"http://xxx/1981"	"4"
"http://xxx/4398"	"4"
"http://xxx/14889"	"3"
"http://xxx/14940"	"3"
"http://xxx/14859"	"4"
"http://xxx/1986"	"3"
"http://xxx/4140"	"4"
"http://xxx/5167"	"3"
"http://xxx/6808"	"3"
"http://xxx/77"	"4"
"http://xxx/1739"	"3"
"http://xxx/6664"	"4"
"http://xxx/4762"	"3"
"http://xxx/14876"	"3"
"http://xxx/4309"	"3"
"http://xxx/8347"	"3"
"http://xxx/4310"	"3"
"http://xxx/14892"	"4"
"http://xxx/1691"	"3"
"http://xxx/14868"	"3"
"http://xxx/14865"	"3"
"http://xxx/14891"	"3"
"http://xxx/14884"	"4"
"http://xxx/14867"	"3"
"http://xxx/14864"	"3"
"http://xxx/14866"	"3"
"http://xxx/14863"	"3"
"http://xxx/2837"	"4"
"http://xxx/2831"	"4"
"http://xxx/2840"	"4"
"http://xxx/2838"	"4"
"http://xxx/2833"	"4"
"http://xxx/2834"	"4"
"http://xxx/7827"	"4"
"http://xxx/4163"	"4"
"http://xxx/2835"	"4"
"http://xxx/2832"	"4"
"http://xxx/2836"	"4"
"http://xxx/5343"	"1"
"http://xxx/8433"	"3"
"http://xxx/232"	"4"
"http://xxx/8100"	"3"
"http://xxx/240"	"3"
"http://xxx/4279"	"4"
"http://xxx/210"	"3"
"http://xxx/1652"	"4"
"http://xxx/8877"	"4"
"http://xxx/4505"	"4"
"http://xxx/1769"	"4"
"http://xxx/8029"	"4"
"http://xxx/6592"	"4"
"http://xxx/1875"	"4"
"http://xxx/5412"	"4"
"http://xxx/13572"	"4"
"http://xxx/186"	"3"
"http://xxx/7697"	"4"
"http://xxx/1899"	"3"
"http://xxx/6313"	"4"
"http://xxx/5756"	"4"
"http://xxx/5755"	"4"
"http://xxx/1898"	"4"
"http://xxx/6298"	"4"
"http://xxx/1902"	"4"
"http://xxx/8912"	"4"
"http://xxx/8909"	"4"
"http://xxx/7345"	"3"
"http://xxx/9193"	"4"
"http://xxx/202"	"4"
"http://xxx/219"	"3"
"http://xxx/4224"	"4"
"http://xxx/220"	"4"
"http://xxx/199"	"4"
"http://xxx/6304"	"4"
"http://xxx/6310"	"4"
"http://xxx/213"	"3"
"http://xxx/208"	"3"
"http://xxx/206"	"3"
"http://xxx/4184"	"4"
"http://xxx/4267"	"4"
"http://xxx/6262"	"4"
"http://xxx/9123"	"4"
"http://xxx/3900"	"4"
"http://xxx/6252"	"4"
"http://xxx/8286"	"4"
"http://xxx/2099"	"4"
"http://xxx/1503"	"4"
"http://xxx/5736"	"4"
"http://xxx/7910"	"4"
"http://xxx/1575"	"4"
"http://xxx/5840"	"3"
"http://xxx/4182"	"3"
"http://xxx/1553"	"4"
"http://xxx/9090"	"3"
"http://xxx/4183"	"4"
"http://xxx/5258"	"3"
"http://xxx/9331"	"4"
"http://xxx/5352"	"3"
"http://xxx/4234"	"4"
"http://xxx/5721"	"4"
"http://xxx/5858"	"4"
"http://xxx/5581"	"4"
"http://xxx/4217"	"3"
"http://xxx/7724"	"3"
"http://xxx/7726"	"4"
"http://xxx/13562"	"3"
"http://xxx/5268"	"4"
"http://xxx/8934"	"4"
"http://xxx/8486"	"4"
"http://xxx/7327"	"4"
"http://xxx/6026"	"4"
"http://xxx/8273"	"4"
"http://xxx/5175"	"4"
"http://xxx/9103"	"4"
"http://xxx/2587"	"4"
"http://xxx/9110"	"4"
"http://xxx/2634"	"4"
"http://xxx/1490"	"4"
"http://xxx/5181"	"4"
"http://xxx/8269"	"4"
"http://xxx/1625"	"4"
"http://xxx/9058"	"4"
"http://xxx/7740"	"4"
"http://xxx/879"	"4"
"http://xxx/7680"	"4"
"http://xxx/2190"	"4"
"http://xxx/3907"	"3"
"http://xxx/3894"	"4"
"http://xxx/14963"	"4"
"http://xxx/2269"	"4"
"http://xxx/9074"	"3"
"http://xxx/9075"	"4"
"http://xxx/9076"	"4"
"http://xxx/9211"	"3"
"http://xxx/1653"	"4"
"http://xxx/8675"	"4"
"http://xxx/9160"	"4"
"http://xxx/4609"	"4"
"http://xxx/7863"	"4"
"http://xxx/6660"	"4"
"http://xxx/6323"	"4"
"http://xxx/4080"	"4"
"http://xxx/7588"	"4"
"http://xxx/8175"	"4"
"http://xxx/8920"	"4"
"http://xxx/6365"	"4"
"http://xxx/441"	"4"
"http://xxx/9281"	"4"
"http://xxx/864"	"4"
"http://xxx/4383"	"4"
"http://xxx/1393"	"4"
"http://xxx/6316"	"4"
"http://xxx/2232"	"4"
"http://xxx/237"	"4"
"http://xxx/2009"	"4"
"http://xxx/2730"	"4"
"http://xxx/1782"	"4"
"http://xxx/2623"	"4"
"http://xxx/1489"	"4"
"http://xxx/14602"	"4"
"http://xxx/1458"	"4"
"http://xxx/8019"	"4"
"http://xxx/8422"	"4"
"http://xxx/6007"	"4"
"http://xxx/8222"	"4"
"http://xxx/6329"	"4"
"http://xxx/4249"	"4"
"http://xxx/1530"	"4"
"http://xxx/4934"	"4"
"http://xxx/8272"	"4"
"http://xxx/4586"	"4"
"http://xxx/2354"	"4"
"http://xxx/5180"	"4"
"http://xxx/7161"	"4"
"http://xxx/596"	"4"
"http://xxx/1746"	"4"
"http://xxx/5583"	"4"
"http://xxx/4018"	"4"
"http://xxx/7597"	"3"
"http://xxx/965"	"4"
"http://xxx/7590"	"4"
"http://xxx/7694"	"4"
"http://xxx/7097"	"3"
"http://xxx/5461"	"4"
"http://xxx/28"	"4"
"http://xxx/5914"	"3"
"http://xxx/7876"	"4"
"http://xxx/511"	"4"
"http://xxx/6064"	"4"
"http://xxx/6138"	"4"
"http://xxx/768"	"4"
"http://xxx/450"	"4"
"http://xxx/8415"	"4"
"http://xxx/6646"	"4"
"http://xxx/6325"	"4"
"http://xxx/451"	"4"
"http://xxx/8275"	"3"
"http://xxx/2131"	"3"
"http://xxx/8268"	"4"
"http://xxx/7776"	"3"
"http://xxx/157"	"3"
"http://xxx/8072"	"4"
"http://xxx/623"	"4"
"http://xxx/556"	"3"
"http://xxx/557"	"4"
"http://xxx/5243"	"4"
"http://xxx/880"	"3"
"http://xxx/5138"	"3"
"http://xxx/8088"	"3"
"http://xxx/5357"	"1"
"http://xxx/1639"	"3"
"http://xxx/2263"	"4"
"http://xxx/8574"	"4"
"http://xxx/4746"	"1"
"http://xxx/4739"	"3"
"http://xxx/4744"	"3"
"http://xxx/4577"	"1"
"http://xxx/4581"	"4"
"http://xxx/9369"	"4"
"http://xxx/4584"	"4"
"http://xxx/2683"	"4"
"http://xxx/1623"	"3"
"http://xxx/5814"	"4"
"http://xxx/5818"	"3"
"http://xxx/5234"	"3"
"http://xxx/5004"	"3"
"http://xxx/9375"	"3"
"http://xxx/9366"	"4"
"http://xxx/5787"	"4"
"http://xxx/25"	"4"
"http://xxx/9409"	"3"
"http://xxx/7974"	"3"
"http://xxx/4015"	"3"
"http://xxx/2290"	"4"
"http://xxx/2301"	"4"
"http://xxx/5781"	"3"
"http://xxx/4424"	"3"
"http://xxx/2684"	"3"
"http://xxx/8572"	"3"
"http://xxx/2687"	"3"
"http://xxx/9116"	"1"
"http://xxx/9105"	"3"
"http://xxx/7063"	"4"
"http://xxx/4420"	"4"
"http://xxx/8626"	"4"
"http://xxx/792"	"4"
"http://xxx/4358"	"1"
"http://xxx/5945"	"4"
"http://xxx/571"	"4"
"http://xxx/2093"	"4"
"http://xxx/8381"	"4"
"http://xxx/4777"	"4"
"http://xxx/2409"	"4"
"http://xxx/5802"	"4"
"http://xxx/1533"	"3"
"http://xxx/572"	"3"
"http://xxx/456"	"4"
"http://xxx/4475"	"4"
"http://xxx/1889"	"3"
"http://xxx/9171"	"4"
"http://xxx/490"	"4"
"http://xxx/2316"	"3"
"http://xxx/8840"	"1"
"http://xxx/78"	"3"
"http://xxx/4628"	"4"
"http://xxx/7091"	"4"
"http://xxx/7104"	"4"
"http://xxx/4969"	"4"
"http://xxx/4641"	"4"
"http://xxx/2015"	"4"
"http://xxx/6997"	"4"
"http://xxx/7419"	"4"
"http://xxx/4646"	"4"
"http://xxx/4611"	"4"
"http://xxx/5295"	"4"
"http://xxx/7202"	"3"
"http://xxx/6908"	"3"
"http://xxx/7856"	"3"
"http://xxx/6412"	"3"
"http://xxx/6418"	"4"
"http://xxx/6429"	"4"
"http://xxx/6423"	"4"
"http://xxx/6395"	"4"
"http://xxx/5262"	"3"
"http://xxx/1505"	"4"
"http://xxx/4574"	"1"
"http://xxx/4573"	"4"
"http://xxx/1400"	"4"
"http://xxx/7038"	"4"
"http://xxx/7992"	"4"
"http://xxx/4480"	"4"
"http://xxx/5203"	"4"
"http://xxx/5863"	"4"
"http://xxx/4481"	"4"
"http://xxx/7712"	"4"
"http://xxx/1399"	"3"
"http://xxx/5119"	"3"
"http://xxx/6467"	"4"
"http://xxx/5123"	"4"
"http://xxx/5646"	"4"
"http://xxx/7939"	"4"
"http://xxx/5230"	"3"
"http://xxx/1992"	"3"
"http://xxx/7223"	"3"
"http://xxx/8351"	"3"
"http://xxx/398"	"3"
"http://xxx/2070"	"3"
"http://xxx/8664"	"4"
"http://xxx/8159"	"4"
"http://xxx/5839"	"4"
"http://xxx/8285"	"4"
"http://xxx/8720"	"4"
"http://xxx/2367"	"4"
"http://xxx/417"	"4"
"http://xxx/994"	"4"
"http://xxx/501"	"4"
"http://xxx/2291"	"4"
"http://xxx/9079"	"4"
"http://xxx/5390"	"4"
"http://xxx/253"	"4"
"http://xxx/5322"	"4"
"http://xxx/788"	"4"
"http://xxx/2612"	"4"
"http://xxx/1595"	"4"
"http://xxx/6939"	"4"
"http://xxx/5116"	"4"
"http://xxx/9135"	"4"
"http://xxx/6422"	"4"
"http://xxx/4152"	"4"
"http://xxx/7395"	"4"
"http://xxx/3914"	"4"
"http://xxx/7390"	"3"
"http://xxx/1673"	"4"
"http://xxx/6911"	"4"
"http://xxx/6896"	"4"
"http://xxx/4317"	"4"
"http://xxx/14901"	"4"
"http://xxx/693"	"4"
"http://xxx/6925"	"4"
"http://xxx/4810"	"4"
"http://xxx/695"	"4"
"http://xxx/5231"	"4"
"http://xxx/4698"	"4"
"http://xxx/5674"	"4"
"http://xxx/2380"	"3"
"http://xxx/800"	"4"
"http://xxx/5666"	"4"
"http://xxx/5650"	"4"
"http://xxx/5229"	"4"
"http://xxx/9199"	"4"
"http://xxx/823"	"4"
"http://xxx/6915"	"4"
"http://xxx/7878"	"4"
"http://xxx/2571"	"4"
"http://xxx/865"	"4"
"http://xxx/6227"	"3"
"http://xxx/8442"	"4"
"http://xxx/5651"	"4"
"http://xxx/2663"	"3"
"http://xxx/7936"	"4"
"http://xxx/2673"	"4"
"http://xxx/6445"	"4"
"http://xxx/4231"	"4"
"http://xxx/15030"	"4"
"http://xxx/9086"	"4"
"http://xxx/2668"	"4"
"http://xxx/6413"	"4"
"http://xxx/5391"	"4"
"http://xxx/9078"	"4"
"http://xxx/2679"	"4"
"http://xxx/8588"	"4"
"http://xxx/8742"	"4"
"http://xxx/9398"	"3"
"http://xxx/5518"	"3"
"http://xxx/3933"	"3"
"http://xxx/816"	"4"
"http://xxx/971"	"3"
"http://xxx/2069"	"4"
"http://xxx/6248"	"4"
"http://xxx/5463"	"4"
"http://xxx/605"	"3"
"http://xxx/5161"	"4"
"http://xxx/6211"	"4"
"http://xxx/6244"	"3"
"http://xxx/6240"	"3"
"http://xxx/437"	"4"
"http://xxx/4055"	"4"
"http://xxx/2518"	"4"
"http://xxx/881"	"4"
"http://xxx/8141"	"4"
"http://xxx/243"	"4"
"http://xxx/6359"	"4"
"http://xxx/4288"	"4"
"http://xxx/5554"	"4"
"http://xxx/6777"	"4"
"http://xxx/4325"	"4"
"http://xxx/4157"	"4"
"http://xxx/7179"	"4"
"http://xxx/4977"	"4"
"http://xxx/8703"	"4"
"http://xxx/5152"	"4"
"http://xxx/7686"	"4"
"http://xxx/7730"	"4"
"http://xxx/5547"	"4"
"http://xxx/8537"	"4"
"http://xxx/5752"	"3"
"http://xxx/4286"	"3"
"http://xxx/8951"	"4"
"http://xxx/6887"	"3"
"http://xxx/6899"	"4"
"http://xxx/5708"	"4"
"http://xxx/1482"	"3"
"http://xxx/7568"	"3"
"http://xxx/7282"	"3"
"http://xxx/7364"	"4"
"http://xxx/8599"	"4"
"http://xxx/7319"	"4"
"http://xxx/22"	"4"
"http://xxx/8701"	"4"
"http://xxx/5395"	"4"
"http://xxx/3963"	"4"
"http://xxx/8592"	"3"
"http://xxx/5833"	"3"
"http://xxx/7423"	"4"
"http://xxx/7298"	"4"
"http://xxx/5505"	"4"
"http://xxx/5199"	"4"
"http://xxx/514"	"4"
"http://xxx/5465"	"4"
"http://xxx/9323"	"4"
"http://xxx/1481"	"4"
"http://xxx/406"	"4"
"http://xxx/8976"	"4"
"http://xxx/503"	"4"
"http://xxx/5043"	"4"
"http://xxx/6282"	"4"
"http://xxx/775"	"4"
"http://xxx/8944"	"4"
"http://xxx/212"	"4"
"http://xxx/6115"	"4"
"http://xxx/9032"	"4"
"http://xxx/9310"	"4"
"http://xxx/1798"	"4"
"http://xxx/698"	"4"
"http://xxx/939"	"4"
"http://xxx/510"	"4"
"http://xxx/2005"	"3"
"http://xxx/13976"	"3"
"http://xxx/13921"	"4"
"http://xxx/14543"	"4"
"http://xxx/8362"	"4"
"http://xxx/13922"	"4"
"http://xxx/5147"	"4"
"http://xxx/8559"	"3"
"http://xxx/6176"	"3"
"http://xxx/411"	"4"
"http://xxx/4799"	"3"
"http://xxx/4998"	"3"
"http://xxx/8259"	"3"
"http://xxx/2740"	"4"
"http://xxx/2718"	"4"
"http://xxx/4885"	"3"
"http://xxx/1600"	"3"
"http://xxx/5430"	"3"
"http://xxx/7478"	"3"
"http://xxx/1951"	"1"
"http://xxx/1378"	"1"
"http://xxx/1368"	"4"
"http://xxx/6109"	"4"
"http://xxx/4354"	"3"
"http://xxx/6140"	"3"
"http://xxx/9085"	"3"
"http://xxx/2749"	"4"
"http://xxx/8503"	"4"
"http://xxx/7929"	"3"
"http://xxx/7759"	"3"
"http://xxx/6202"	"4"
"http://xxx/594"	"3"
"http://xxx/8020"	"3"
"http://xxx/7720"	"3"
"http://xxx/7103"	"1"
"http://xxx/6190"	"4"
"http://xxx/2071"	"4"
"http://xxx/8350"	"4"
"http://xxx/5428"	"4"
"http://xxx/250"	"4"
"http://xxx/4814"	"4"
"http://xxx/7621"	"4"
"http://xxx/9087"	"4"
"http://xxx/7738"	"4"
"http://xxx/4749"	"1"
"http://xxx/4790"	"4"
"http://xxx/5432"	"4"
"http://xxx/14968"	"4"
"http://xxx/7070"	"4"
"http://xxx/5482"	"4"
"http://xxx/2704"	"4"
"http://xxx/7574"	"4"
"http://xxx/7402"	"4"
"http://xxx/8448"	"4"
"http://xxx/984"	"4"
"http://xxx/4333"	"4"
"http://xxx/5044"	"4"
"http://xxx/5848"	"4"
"http://xxx/1523"	"4"
"http://xxx/7538"	"4"
"http://xxx/2022"	"4"
"http://xxx/5789"	"4"
"http://xxx/7535"	"3"
"http://xxx/1526"	"3"
"http://xxx/8478"	"3"
"http://xxx/3958"	"4"
"http://xxx/8480"	"4"
"http://xxx/4863"	"4"
"http://xxx/448"	"4"
"http://xxx/6627"	"3"
"http://xxx/5669"	"3"
"http://xxx/4864"	"4"
"http://xxx/4524"	"4"
"http://xxx/4735"	"4"
"http://xxx/6152"	"4"
"http://xxx/9119"	"3"
"http://xxx/2428"	"4"
"http://xxx/6759"	"4"
"http://xxx/5565"	"4"
"http://xxx/8006"	"4"
"http://xxx/5339"	"4"
"http://xxx/1548"	"4"
"http://xxx/2510"	"4"
"http://xxx/4957"	"4"
"http://xxx/2811"	"4"
"http://xxx/5282"	"3"
"http://xxx/4226"	"3"
"http://xxx/4244"	"3"
"http://xxx/7080"	"3"
"http://xxx/7066"	"3"
"http://xxx/4990"	"3"
"http://xxx/7000"	"3"
"http://xxx/8151"	"3"
"http://xxx/2161"	"3"
"http://xxx/235"	"3"
"http://xxx/7073"	"3"
"http://xxx/7444"	"3"
"http://xxx/8562"	"3"
"http://xxx/2793"	"3"
"http://xxx/6970"	"4"
"http://xxx/2222"	"4"
"http://xxx/891"	"4"
"http://xxx/7557"	"4"
"http://xxx/2656"	"4"
"http://xxx/277"	"4"
"http://xxx/2350"	"4"
"http://xxx/6978"	"4"
"http://xxx/8794"	"3"
"http://xxx/4037"	"4"
"http://xxx/5559"	"4"
"http://xxx/5474"	"3"
"http://xxx/7592"	"3"
"http://xxx/8145"	"3"
"http://xxx/2520"	"1"
"http://xxx/841"	"3"
"http://xxx/861"	"4"
"http://xxx/5216"	"4"
"http://xxx/8280"	"4"
"http://xxx/5097"	"3"
"http://xxx/8278"	"4"
"http://xxx/6399"	"3"
"http://xxx/2440"	"3"
"http://xxx/2774"	"4"
"http://xxx/8785"	"3"
"http://xxx/8607"	"3"
"http://xxx/8992"	"4"
"http://xxx/2175"	"3"
"http://xxx/8319"	"4"
"http://xxx/2557"	"4"
"http://xxx/8321"	"3"
"http://xxx/2638"	"4"
"http://xxx/7600"	"4"
"http://xxx/2639"	"4"
"http://xxx/2643"	"3"
"http://xxx/8629"	"4"
"http://xxx/2635"	"4"
"http://xxx/2640"	"4"
"http://xxx/2642"	"4"
"http://xxx/2637"	"4"
"http://xxx/2636"	"4"
"http://xxx/5982"	"3"
"http://xxx/8198"	"3"
"http://xxx/3915"	"4"
"http://xxx/5676"	"4"
"http://xxx/5670"	"4"
"http://xxx/4498"	"3"
"http://xxx/9412"	"3"
"http://xxx/5154"	"3"
"http://xxx/68"	"3"
"http://xxx/66"	"4"
"http://xxx/7699"	"3"
"http://xxx/6338"	"3"
"http://xxx/1532"	"3"
"http://xxx/1401"	"3"
"http://xxx/1792"	"3"
"http://xxx/5589"	"3"
"http://xxx/8495"	"3"
"http://xxx/6935"	"3"
"http://xxx/5605"	"3"
"http://xxx/6196"	"3"
"http://xxx/567"	"3"
"http://xxx/8490"	"3"
"http://xxx/4723"	"3"
"http://xxx/8428"	"3"
"http://xxx/4483"	"3"
"http://xxx/1373"	"3"
"http://xxx/781"	"3"
"http://xxx/719"	"3"
"http://xxx/4103"	"3"
"http://xxx/8680"	"4"
"http://xxx/624"	"3"
"http://xxx/245"	"4"
"http://xxx/632"	"3"
"http://xxx/8696"	"4"
"http://xxx/7170"	"3"
"http://xxx/2790"	"4"
"http://xxx/1706"	"4"
"http://xxx/9223"	"4"
"http://xxx/5048"	"4"
"http://xxx/5520"	"4"
"http://xxx/6169"	"4"
"http://xxx/2658"	"3"
"http://xxx/7188"	"4"
"http://xxx/4147"	"4"
"http://xxx/2383"	"4"
"http://xxx/4150"	"4"
"http://xxx/6446"	"3"
"http://xxx/1384"	"4"
"http://xxx/5838"	"4"
"http://xxx/6447"	"4"
"http://xxx/6473"	"4"
"http://xxx/5654"	"4"
"http://xxx/2084"	"3"
"http://xxx/6406"	"4"
"http://xxx/42"	"4"
"http://xxx/1752"	"3"
"http://xxx/6904"	"4"
"http://xxx/6474"	"3"
"http://xxx/6357"	"4"
"http://xxx/2185"	"4"
"http://xxx/2674"	"4"
"http://xxx/6280"	"4"
"http://xxx/4256"	"3"
"http://xxx/6421"	"3"
"http://xxx/5392"	"3"
"http://xxx/255"	"3"
"http://xxx/8596"	"3"
"http://xxx/2665"	"1"
"http://xxx/8597"	"4"
"http://xxx/2795"	"4"
"http://xxx/9080"	"3"
"http://xxx/5631"	"3"
"http://xxx/5648"	"4"
"http://xxx/2109"	"3"
"http://xxx/4160"	"4"
"http://xxx/1774"	"3"
"http://xxx/6709"	"3"
"http://xxx/718"	"4"
"http://xxx/7692"	"3"
"http://xxx/9300"	"3"
"http://xxx/7627"	"3"
"http://xxx/6508"	"4"
"http://xxx/5643"	"4"
"http://xxx/55"	"3"
"http://xxx/4518"	"4"
"http://xxx/1745"	"4"
"http://xxx/2715"	"4"
"http://xxx/270"	"4"
"http://xxx/14973"	"4"
"http://xxx/8133"	"4"
"http://xxx/5042"	"4"
"http://xxx/4196"	"4"
"http://xxx/5057"	"4"
"http://xxx/5056"	"4"
"http://xxx/6469"	"3"
"http://xxx/6425"	"4"
"http://xxx/6451"	"4"
"http://xxx/6892"	"3"
"http://xxx/7593"	"3"
"http://xxx/5354"	"3"
"http://xxx/14924"	"4"
"http://xxx/6860"	"4"
"http://xxx/5353"	"4"
"http://xxx/1989"	"4"
"http://xxx/6920"	"4"
"http://xxx/5347"	"4"
"http://xxx/5350"	"4"
"http://xxx/7407"	"4"
"http://xxx/5013"	"4"
"http://xxx/8240"	"4"
"http://xxx/726"	"3"
"http://xxx/5349"	"3"
"http://xxx/2129"	"4"
"http://xxx/6883"	"4"
"http://xxx/6452"	"4"
"http://xxx/8595"	"3"
"http://xxx/7578"	"3"
"http://xxx/15031"	"3"
"http://xxx/856"	"4"
"http://xxx/8249"	"4"
"http://xxx/6462"	"4"
"http://xxx/4200"	"4"
"http://xxx/1915"	"4"
"http://xxx/6919"	"4"
"http://xxx/4202"	"3"
"http://xxx/4710"	"1"
"http://xxx/2753"	"4"
"http://xxx/14208"	"1"
"http://xxx/8843"	"4"
"http://xxx/2140"	"4"
"http://xxx/2157"	"4"
"http://xxx/505"	"4"
"http://xxx/5031"	"4"
"http://xxx/8388"	"3"
"http://xxx/551"	"4"
"http://xxx/6362"	"4"
"http://xxx/7595"	"4"
"http://xxx/5224"	"4"
"http://xxx/8179"	"4"
"http://xxx/8685"	"4"
"http://xxx/1559"	"4"
"http://xxx/8807"	"4"
"http://xxx/5403"	"4"
"http://xxx/4515"	"4"
"http://xxx/3947"	"4"
"http://xxx/9298"	"4"
"http://xxx/8360"	"4"
"http://xxx/9353"	"4"
"http://xxx/2531"	"3"
"http://xxx/2438"	"4"
"http://xxx/2519"	"3"
"http://xxx/4432"	"3"
"http://xxx/1356"	"1"
"http://xxx/2775"	"4"
"http://xxx/2799"	"3"
"http://xxx/13576"	"4"
"http://xxx/2773"	"4"
"http://xxx/2779"	"4"
"http://xxx/2786"	"4"
"http://xxx/8872"	"3"
"http://xxx/4828"	"3"
"http://xxx/8067"	"3"
"http://xxx/5530"	"3"
"http://xxx/4929"	"3"
"http://xxx/685"	"3"
"http://xxx/1431"	"3"
"http://xxx/256"	"3"
"http://xxx/2766"	"4"
"http://xxx/4971"	"4"
"http://xxx/2215"	"4"
"http://xxx/7659"	"3"
"http://xxx/5007"	"3"
"http://xxx/432"	"4"
"http://xxx/4843"	"4"
"http://xxx/5500"	"3"
"http://xxx/14957"	"3"
"http://xxx/4867"	"4"
"http://xxx/5274"	"3"
"http://xxx/5685"	"4"
"http://xxx/5264"	"4"
"http://xxx/2738"	"4"
"http://xxx/7175"	"4"
"http://xxx/873"	"3"
"http://xxx/8919"	"4"
"http://xxx/5215"	"4"
"http://xxx/445"	"4"
"http://xxx/1467"	"3"
"http://xxx/5544"	"3"
"http://xxx/5537"	"4"
"http://xxx/1827"	"4"
"http://xxx/9363"	"4"
"http://xxx/2400"	"4"
"http://xxx/14837"	"4"
"http://xxx/5171"	"3"
"http://xxx/7056"	"3"
"http://xxx/4823"	"4"
"http://xxx/5018"	"4"
"http://xxx/921"	"4"
"http://xxx/1449"	"4"
"http://xxx/6870"	"3"
"http://xxx/832"	"4"
"http://xxx/5912"	"4"
"http://xxx/6493"	"4"
"http://xxx/2259"	"4"
"http://xxx/560"	"3"
"http://xxx/562"	"4"
"http://xxx/5929"	"3"
"http://xxx/6183"	"4"
"http://xxx/2207"	"4"
"http://xxx/6499"	"3"
"http://xxx/87"	"4"
"http://xxx/3937"	"3"
"http://xxx/5927"	"3"
"http://xxx/5937"	"4"
"http://xxx/5931"	"4"
"http://xxx/5924"	"3"
"http://xxx/5936"	"3"
"http://xxx/1931"	"3"
"http://xxx/5604"	"4"
"http://xxx/6846"	"4"
"http://xxx/6492"	"3"
"http://xxx/564"	"1"
"http://xxx/6570"	"4"
"http://xxx/1499"	"4"
"http://xxx/2040"	"4"
"http://xxx/2014"	"4"
"http://xxx/766"	"4"
"http://xxx/2260"	"4"
"http://xxx/1674"	"4"
"http://xxx/1808"	"4"
"http://xxx/5949"	"4"
"http://xxx/4722"	"4"
"http://xxx/2119"	"4"
"http://xxx/4485"	"4"
"http://xxx/6855"	"3"
"http://xxx/812"	"4"
"http://xxx/5269"	"4"
"http://xxx/6129"	"3"
"http://xxx/6131"	"4"
"http://xxx/5163"	"3"
"http://xxx/2039"	"3"
"http://xxx/4395"	"3"
"http://xxx/7167"	"3"
"http://xxx/7204"	"3"
"http://xxx/7839"	"3"
"http://xxx/4487"	"3"
"http://xxx/7976"	"4"
"http://xxx/901"	"4"
"http://xxx/6519"	"4"
"http://xxx/1638"	"4"
"http://xxx/765"	"4"
"http://xxx/544"	"4"
"http://xxx/1569"	"4"
"http://xxx/8401"	"4"
"http://xxx/7163"	"4"
"http://xxx/8683"	"3"
"http://xxx/6035"	"4"
"http://xxx/6577"	"4"
"http://xxx/7450"	"4"
"http://xxx/3935"	"4"
"http://xxx/902"	"3"
"http://xxx/7541"	"3"
"http://xxx/903"	"3"
"http://xxx/6518"	"3"
"http://xxx/4126"	"1"
"http://xxx/7443"	"3"
"http://xxx/8377"	"3"
"http://xxx/6600"	"4"
"http://xxx/7803"	"3"
"http://xxx/15028"	"3"
"http://xxx/5388"	"1"
"http://xxx/6720"	"4"
"http://xxx/4550"	"4"
"http://xxx/2179"	"4"
"http://xxx/2754"	"4"
"http://xxx/7050"	"4"
"http://xxx/4913"	"4"
"http://xxx/5384"	"4"
"http://xxx/1582"	"3"
"http://xxx/8721"	"4"
"http://xxx/2177"	"4"
"http://xxx/8780"	"3"
"http://xxx/6162"	"4"
"http://xxx/2720"	"4"
"http://xxx/2594"	"4"
"http://xxx/5714"	"4"
"http://xxx/2736"	"4"
"http://xxx/2724"	"4"
"http://xxx/2608"	"3"
"http://xxx/2748"	"3"
"http://xxx/1777"	"4"
"http://xxx/5668"	"4"
"http://xxx/2734"	"3"
"http://xxx/2716"	"4"
"http://xxx/2741"	"3"
"http://xxx/7908"	"4"
"http://xxx/7904"	"4"
"http://xxx/2742"	"4"
"http://xxx/7107"	"4"
"http://xxx/5829"	"3"
"http://xxx/4122"	"3"
"http://xxx/1502"	"3"
"http://xxx/2601"	"3"
"http://xxx/1794"	"4"
"http://xxx/912"	"4"
"http://xxx/4982"	"4"
"http://xxx/7124"	"4"
"http://xxx/6312"	"4"
"http://xxx/5076"	"4"
"http://xxx/9183"	"4"
"http://xxx/914"	"4"
"http://xxx/5238"	"4"
"http://xxx/995"	"4"
"http://xxx/404"	"4"
"http://xxx/7927"	"4"
"http://xxx/8769"	"4"
"http://xxx/4356"	"4"
"http://xxx/1362"	"4"
"http://xxx/6621"	"4"
"http://xxx/7306"	"4"
"http://xxx/508"	"4"
"http://xxx/4632"	"4"
"http://xxx/7617"	"4"
"http://xxx/4871"	"4"
"http://xxx/1870"	"4"
"http://xxx/8519"	"4"
"http://xxx/5237"	"3"
"http://xxx/1479"	"4"
"http://xxx/5197"	"4"
"http://xxx/4118"	"4"
"http://xxx/6013"	"4"
"http://xxx/5270"	"4"
"http://xxx/8344"	"3"
"http://xxx/5288"	"3"
"http://xxx/6163"	"4"
"http://xxx/5038"	"3"
"http://xxx/4108"	"3"
"http://xxx/1892"	"3"
"http://xxx/7715"	"4"
"http://xxx/945"	"4"
"http://xxx/5404"	"4"
"http://xxx/5080"	"4"
"http://xxx/4771"	"3"
"http://xxx/8870"	"4"
"http://xxx/7781"	"3"
"http://xxx/7798"	"4"
"http://xxx/7793"	"4"
"http://xxx/7805"	"4"
"http://xxx/7813"	"4"
"http://xxx/7787"	"4"
"http://xxx/4137"	"4"
"http://xxx/7815"	"4"
"http://xxx/7099"	"4"
"http://xxx/7784"	"4"
"http://xxx/7790"	"4"
"http://xxx/7622"	"4"
"http://xxx/5987"	"4"
"http://xxx/7513"	"4"
"http://xxx/7502"	"4"
"http://xxx/9262"	"4"
"http://xxx/9172"	"4"
"http://xxx/5967"	"4"
"http://xxx/9190"	"4"
"http://xxx/4922"	"4"
"http://xxx/2024"	"4"
"http://xxx/7520"	"4"
"http://xxx/6485"	"1"
"http://xxx/6481"	"3"
"http://xxx/7180"	"4"
"http://xxx/3881"	"4"
"http://xxx/8580"	"4"
"http://xxx/4250"	"4"
"http://xxx/185"	"4"
"http://xxx/14960"	"1"
"http://xxx/1763"	"4"
"http://xxx/14964"	"3"
"http://xxx/7112"	"3"
"http://xxx/4362"	"3"
"http://xxx/7816"	"3"
"http://xxx/9010"	"4"
"http://xxx/7279"	"4"
"http://xxx/2062"	"4"
"http://xxx/4702"	"3"
"http://xxx/2358"	"4"
"http://xxx/6810"	"3"
"http://xxx/6009"	"3"
"http://xxx/6822"	"3"
"http://xxx/7404"	"4"
"http://xxx/7126"	"4"
"http://xxx/4374"	"3"
"http://xxx/4375"	"4"
"http://xxx/4376"	"4"
"http://xxx/6261"	"3"
"http://xxx/5555"	"1"
"http://xxx/6861"	"4"
"http://xxx/4866"	"4"
"http://xxx/4808"	"4"
"http://xxx/8761"	"3"
"http://xxx/6551"	"3"
"http://xxx/6739"	"3"
"http://xxx/7185"	"4"
"http://xxx/3971"	"3"
"http://xxx/568"	"3"
"http://xxx/4850"	"3"
"http://xxx/4852"	"4"
"http://xxx/5449"	"3"
"http://xxx/14845"	"4"
"http://xxx/5283"	"4"
"http://xxx/4728"	"4"
"http://xxx/8538"	"4"
"http://xxx/7973"	"4"
"http://xxx/6778"	"4"
"http://xxx/3884"	"4"
"http://xxx/4154"	"4"
"http://xxx/6827"	"4"
"http://xxx/6774"	"4"
"http://xxx/7729"	"4"
"http://xxx/5806"	"4"
"http://xxx/1799"	"4"
"http://xxx/5575"	"3"
"http://xxx/8539"	"3"
"http://xxx/2528"	"3"
"http://xxx/8541"	"3"
"http://xxx/2529"	"4"
"http://xxx/1946"	"3"
"http://xxx/6250"	"3"
"http://xxx/5869"	"3"
"http://xxx/7464"	"3"
"http://xxx/4974"	"3"
"http://xxx/5653"	"4"
"http://xxx/474"	"3"
"http://xxx/5890"	"4"
"http://xxx/2705"	"4"
"http://xxx/8494"	"4"
"http://xxx/4945"	"4"
"http://xxx/5569"	"4"
"http://xxx/7182"	"3"
"http://xxx/2182"	"4"
"http://xxx/7120"	"4"
"http://xxx/839"	"4"
"http://xxx/846"	"4"
"http://xxx/4802"	"4"
"http://xxx/2654"	"4"
"http://xxx/5462"	"4"
"http://xxx/13570"	"3"
"http://xxx/776"	"4"
"http://xxx/6486"	"4"
"http://xxx/6505"	"4"
"http://xxx/6128"	"4"
"http://xxx/6458"	"4"
"http://xxx/4386"	"4"
"http://xxx/1619"	"4"
"http://xxx/6443"	"4"
"http://xxx/9322"	"3"
"http://xxx/7187"	"3"
"http://xxx/755"	"3"
"http://xxx/5968"	"3"
"http://xxx/7791"	"4"
"http://xxx/7832"	"4"
"http://xxx/7817"	"4"
"http://xxx/14974"	"4"
"http://xxx/1618"	"4"
"http://xxx/6785"	"4"
"http://xxx/5880"	"4"
"http://xxx/1419"	"4"
"http://xxx/5364"	"4"
"http://xxx/7810"	"4"
"http://xxx/401"	"1"
"http://xxx/402"	"4"
"http://xxx/8149"	"4"
"http://xxx/4412"	"4"
"http://xxx/8084"	"4"
"http://xxx/151"	"4"
"http://xxx/6867"	"4"
"http://xxx/5261"	"4"
"http://xxx/7425"	"4"
"http://xxx/9071"	"4"
"http://xxx/9069"	"4"
"http://xxx/7438"	"4"
"http://xxx/14947"	"4"
"http://xxx/2304"	"4"
"http://xxx/8004"	"4"
"http://xxx/8747"	"4"
"http://xxx/607"	"1"
"http://xxx/7796"	"4"
"http://xxx/1738"	"3"
"http://xxx/7047"	"3"
"http://xxx/8299"	"3"
"http://xxx/5580"	"4"
"http://xxx/2247"	"3"
"http://xxx/5303"	"3"
"http://xxx/2213"	"4"
"http://xxx/6594"	"3"
"http://xxx/71"	"4"
"http://xxx/5783"	"4"
"http://xxx/4402"	"4"
"http://xxx/1426"	"4"
"http://xxx/5737"	"3"
"http://xxx/2254"	"3"
"http://xxx/2372"	"3"
"http://xxx/7921"	"3"
"http://xxx/9045"	"3"
"http://xxx/746"	"3"
"http://xxx/4206"	"4"
"http://xxx/7194"	"4"
"http://xxx/8713"	"4"
"http://xxx/7519"	"4"
"http://xxx/6831"	"4"
"http://xxx/2211"	"4"
"http://xxx/1660"	"4"
"http://xxx/1784"	"4"
"http://xxx/7651"	"4"
"http://xxx/9209"	"3"
"http://xxx/4022"	"4"
"http://xxx/4868"	"4"
"http://xxx/2159"	"4"
"http://xxx/2651"	"4"
"http://xxx/8078"	"4"
"http://xxx/8434"	"4"
"http://xxx/6804"	"4"
"http://xxx/6790"	"4"
"http://xxx/5734"	"4"
"http://xxx/6982"	"4"
"http://xxx/2050"	"4"
"http://xxx/7232"	"4"
"http://xxx/5799"	"4"
"http://xxx/5792"	"4"
"http://xxx/7579"	"4"
"http://xxx/7149"	"4"
"http://xxx/14904"	"3"
"http://xxx/14909"	"4"
"http://xxx/14908"	"4"
"http://xxx/14907"	"4"
"http://xxx/2796"	"1"
"http://xxx/1825"	"4"
"http://xxx/1824"	"4"
"http://xxx/9065"	"4"
"http://xxx/7115"	"3"
"http://xxx/1826"	"3"
"http://xxx/2596"	"3"
"http://xxx/1822"	"3"
"http://xxx/2755"	"1"
"http://xxx/6371"	"3"
"http://xxx/6384"	"4"
"http://xxx/6380"	"4"
"http://xxx/6387"	"3"
"http://xxx/2054"	"3"
"http://xxx/2414"	"1"
"http://xxx/4434"	"3"
"http://xxx/595"	"4"
"http://xxx/7752"	"4"
"http://xxx/8776"	"4"
"http://xxx/4422"	"4"
"http://xxx/2031"	"3"
"http://xxx/4429"	"3"
"http://xxx/4427"	"3"
"http://xxx/14971"	"3"
"http://xxx/4417"	"3"
"http://xxx/5419"	"4"
"http://xxx/4421"	"3"
"http://xxx/8745"	"3"
"http://xxx/1958"	"3"
"http://xxx/9028"	"3"
"http://xxx/1528"	"4"
"http://xxx/639"	"4"
"http://xxx/8695"	"3"
"http://xxx/4492"	"3"
"http://xxx/8128"	"3"
"http://xxx/6928"	"1"
"http://xxx/8263"	"4"
"http://xxx/7172"	"4"
"http://xxx/2035"	"4"
"http://xxx/4916"	"4"
"http://xxx/7376"	"4"
"http://xxx/2789"	"4"
"http://xxx/4662"	"4"
"http://xxx/7718"	"4"
"http://xxx/4149"	"4"
"http://xxx/8117"	"4"
"http://xxx/8265"	"3"
"http://xxx/14843"	"4"
"http://xxx/1809"	"1"
"http://xxx/4054"	"4"
"http://xxx/2530"	"4"
"http://xxx/5786"	"3"
"http://xxx/1561"	"4"
"http://xxx/866"	"3"
"http://xxx/6525"	"1"
"http://xxx/6523"	"3"
"http://xxx/7531"	"3"
"http://xxx/5662"	"4"
"http://xxx/1757"	"4"
"http://xxx/2023"	"4"
"http://xxx/5847"	"4"
"http://xxx/7400"	"4"
"http://xxx/8304"	"4"
"http://xxx/14956"	"4"
"http://xxx/8143"	"4"
"http://xxx/5823"	"4"
"http://xxx/5874"	"4"
"http://xxx/4819"	"4"
"http://xxx/6084"	"4"
"http://xxx/7500"	"4"
"http://xxx/1507"	"4"
"http://xxx/4818"	"3"
"http://xxx/6081"	"3"
"http://xxx/1500"	"3"
"http://xxx/926"	"4"
"http://xxx/1554"	"4"
"http://xxx/7302"	"1"
"http://xxx/15020"	"3"
"http://xxx/4371"	"4"
"http://xxx/2195"	"3"
"http://xxx/14910"	"3"
"http://xxx/14927"	"3"
"http://xxx/14911"	"3"
"http://xxx/14912"	"4"
"http://xxx/14913"	"4"
"http://xxx/14925"	"3"
"http://xxx/14914"	"3"
"http://xxx/14928"	"3"
"http://xxx/14902"	"3"
"http://xxx/14905"	"3"
"http://xxx/14926"	"3"
"http://xxx/14915"	"3"
"http://xxx/665"	"3"
"http://xxx/7410"	"3"
"http://xxx/5014"	"3"
"http://xxx/7831"	"4"
"http://xxx/7830"	"3"
"http://xxx/6454"	"3"
"http://xxx/5409"	"1"
"http://xxx/5401"	"3"
"http://xxx/3949"	"4"
"http://xxx/3966"	"3"
"http://xxx/9004"	"3"
"http://xxx/9003"	"4"
"http://xxx/6507"	"3"
"http://xxx/7230"	"3"
"http://xxx/5362"	"3"
"http://xxx/8252"	"3"
"http://xxx/7396"	"4"
"http://xxx/6510"	"3"
"http://xxx/14194"	"3"
"http://xxx/4999"	"4"
"http://xxx/2103"	"3"
"http://xxx/8999"	"3"
"http://xxx/1457"	"4"
"http://xxx/7283"	"3"
"http://xxx/733"	"1"
"http://xxx/895"	"4"
"http://xxx/394"	"4"
"http://xxx/5611"	"4"
"http://xxx/146"	"4"
"http://xxx/5460"	"4"
"http://xxx/5613"	"1"
"http://xxx/5612"	"4"
"http://xxx/13577"	"4"
"http://xxx/4350"	"4"
"http://xxx/1933"	"3"
"http://xxx/5178"	"3"
"http://xxx/8496"	"4"
"http://xxx/6189"	"3"
"http://xxx/4724"	"3"
"http://xxx/8190"	"3"
"http://xxx/8204"	"3"
"http://xxx/8202"	"4"
"http://xxx/8203"	"3"
"http://xxx/5593"	"3"
"http://xxx/8192"	"3"
"http://xxx/4107"	"4"
"http://xxx/4094"	"3"
"http://xxx/52"	"4"
"http://xxx/1366"	"3"
"http://xxx/5601"	"3"
"http://xxx/8826"	"3"
"http://xxx/14163"	"3"
"http://xxx/6788"	"3"
"http://xxx/2387"	"3"
"http://xxx/7143"	"4"
"http://xxx/8367"	"4"
"http://xxx/4030"	"4"
"http://xxx/4032"	"4"
"http://xxx/7110"	"4"
"http://xxx/7092"	"4"
"http://xxx/488"	"3"
"http://xxx/8369"	"3"
"http://xxx/7146"	"4"
"http://xxx/8182"	"3"
"http://xxx/14955"	"3"
"http://xxx/5210"	"4"
"http://xxx/1421"	"4"
"http://xxx/7198"	"4"
"http://xxx/86"	"4"
"http://xxx/14236"	"4"
"http://xxx/9108"	"4"
"http://xxx/48"	"4"
"http://xxx/8200"	"4"
"http://xxx/14636"	"3"
"http://xxx/731"	"3"
"http://xxx/47"	"3"
"http://xxx/5785"	"1"
"http://xxx/6224"	"3"
"http://xxx/6799"	"1"
"http://xxx/14849"	"1"
"http://xxx/7807"	"1"
"http://xxx/8376"	"3"
"http://xxx/4979"	"3"
"http://xxx/2352"	"3"
"http://xxx/7411"	"1"
"http://xxx/13937"	"4"
"http://xxx/1486"	"4"
"http://xxx/95"	"4"
"http://xxx/1487"	"3"
"http://xxx/8630"	"3"
"http://xxx/5165"	"3"
"http://xxx/7176"	"3"
"http://xxx/7178"	"4"
"http://xxx/5980"	"1"
"http://xxx/6197"	"3"
"http://xxx/6198"	"3"
"http://xxx/9035"	"4"
"http://xxx/51"	"3"
"http://xxx/44"	"4"
"http://xxx/6950"	"3"
"http://xxx/622"	"4"
"http://xxx/262"	"4"
"http://xxx/7763"	"4"
"http://xxx/6968"	"4"
"http://xxx/8250"	"4"
"http://xxx/7889"	"4"
"http://xxx/9229"	"4"
"http://xxx/4663"	"4"
"http://xxx/7857"	"4"
"http://xxx/5079"	"1"
"http://xxx/6901"	"4"
"http://xxx/8353"	"4"
"http://xxx/14874"	"3"
"http://xxx/14875"	"3"
"http://xxx/1736"	"4"
"http://xxx/2751"	"4"
"http://xxx/9230"	"4"
"http://xxx/1422"	"4"
"http://xxx/2029"	"4"
"http://xxx/977"	"4"
"http://xxx/13639"	"3"
"http://xxx/961"	"1"
"http://xxx/7788"	"4"
"http://xxx/1817"	"4"
"http://xxx/1818"	"3"
"http://xxx/8047"	"1"
"http://xxx/7367"	"4"
"http://xxx/6143"	"4"
"http://xxx/8326"	"4"
"http://xxx/2677"	"4"
"http://xxx/8051"	"3"
"http://xxx/7366"	"3"
"http://xxx/7369"	"3"
"http://xxx/6063"	"4"
"http://xxx/8549"	"4"
"http://xxx/7765"	"4"
"http://xxx/8379"	"4"
"http://xxx/5459"	"4"
"http://xxx/4049"	"4"
"http://xxx/5971"	"1"
"http://xxx/6753"	"1"
"http://xxx/3886"	"4"
"http://xxx/13748"	"3"
"http://xxx/8760"	"4"
"http://xxx/8606"	"4"
"http://xxx/4897"	"4"
"http://xxx/7296"	"4"
"http://xxx/4336"	"4"
"http://xxx/5055"	"4"
"http://xxx/279"	"4"
"http://xxx/7962"	"4"
"http://xxx/6641"	"4"
"http://xxx/6818"	"4"
"http://xxx/4889"	"4"
"http://xxx/2633"	"1"
"http://xxx/5222"	"4"
"http://xxx/8403"	"4"
"http://xxx/6619"	"4"
"http://xxx/7581"	"1"
"http://xxx/8845"	"4"
"http://xxx/7135"	"4"
"http://xxx/3975"	"4"
"http://xxx/4853"	"4"
"http://xxx/6992"	"4"
"http://xxx/5585"	"3"
"http://xxx/8333"	"3"
"http://xxx/9049"	"4"
"http://xxx/9055"	"4"
"http://xxx/7611"	"3"
"http://xxx/7436"	"4"
"http://xxx/5831"	"4"
"http://xxx/5854"	"4"
"http://xxx/8719"	"4"
"http://xxx/7669"	"1"
"http://xxx/6012"	"4"
"http://xxx/2398"	"4"
"http://xxx/7844"	"4"
"http://xxx/6882"	"4"
"http://xxx/2147"	"4"
"http://xxx/2152"	"4"
"http://xxx/7804"	"3"
"http://xxx/8340"	"4"
"http://xxx/9216"	"4"
"http://xxx/5440"	"4"
"http://xxx/9217"	"4"
"http://xxx/7896"	"4"
"http://xxx/7871"	"4"
"http://xxx/7892"	"4"
"http://xxx/7862"	"4"
"http://xxx/7858"	"4"
"http://xxx/8163"	"3"
"http://xxx/7231"	"4"
"http://xxx/662"	"1"
"http://xxx/5221"	"4"
"http://xxx/4120"	"4"
"http://xxx/241"	"4"
"http://xxx/4731"	"3"
"http://xxx/4052"	"3"
"http://xxx/5496"	"3"
"http://xxx/4111"	"4"
"http://xxx/6816"	"1"
"http://xxx/6640"	"3"
"http://xxx/8812"	"3"
"http://xxx/9251"	"3"
"http://xxx/8876"	"3"
"http://xxx/5837"	"4"
"http://xxx/5830"	"4"
"http://xxx/5852"	"4"
"http://xxx/3956"	"3"
"http://xxx/3955"	"4"
"http://xxx/6963"	"3"
"http://xxx/7768"	"3"
"http://xxx/9091"	"1"
"http://xxx/7019"	"4"
"http://xxx/2226"	"4"
"http://xxx/1704"	"1"
"http://xxx/4610"	"4"
"http://xxx/1708"	"4"
"http://xxx/9314"	"4"
"http://xxx/7983"	"4"
"http://xxx/4653"	"4"
"http://xxx/7852"	"4"
"http://xxx/760"	"3"
"http://xxx/4660"	"3"
"http://xxx/2056"	"1"
"http://xxx/5371"	"4"
"http://xxx/5965"	"3"
"http://xxx/5957"	"4"
"http://xxx/4284"	"3"
"http://xxx/8361"	"4"
