"http://xxx/9220"	"4"
"http://xxx/6766"	"4"
"http://xxx/4879"	"4"
"http://xxx/1773"	"4"
"http://xxx/3143"	"4"
"http://xxx/14970"	"4"
"http://xxx/4759"	"4"
"http://xxx/7788"	"4"
"http://xxx/6670"	"4"
"http://xxx/1817"	"4"
"http://xxx/3049"	"3"
"http://xxx/3716"	"4"
"http://xxx/709"	"3"
"http://xxx/6678"	"4"
"http://xxx/4914"	"4"
"http://xxx/1818"	"3"
"http://xxx/605"	"4"
"http://xxx/5269"	"4"
"http://xxx/882"	"4"
"http://xxx/8630"	"4"
"http://xxx/5165"	"4"
"http://xxx/7176"	"4"
"http://xxx/3887"	"3"
"http://xxx/892"	"4"
"http://xxx/7729"	"4"
"http://xxx/5462"	"4"
"http://xxx/7120"	"4"
"http://xxx/839"	"4"
"http://xxx/890"	"4"
"http://xxx/846"	"4"
"http://xxx/3663"	"4"
"http://xxx/4802"	"4"
"http://xxx/9149"	"4"
"http://xxx/6316"	"3"
"http://xxx/6244"	"4"
"http://xxx/971"	"4"
"http://xxx/6304"	"4"
"http://xxx/6240"	"4"
"http://xxx/6211"	"3"
"http://xxx/6201"	"4"
"http://xxx/1391"	"4"
"http://xxx/826"	"3"
"http://xxx/2040"	"4"
"http://xxx/879"	"4"
"http://xxx/3159"	"4"
"http://xxx/394"	"4"
"http://xxx/5611"	"4"
"http://xxx/146"	"4"
"http://xxx/6184"	"3"
"http://xxx/7178"	"3"
"http://xxx/5914"	"3"
"http://xxx/511"	"4"
"http://xxx/450"	"4"
"http://xxx/6323"	"4"
"http://xxx/7876"	"4"
"http://xxx/3138"	"4"
"http://xxx/14602"	"4"
"http://xxx/9313"	"4"
"http://xxx/3305"	"4"
"http://xxx/6064"	"4"
"http://xxx/6138"	"4"
"http://xxx/768"	"4"
"http://xxx/8415"	"4"
"http://xxx/6646"	"4"
"http://xxx/5228"	"4"
"http://xxx/406"	"3"
"http://xxx/881"	"4"
"http://xxx/4154"	"4"
"http://xxx/5890"	"4"
"http://xxx/7181"	"4"
"http://xxx/5443"	"4"
"http://xxx/4945"	"4"
"http://xxx/5569"	"4"
"http://xxx/8976"	"3"
"http://xxx/3026"	"3"
"http://xxx/3460"	"4"
"http://xxx/7730"	"3"
"http://xxx/4046"	"4"
"http://xxx/5456"	"3"
"http://xxx/3872"	"4"
"http://xxx/3617"	"3"
"http://xxx/3628"	"4"
"http://xxx/3624"	"4"
"http://xxx/5460"	"3"
"http://xxx/3634"	"4"
"http://xxx/898"	"4"
"http://xxx/2945"	"4"
"http://xxx/889"	"4"
"http://xxx/3664"	"4"
"http://xxx/8918"	"3"
"http://xxx/4080"	"3"
"http://xxx/6298"	"4"
"http://xxx/8487"	"3"
"http://xxx/6033"	"4"
"http://xxx/173"	"3"
"http://xxx/9407"	"4"
"http://xxx/5088"	"3"
"http://xxx/5757"	"4"
"http://xxx/3884"	"4"
"http://xxx/5650"	"4"
"http://xxx/5640"	"4"
"http://xxx/6227"	"4"
"http://xxx/4929"	"4"
"http://xxx/5653"	"4"
"http://xxx/4325"	"3"
"http://xxx/6395"	"3"
"http://xxx/865"	"4"
"http://xxx/800"	"4"
"http://xxx/6226"	"4"
"http://xxx/5666"	"4"
"http://xxx/5229"	"4"
"http://xxx/3372"	"4"
"http://xxx/9199"	"4"
"http://xxx/6402"	"4"
"http://xxx/823"	"4"
"http://xxx/6915"	"4"
"http://xxx/6412"	"4"
"http://xxx/7878"	"4"
"http://xxx/91"	"4"
"http://xxx/5108"	"4"
"http://xxx/5107"	"4"
"http://xxx/8538"	"4"
"http://xxx/8378"	"4"
"http://xxx/3852"	"4"
"http://xxx/3869"	"4"
"http://xxx/7937"	"3"
"http://xxx/57"	"4"
"http://xxx/4146"	"4"
"http://xxx/5624"	"4"
"http://xxx/6884"	"4"
"http://xxx/8442"	"3"
"http://xxx/9085"	"4"
"http://xxx/5243"	"3"
"http://xxx/2031"	"4"
"http://xxx/9028"	"4"
"http://xxx/1958"	"4"
"http://xxx/556"	"4"
"http://xxx/558"	"4"
"http://xxx/3886"	"3"
"http://xxx/6753"	"4"
"http://xxx/163"	"4"
"http://xxx/2980"	"4"
"http://xxx/538"	"3"
"http://xxx/4651"	"4"
"http://xxx/3983"	"3"
"http://xxx/530"	"3"
"http://xxx/7472"	"3"
"http://xxx/5524"	"4"
"http://xxx/6230"	"4"
"http://xxx/496"	"4"
"http://xxx/4719"	"4"
"http://xxx/4543"	"4"
"http://xxx/5135"	"4"
"http://xxx/4302"	"4"
"http://xxx/3646"	"4"
"http://xxx/5093"	"4"
"http://xxx/3027"	"4"
"http://xxx/2982"	"3"
"http://xxx/830"	"3"
"http://xxx/612"	"3"
"http://xxx/640"	"3"
"http://xxx/9231"	"3"
"http://xxx/7890"	"3"
"http://xxx/4805"	"3"
"http://xxx/8313"	"4"
"http://xxx/3633"	"4"
"http://xxx/9425"	"4"
"http://xxx/1945"	"4"
"http://xxx/6235"	"3"
"http://xxx/4085"	"3"
"http://xxx/60"	"3"
"http://xxx/3322"	"3"
"http://xxx/8450"	"3"
"http://xxx/4084"	"4"
"http://xxx/1434"	"4"
"http://xxx/8589"	"4"
"http://xxx/5128"	"4"
"http://xxx/5287"	"4"
"http://xxx/5032"	"4"
"http://xxx/195"	"4"
"http://xxx/611"	"3"
"http://xxx/2960"	"3"
"http://xxx/14949"	"4"
"http://xxx/193"	"4"
"http://xxx/3440"	"4"
"http://xxx/4228"	"4"
"http://xxx/6180"	"3"
"http://xxx/5144"	"3"
"http://xxx/7803"	"4"
"http://xxx/8951"	"4"
"http://xxx/6776"	"3"
"http://xxx/702"	"3"
"http://xxx/3810"	"3"
"http://xxx/3384"	"3"
"http://xxx/4158"	"3"
"http://xxx/6066"	"3"
"http://xxx/2949"	"3"
"http://xxx/8974"	"3"
"http://xxx/5870"	"3"
"http://xxx/6181"	"3"
"http://xxx/8543"	"3"
"http://xxx/1974"	"3"
"http://xxx/1979"	"3"
"http://xxx/4851"	"4"
"http://xxx/7842"	"3"
"http://xxx/4303"	"3"
"http://xxx/14896"	"4"
"http://xxx/6801"	"4"
"http://xxx/1988"	"3"
"http://xxx/3654"	"3"
"http://xxx/6222"	"3"
"http://xxx/5944"	"3"
"http://xxx/836"	"3"
"http://xxx/4109"	"3"
"http://xxx/6383"	"3"
"http://xxx/3638"	"3"
"http://xxx/9391"	"1"
"http://xxx/9392"	"4"
"http://xxx/9063"	"3"
"http://xxx/4660"	"1"
"http://xxx/4653"	"4"
"http://xxx/5545"	"3"
"http://xxx/3000"	"4"
"http://xxx/4378"	"4"
"http://xxx/903"	"3"
"http://xxx/901"	"4"
"http://xxx/902"	"3"
"http://xxx/7541"	"3"
"http://xxx/8262"	"3"
"http://xxx/7976"	"4"
"http://xxx/819"	"4"
"http://xxx/3808"	"4"
"http://xxx/6519"	"4"
"http://xxx/1613"	"4"
"http://xxx/3358"	"4"
"http://xxx/7578"	"1"
"http://xxx/5346"	"4"
"http://xxx/7364"	"4"
"http://xxx/5311"	"4"
"http://xxx/5785"	"4"
"http://xxx/1959"	"4"
"http://xxx/6600"	"4"
"http://xxx/3218"	"4"
"http://xxx/5648"	"3"
"http://xxx/5631"	"4"
"http://xxx/6892"	"3"
"http://xxx/6469"	"3"
"http://xxx/6451"	"4"
"http://xxx/631"	"3"
"http://xxx/7593"	"3"
"http://xxx/5119"	"3"
"http://xxx/5123"	"4"
"http://xxx/5646"	"4"
"http://xxx/5203"	"4"
"http://xxx/7939"	"4"
"http://xxx/5354"	"3"
"http://xxx/5352"	"3"
"http://xxx/4267"	"4"
"http://xxx/726"	"3"
"http://xxx/9196"	"3"
"http://xxx/9214"	"4"
"http://xxx/8595"	"3"
"http://xxx/5349"	"3"
"http://xxx/2956"	"4"
"http://xxx/861"	"3"
"http://xxx/9276"	"3"
"http://xxx/8351"	"3"
"http://xxx/5787"	"3"
"http://xxx/7282"	"3"
"http://xxx/7557"	"3"
"http://xxx/4040"	"4"
"http://xxx/6970"	"3"
"http://xxx/7170"	"4"
"http://xxx/7362"	"3"
"http://xxx/7366"	"4"
"http://xxx/4441"	"4"
"http://xxx/7236"	"4"
"http://xxx/891"	"3"
"http://xxx/5746"	"3"
"http://xxx/5736"	"4"
"http://xxx/3300"	"3"
"http://xxx/6978"	"3"
"http://xxx/5742"	"4"
"http://xxx/5784"	"3"
"http://xxx/3866"	"4"
"http://xxx/3877"	"3"
"http://xxx/7763"	"4"
"http://xxx/2143"	"4"
"http://xxx/8377"	"3"
"http://xxx/6798"	"4"
"http://xxx/3220"	"3"
"http://xxx/3225"	"4"
"http://xxx/5629"	"3"
"http://xxx/397"	"4"
"http://xxx/4574"	"3"
"http://xxx/4573"	"4"
"http://xxx/1400"	"4"
"http://xxx/1570"	"4"
"http://xxx/7038"	"4"
"http://xxx/7992"	"4"
"http://xxx/4480"	"4"
"http://xxx/5863"	"4"
"http://xxx/4948"	"4"
"http://xxx/4481"	"4"
"http://xxx/7712"	"4"
"http://xxx/5230"	"3"
"http://xxx/1992"	"3"
"http://xxx/7223"	"3"
"http://xxx/398"	"3"
"http://xxx/2070"	"3"
"http://xxx/8664"	"4"
"http://xxx/514"	"3"
"http://xxx/4998"	"4"
"http://xxx/1898"	"3"
"http://xxx/1899"	"4"
"http://xxx/5465"	"3"
"http://xxx/8259"	"4"
"http://xxx/5138"	"3"
"http://xxx/9349"	"4"
"http://xxx/2005"	"4"
"http://xxx/13976"	"4"
"http://xxx/3502"	"4"
"http://xxx/9323"	"3"
"http://xxx/1890"	"3"
"http://xxx/301"	"4"
"http://xxx/8559"	"4"
"http://xxx/6176"	"4"
"http://xxx/3528"	"4"
"http://xxx/4799"	"4"
"http://xxx/1481"	"3"
"http://xxx/9244"	"4"
"http://xxx/9230"	"4"
"http://xxx/9164"	"4"
"http://xxx/9216"	"4"
"http://xxx/5440"	"4"
"http://xxx/9217"	"4"
"http://xxx/9165"	"3"
"http://xxx/4321"	"4"
"http://xxx/4082"	"4"
"http://xxx/9290"	"4"
"http://xxx/5439"	"4"
"http://xxx/9257"	"3"
"http://xxx/6817"	"3"
"http://xxx/3599"	"4"
"http://xxx/7621"	"4"
"http://xxx/8350"	"4"
"http://xxx/5428"	"4"
"http://xxx/14940"	"4"
"http://xxx/14884"	"4"
"http://xxx/3907"	"4"
"http://xxx/8633"	"4"
"http://xxx/4814"	"4"
"http://xxx/7355"	"3"
"http://xxx/8852"	"3"
"http://xxx/7811"	"4"
"http://xxx/3977"	"1"
"http://xxx/1911"	"4"
"http://xxx/1421"	"4"
"http://xxx/8841"	"4"
"http://xxx/8829"	"4"
"http://xxx/5210"	"4"
"http://xxx/3974"	"3"
"http://xxx/7129"	"3"
"http://xxx/14938"	"4"
"http://xxx/5745"	"4"
"http://xxx/7127"	"4"
"http://xxx/7465"	"3"
"http://xxx/5360"	"3"
"http://xxx/529"	"3"
"http://xxx/8608"	"3"
"http://xxx/9422"	"3"
"http://xxx/1921"	"3"
"http://xxx/7679"	"4"
"http://xxx/1912"	"4"
"http://xxx/7823"	"4"
"http://xxx/4567"	"3"
"http://xxx/14939"	"4"
"http://xxx/5444"	"3"
"http://xxx/4793"	"3"
"http://xxx/3871"	"4"
"http://xxx/14418"	"4"
"http://xxx/8014"	"4"
"http://xxx/6270"	"4"
"http://xxx/7641"	"4"
"http://xxx/3586"	"4"
"http://xxx/8525"	"4"
"http://xxx/969"	"3"
"http://xxx/6806"	"3"
"http://xxx/3770"	"4"
"http://xxx/1422"	"3"
"http://xxx/13748"	"4"
"http://xxx/6291"	"3"
"http://xxx/740"	"4"
"http://xxx/7709"	"4"
"http://xxx/9225"	"4"
"http://xxx/9417"	"4"
"http://xxx/6287"	"4"
"http://xxx/4062"	"4"
"http://xxx/7143"	"4"
"http://xxx/6636"	"4"
"http://xxx/8182"	"4"
"http://xxx/14955"	"4"
"http://xxx/4065"	"4"
"http://xxx/8804"	"4"
"http://xxx/7353"	"4"
"http://xxx/8967"	"4"
"http://xxx/7144"	"4"
"http://xxx/8627"	"4"
"http://xxx/8032"	"4"
"http://xxx/5686"	"4"
"http://xxx/4022"	"4"
"http://xxx/7146"	"4"
"http://xxx/4635"	"3"
"http://xxx/4599"	"4"
"http://xxx/6225"	"4"
"http://xxx/4682"	"4"
"http://xxx/4602"	"4"
"http://xxx/1527"	"4"
"http://xxx/1515"	"4"
"http://xxx/9236"	"4"
"http://xxx/6285"	"4"
"http://xxx/7625"	"4"
"http://xxx/1775"	"4"
"http://xxx/6068"	"4"
"http://xxx/5239"	"1"
"http://xxx/915"	"3"
"http://xxx/7982"	"3"
"http://xxx/3048"	"4"
"http://xxx/81"	"4"
"http://xxx/4577"	"1"
"http://xxx/9369"	"4"
"http://xxx/4584"	"4"
"http://xxx/4581"	"4"
"http://xxx/9375"	"3"
"http://xxx/9366"	"4"
"http://xxx/9409"	"3"
"http://xxx/4015"	"3"
"http://xxx/7974"	"3"
"http://xxx/5781"	"3"
"http://xxx/8576"	"3"
"http://xxx/4424"	"3"
"http://xxx/5234"	"3"
"http://xxx/5004"	"3"
"http://xxx/6583"	"3"
"http://xxx/8886"	"3"
"http://xxx/1601"	"3"
"http://xxx/83"	"3"
"http://xxx/4538"	"3"
"http://xxx/6631"	"3"
"http://xxx/6586"	"3"
"http://xxx/8723"	"3"
"http://xxx/182"	"3"
"http://xxx/3401"	"3"
"http://xxx/8283"	"3"
"http://xxx/4534"	"3"
"http://xxx/5776"	"3"
"http://xxx/148"	"3"
"http://xxx/5027"	"3"
"http://xxx/4045"	"3"
"http://xxx/6038"	"3"
"http://xxx/5369"	"3"
"http://xxx/5333"	"3"
"http://xxx/4830"	"3"
"http://xxx/2969"	"3"
"http://xxx/3487"	"3"
"http://xxx/5218"	"3"
"http://xxx/4088"	"3"
"http://xxx/504"	"3"
"http://xxx/4657"	"3"
"http://xxx/6520"	"3"
"http://xxx/420"	"3"
"http://xxx/5030"	"3"
"http://xxx/191"	"3"
"http://xxx/6382"	"3"
"http://xxx/4615"	"3"
"http://xxx/8910"	"3"
"http://xxx/4047"	"3"
"http://xxx/494"	"3"
"http://xxx/4666"	"1"
"http://xxx/14951"	"4"
"http://xxx/4211"	"4"
"http://xxx/7618"	"4"
"http://xxx/5667"	"4"
"http://xxx/2156"	"4"
"http://xxx/7"	"4"
"http://xxx/5857"	"4"
"http://xxx/5317"	"4"
"http://xxx/7686"	"3"
"http://xxx/7345"	"3"
"http://xxx/3176"	"4"
"http://xxx/6061"	"4"
"http://xxx/5286"	"3"
"http://xxx/3115"	"3"
"http://xxx/4621"	"3"
"http://xxx/6365"	"3"
"http://xxx/8815"	"3"
"http://xxx/3559"	"3"
"http://xxx/7003"	"3"
"http://xxx/7001"	"4"
"http://xxx/8527"	"4"
"http://xxx/8008"	"4"
"http://xxx/7781"	"4"
"http://xxx/547"	"3"
"http://xxx/7880"	"3"
"http://xxx/7138"	"3"
"http://xxx/7184"	"1"
"http://xxx/6133"	"4"
"http://xxx/95"	"3"
"http://xxx/7411"	"4"
"http://xxx/4994"	"3"
"http://xxx/4541"	"3"
"http://xxx/5811"	"3"
"http://xxx/4760"	"3"
"http://xxx/13937"	"3"
"http://xxx/1486"	"3"
"http://xxx/7616"	"3"
"http://xxx/6102"	"3"
"http://xxx/3252"	"1"
"http://xxx/8946"	"4"
"http://xxx/5238"	"4"
"http://xxx/767"	"4"
"http://xxx/7124"	"3"
"http://xxx/387"	"3"
"http://xxx/4982"	"3"
"http://xxx/4356"	"4"
"http://xxx/8769"	"4"
"http://xxx/1362"	"4"
"http://xxx/6621"	"4"
"http://xxx/7306"	"4"
"http://xxx/508"	"4"
"http://xxx/4632"	"4"
"http://xxx/912"	"3"
"http://xxx/9183"	"4"
"http://xxx/914"	"4"
"http://xxx/3548"	"4"
"http://xxx/995"	"4"
"http://xxx/404"	"4"
"http://xxx/7927"	"4"
"http://xxx/6312"	"3"
"http://xxx/5076"	"3"
"http://xxx/1798"	"3"
"http://xxx/503"	"3"
"http://xxx/5043"	"3"
"http://xxx/6282"	"3"
"http://xxx/775"	"3"
"http://xxx/3492"	"3"
"http://xxx/765"	"3"
"http://xxx/415"	"4"
"http://xxx/664"	"4"
"http://xxx/9322"	"3"
"http://xxx/7187"	"3"
"http://xxx/755"	"3"
"http://xxx/5968"	"3"
"http://xxx/9023"	"1"
"http://xxx/8039"	"3"
"http://xxx/4279"	"1"
"http://xxx/3570"	"4"
"http://xxx/5268"	"4"
"http://xxx/3232"	"4"
"http://xxx/8934"	"4"
"http://xxx/4738"	"4"
"http://xxx/3681"	"4"
"http://xxx/8486"	"4"
"http://xxx/5005"	"4"
"http://xxx/7327"	"4"
"http://xxx/6026"	"4"
"http://xxx/3540"	"4"
"http://xxx/8273"	"4"
"http://xxx/6630"	"4"
"http://xxx/6164"	"4"
"http://xxx/5175"	"4"
"http://xxx/9103"	"4"
"http://xxx/3260"	"4"
"http://xxx/3090"	"4"
"http://xxx/9110"	"4"
"http://xxx/3368"	"4"
"http://xxx/1490"	"4"
"http://xxx/8421"	"4"
"http://xxx/5181"	"4"
"http://xxx/8269"	"4"
"http://xxx/7043"	"4"
"http://xxx/3423"	"4"
"http://xxx/5258"	"3"
"http://xxx/4242"	"3"
"http://xxx/4254"	"3"
"http://xxx/6561"	"4"
"http://xxx/4217"	"3"
"http://xxx/7724"	"3"
"http://xxx/7726"	"4"
"http://xxx/13562"	"3"
"http://xxx/8339"	"4"
"http://xxx/6815"	"4"
"http://xxx/1724"	"4"
"http://xxx/3596"	"4"
"http://xxx/5421"	"3"
"http://xxx/14847"	"3"
"http://xxx/7655"	"3"
"http://xxx/5393"	"3"
"http://xxx/6830"	"3"
"http://xxx/4369"	"3"
"http://xxx/7326"	"3"
"http://xxx/6627"	"3"
"http://xxx/5840"	"3"
"http://xxx/5669"	"3"
"http://xxx/356"	"3"
"http://xxx/5289"	"3"
"http://xxx/5835"	"3"
"http://xxx/3376"	"3"
"http://xxx/8188"	"3"
"http://xxx/1951"	"3"
"http://xxx/783"	"3"
"http://xxx/4503"	"3"
"http://xxx/7584"	"3"
"http://xxx/8337"	"3"
"http://xxx/4257"	"4"
"http://xxx/3880"	"4"
"http://xxx/7827"	"4"
"http://xxx/185"	"4"
"http://xxx/851"	"4"
"http://xxx/3050"	"4"
"http://xxx/8330"	"3"
"http://xxx/6327"	"3"
"http://xxx/3014"	"3"
"http://xxx/3011"	"4"
"http://xxx/4313"	"3"
"http://xxx/14869"	"4"
"http://xxx/3391"	"3"
"http://xxx/6654"	"3"
"http://xxx/7690"	"4"
"http://xxx/5081"	"4"
"http://xxx/9299"	"4"
"http://xxx/3375"	"4"
"http://xxx/4189"	"4"
"http://xxx/8755"	"4"
"http://xxx/9289"	"4"
"http://xxx/14976"	"4"
"http://xxx/1731"	"4"
"http://xxx/4623"	"4"
"http://xxx/7897"	"4"
"http://xxx/4566"	"4"
"http://xxx/1748"	"4"
"http://xxx/13561"	"4"
"http://xxx/2044"	"4"
"http://xxx/8305"	"4"
"http://xxx/1700"	"4"
"http://xxx/7036"	"4"
"http://xxx/3774"	"4"
"http://xxx/9246"	"4"
"http://xxx/6953"	"4"
"http://xxx/7195"	"4"
"http://xxx/3029"	"4"
"http://xxx/4282"	"4"
"http://xxx/4624"	"4"
"http://xxx/6650"	"4"
"http://xxx/7707"	"4"
"http://xxx/7057"	"4"
"http://xxx/5761"	"4"
"http://xxx/6833"	"4"
"http://xxx/9157"	"4"
"http://xxx/9227"	"4"
"http://xxx/8940"	"4"
"http://xxx/15027"	"4"
"http://xxx/9013"	"4"
"http://xxx/5187"	"4"
"http://xxx/2002"	"4"
"http://xxx/7201"	"4"
"http://xxx/1846"	"4"
"http://xxx/8303"	"4"
"http://xxx/2115"	"4"
"http://xxx/736"	"4"
"http://xxx/7941"	"4"
"http://xxx/6736"	"4"
"http://xxx/8227"	"4"
"http://xxx/7926"	"4"
"http://xxx/7044"	"4"
"http://xxx/9356"	"4"
"http://xxx/8095"	"4"
"http://xxx/1550"	"4"
"http://xxx/7894"	"4"
"http://xxx/7276"	"3"
"http://xxx/7097"	"1"
"http://xxx/5461"	"4"
"http://xxx/468"	"4"
"http://xxx/4260"	"3"
"http://xxx/340"	"4"
"http://xxx/1782"	"4"
"http://xxx/1489"	"4"
"http://xxx/3174"	"4"
"http://xxx/8731"	"4"
"http://xxx/1458"	"4"
"http://xxx/3219"	"4"
"http://xxx/8019"	"4"
"http://xxx/7599"	"4"
"http://xxx/8422"	"4"
"http://xxx/6660"	"4"
"http://xxx/8222"	"4"
"http://xxx/6007"	"4"
"http://xxx/9267"	"4"
"http://xxx/3539"	"4"
"http://xxx/4249"	"4"
"http://xxx/1530"	"4"
"http://xxx/3181"	"4"
"http://xxx/4934"	"4"
"http://xxx/3061"	"4"
"http://xxx/8272"	"4"
"http://xxx/4586"	"4"
"http://xxx/7324"	"4"
"http://xxx/5180"	"4"
"http://xxx/4144"	"3"
"http://xxx/9274"	"3"
"http://xxx/6355"	"3"
"http://xxx/5000"	"3"
"http://xxx/4052"	"3"
"http://xxx/4163"	"3"
"http://xxx/6149"	"4"
"http://xxx/4289"	"4"
"http://xxx/5958"	"4"
"http://xxx/4290"	"4"
"http://xxx/4455"	"3"
"http://xxx/167"	"1"
"http://xxx/3439"	"4"
"http://xxx/3435"	"3"
"http://xxx/3425"	"3"
"http://xxx/3438"	"3"
"http://xxx/3431"	"3"
"http://xxx/3444"	"3"
"http://xxx/3406"	"3"
"http://xxx/1694"	"4"
"http://xxx/8687"	"4"
"http://xxx/2004"	"4"
"http://xxx/1793"	"4"
"http://xxx/6949"	"4"
"http://xxx/8361"	"4"
"http://xxx/6622"	"4"
"http://xxx/5316"	"4"
"http://xxx/4204"	"4"
"http://xxx/5502"	"4"
"http://xxx/4468"	"3"
"http://xxx/3442"	"3"
"http://xxx/3441"	"4"
"http://xxx/2036"	"3"
"http://xxx/3419"	"3"
"http://xxx/210"	"1"
"http://xxx/9373"	"4"
"http://xxx/4609"	"3"
"http://xxx/78"	"4"
"http://xxx/9121"	"3"
"http://xxx/6838"	"4"
"http://xxx/9092"	"4"
"http://xxx/5510"	"4"
"http://xxx/3130"	"4"
"http://xxx/9176"	"4"
"http://xxx/3378"	"4"
"http://xxx/1874"	"3"
"http://xxx/3788"	"4"
"http://xxx/6124"	"4"
"http://xxx/963"	"4"
"http://xxx/3122"	"3"
"http://xxx/429"	"4"
"http://xxx/4862"	"4"
"http://xxx/6548"	"4"
"http://xxx/3533"	"4"
"http://xxx/4475"	"3"
"http://xxx/572"	"4"
"http://xxx/3237"	"1"
"http://xxx/3238"	"4"
"http://xxx/3261"	"4"
"http://xxx/3246"	"4"
"http://xxx/3236"	"4"
"http://xxx/3269"	"4"
"http://xxx/4985"	"3"
"http://xxx/2009"	"4"
"http://xxx/208"	"4"
"http://xxx/6373"	"4"
"http://xxx/6370"	"3"
"http://xxx/215"	"4"
"http://xxx/3718"	"4"
"http://xxx/3404"	"4"
"http://xxx/3430"	"4"
"http://xxx/8398"	"4"
"http://xxx/4255"	"4"
"http://xxx/8639"	"4"
"http://xxx/7809"	"4"
"http://xxx/8832"	"4"
"http://xxx/1917"	"4"
"http://xxx/7480"	"4"
"http://xxx/417"	"3"
"http://xxx/9202"	"3"
"http://xxx/9166"	"4"
"http://xxx/5044"	"4"
"http://xxx/5848"	"4"
"http://xxx/9232"	"4"
"http://xxx/1523"	"4"
"http://xxx/3493"	"4"
"http://xxx/3007"	"4"
"http://xxx/7173"	"4"
"http://xxx/7168"	"3"
"http://xxx/5521"	"4"
"http://xxx/7175"	"4"
"http://xxx/6740"	"3"
"http://xxx/9382"	"4"
"http://xxx/6747"	"4"
"http://xxx/5424"	"4"
"http://xxx/3756"	"4"
"http://xxx/8782"	"4"
"http://xxx/5484"	"4"
"http://xxx/5511"	"4"
"http://xxx/471"	"4"
"http://xxx/6743"	"4"
"http://xxx/9321"	"4"
"http://xxx/7046"	"4"
"http://xxx/2970"	"4"
"http://xxx/894"	"4"
"http://xxx/5029"	"4"
"http://xxx/2175"	"3"
"http://xxx/5388"	"4"
"http://xxx/7319"	"1"
"http://xxx/7272"	"4"
"http://xxx/8599"	"3"
"http://xxx/7293"	"3"
"http://xxx/8582"	"4"
"http://xxx/1880"	"4"
"http://xxx/1807"	"4"
"http://xxx/8701"	"3"
"http://xxx/5395"	"3"
"http://xxx/3963"	"3"
"http://xxx/7816"	"4"
"http://xxx/7825"	"3"
"http://xxx/488"	"4"
"http://xxx/4032"	"3"
"http://xxx/3865"	"4"
"http://xxx/14886"	"4"
"http://xxx/8641"	"4"
"http://xxx/7832"	"4"
"http://xxx/7817"	"4"
"http://xxx/7819"	"4"
"http://xxx/7791"	"4"
"http://xxx/3226"	"3"
"http://xxx/7404"	"3"
"http://xxx/7126"	"3"
"http://xxx/1456"	"4"
"http://xxx/5003"	"4"
"http://xxx/9051"	"3"
"http://xxx/453"	"4"
"http://xxx/7156"	"4"
"http://xxx/9082"	"4"
"http://xxx/7484"	"4"
"http://xxx/6808"	"4"
"http://xxx/6724"	"4"
"http://xxx/5086"	"3"
"http://xxx/7009"	"3"
"http://xxx/7012"	"4"
"http://xxx/4296"	"3"
"http://xxx/3505"	"4"
"http://xxx/7413"	"4"
"http://xxx/442"	"4"
"http://xxx/9242"	"4"
"http://xxx/5277"	"4"
"http://xxx/5529"	"4"
"http://xxx/3432"	"4"
"http://xxx/7014"	"4"
"http://xxx/7010"	"4"
"http://xxx/15034"	"4"
"http://xxx/419"	"4"
"http://xxx/4840"	"4"
"http://xxx/3462"	"4"
"http://xxx/5724"	"4"
"http://xxx/7051"	"4"
"http://xxx/3512"	"4"
"http://xxx/5679"	"4"
"http://xxx/7197"	"3"
"http://xxx/3768"	"3"
"http://xxx/3455"	"1"
"http://xxx/3715"	"4"
"http://xxx/3712"	"3"
"http://xxx/6623"	"4"
"http://xxx/866"	"4"
"http://xxx/6445"	"3"
"http://xxx/3006"	"1"
"http://xxx/1616"	"4"
"http://xxx/4434"	"4"
"http://xxx/595"	"3"
"http://xxx/7752"	"3"
"http://xxx/4438"	"3"
"http://xxx/3405"	"4"
"http://xxx/4427"	"4"
"http://xxx/8776"	"3"
"http://xxx/4422"	"3"
"http://xxx/3757"	"1"
"http://xxx/1462"	"3"
"http://xxx/1476"	"4"
"http://xxx/8412"	"4"
"http://xxx/1591"	"1"
"http://xxx/8563"	"4"
"http://xxx/3402"	"4"
"http://xxx/1594"	"3"
"http://xxx/8570"	"3"
"http://xxx/1590"	"3"
"http://xxx/7320"	"4"
"http://xxx/8522"	"4"
"http://xxx/8658"	"4"
"http://xxx/4902"	"4"
"http://xxx/1622"	"4"
"http://xxx/4891"	"4"
"http://xxx/3133"	"4"
"http://xxx/5816"	"4"
"http://xxx/8585"	"4"
"http://xxx/8583"	"4"
"http://xxx/873"	"4"
"http://xxx/3815"	"4"
"http://xxx/1556"	"4"
"http://xxx/3890"	"4"
"http://xxx/6221"	"4"
"http://xxx/8411"	"4"
"http://xxx/14900"	"4"
"http://xxx/14920"	"4"
"http://xxx/20"	"4"
"http://xxx/14921"	"4"
"http://xxx/6791"	"4"
"http://xxx/14919"	"4"
"http://xxx/7094"	"4"
"http://xxx/8610"	"4"
"http://xxx/14918"	"4"
"http://xxx/4359"	"4"
"http://xxx/5195"	"4"
"http://xxx/5992"	"4"
"http://xxx/14935"	"4"
"http://xxx/9096"	"4"
"http://xxx/14922"	"4"
"http://xxx/14923"	"4"
"http://xxx/4873"	"4"
"http://xxx/4151"	"4"
"http://xxx/8470"	"4"
"http://xxx/6123"	"4"
"http://xxx/5623"	"4"
"http://xxx/1864"	"4"
"http://xxx/1536"	"4"
"http://xxx/8521"	"4"
"http://xxx/947"	"4"
"http://xxx/14899"	"4"
"http://xxx/486"	"4"
"http://xxx/820"	"4"
"http://xxx/5825"	"4"
"http://xxx/7298"	"3"
"http://xxx/4855"	"4"
"http://xxx/8104"	"4"
"http://xxx/3738"	"4"
"http://xxx/7902"	"4"
"http://xxx/4051"	"4"
"http://xxx/4155"	"4"
"http://xxx/5986"	"4"
"http://xxx/9184"	"4"
"http://xxx/5892"	"4"
"http://xxx/9147"	"4"
"http://xxx/9138"	"4"
"http://xxx/6405"	"4"
"http://xxx/1808"	"4"
"http://xxx/6465"	"4"
"http://xxx/7818"	"3"
"http://xxx/7831"	"4"
"http://xxx/7830"	"3"
"http://xxx/7846"	"3"
"http://xxx/7843"	"4"
"http://xxx/7235"	"3"
"http://xxx/7363"	"3"
"http://xxx/8845"	"4"
"http://xxx/7135"	"4"
"http://xxx/3975"	"4"
"http://xxx/4852"	"4"
"http://xxx/3057"	"4"
"http://xxx/4853"	"4"
"http://xxx/6992"	"4"
"http://xxx/14983"	"3"
"http://xxx/4400"	"3"
"http://xxx/14852"	"3"
"http://xxx/3179"	"3"
"http://xxx/4850"	"3"
"http://xxx/5837"	"3"
"http://xxx/5827"	"4"
"http://xxx/7907"	"4"
"http://xxx/5279"	"4"
"http://xxx/4009"	"4"
"http://xxx/9180"	"4"
"http://xxx/9178"	"4"
"http://xxx/8028"	"4"
"http://xxx/8784"	"4"
"http://xxx/3354"	"3"
"http://xxx/3388"	"4"
"http://xxx/3381"	"4"
"http://xxx/4524"	"4"
"http://xxx/4735"	"4"
"http://xxx/5274"	"4"
"http://xxx/7886"	"4"
"http://xxx/7525"	"4"
"http://xxx/1467"	"4"
"http://xxx/9221"	"4"
"http://xxx/5544"	"4"
"http://xxx/9358"	"4"
"http://xxx/1800"	"4"
"http://xxx/7161"	"4"
"http://xxx/9348"	"4"
"http://xxx/994"	"4"
"http://xxx/490"	"4"
"http://xxx/441"	"4"
"http://xxx/8229"	"4"
"http://xxx/9206"	"4"
"http://xxx/3780"	"4"
"http://xxx/9161"	"4"
"http://xxx/3485"	"4"
"http://xxx/784"	"4"
"http://xxx/5264"	"4"
"http://xxx/3241"	"4"
"http://xxx/4867"	"4"
"http://xxx/3494"	"4"
"http://xxx/7882"	"4"
"http://xxx/7565"	"4"
"http://xxx/6094"	"4"
"http://xxx/7899"	"4"
"http://xxx/7895"	"4"
"http://xxx/3524"	"4"
"http://xxx/7845"	"4"
"http://xxx/7848"	"4"
"http://xxx/7898"	"4"
"http://xxx/2963"	"3"
"http://xxx/3652"	"4"
"http://xxx/2023"	"4"
"http://xxx/5847"	"4"
"http://xxx/7400"	"4"
"http://xxx/8304"	"4"
"http://xxx/9380"	"4"
"http://xxx/5494"	"4"
"http://xxx/4648"	"4"
"http://xxx/835"	"4"
"http://xxx/8073"	"1"
"http://xxx/1881"	"4"
"http://xxx/7684"	"3"
"http://xxx/9254"	"3"
"http://xxx/9245"	"4"
"http://xxx/7742"	"4"
"http://xxx/6047"	"3"
"http://xxx/6046"	"4"
"http://xxx/6092"	"3"
"http://xxx/8031"	"3"
"http://xxx/8707"	"3"
"http://xxx/8955"	"3"
"http://xxx/3834"	"3"
"http://xxx/5025"	"4"
"http://xxx/7233"	"3"
"http://xxx/8334"	"4"
"http://xxx/7155"	"4"
"http://xxx/6472"	"4"
"http://xxx/3853"	"3"
"http://xxx/6400"	"4"
"http://xxx/8648"	"4"
"http://xxx/14972"	"4"
"http://xxx/4678"	"4"
"http://xxx/7354"	"4"
"http://xxx/7970"	"4"
"http://xxx/6942"	"4"
"http://xxx/8586"	"4"
"http://xxx/7659"	"4"
"http://xxx/4336"	"3"
"http://xxx/5055"	"3"
"http://xxx/3621"	"4"
"http://xxx/7188"	"4"
"http://xxx/3971"	"4"
"http://xxx/568"	"4"
"http://xxx/5507"	"4"
"http://xxx/5478"	"4"
"http://xxx/5449"	"4"
"http://xxx/8579"	"4"
"http://xxx/7185"	"3"
"http://xxx/7370"	"4"
"http://xxx/7238"	"4"
"http://xxx/8341"	"4"
"http://xxx/475"	"4"
"http://xxx/7240"	"4"
"http://xxx/7241"	"4"
"http://xxx/1460"	"4"
"http://xxx/7283"	"4"
"http://xxx/4448"	"4"
"http://xxx/4440"	"4"
"http://xxx/9073"	"4"
"http://xxx/6802"	"1"
"http://xxx/8986"	"4"
"http://xxx/6588"	"4"
"http://xxx/992"	"4"
"http://xxx/423"	"4"
"http://xxx/8920"	"4"
"http://xxx/3356"	"4"
"http://xxx/5701"	"4"
"http://xxx/8913"	"4"
"http://xxx/1952"	"4"
"http://xxx/8255"	"4"
"http://xxx/5765"	"4"
"http://xxx/3721"	"4"
"http://xxx/5124"	"4"
"http://xxx/833"	"1"
"http://xxx/6397"	"3"
"http://xxx/6428"	"4"
"http://xxx/9130"	"3"
"http://xxx/1706"	"4"
"http://xxx/9223"	"4"
"http://xxx/5048"	"4"
"http://xxx/5520"	"4"
"http://xxx/6169"	"4"
"http://xxx/3625"	"4"
"http://xxx/7443"	"4"
"http://xxx/6454"	"3"
"http://xxx/6205"	"4"
"http://xxx/816"	"4"
"http://xxx/6709"	"4"
"http://xxx/849"	"4"
"http://xxx/51"	"4"
"http://xxx/5980"	"4"
"http://xxx/6415"	"4"
"http://xxx/6144"	"4"
"http://xxx/6409"	"4"
"http://xxx/6407"	"4"
"http://xxx/2015"	"4"
"http://xxx/6396"	"4"
"http://xxx/6718"	"4"
"http://xxx/3067"	"4"
"http://xxx/3387"	"4"
"http://xxx/1730"	"4"
"http://xxx/1725"	"4"
"http://xxx/3874"	"4"
"http://xxx/3878"	"4"
"http://xxx/3620"	"1"
"http://xxx/827"	"4"
"http://xxx/367"	"1"
"http://xxx/542"	"3"
"http://xxx/7952"	"3"
"http://xxx/5794"	"3"
"http://xxx/464"	"3"
"http://xxx/170"	"3"
"http://xxx/461"	"3"
"http://xxx/5145"	"3"
"http://xxx/7948"	"3"
"http://xxx/5695"	"3"
"http://xxx/2992"	"3"
"http://xxx/4195"	"3"
"http://xxx/598"	"3"
"http://xxx/5694"	"3"
"http://xxx/6896"	"4"
"http://xxx/6888"	"4"
"http://xxx/8596"	"4"
"http://xxx/8857"	"3"
"http://xxx/6268"	"3"
"http://xxx/5452"	"3"
"http://xxx/977"	"3"
"http://xxx/6645"	"3"
"http://xxx/2029"	"3"
"http://xxx/2955"	"3"
"http://xxx/4103"	"4"
"http://xxx/6935"	"3"
"http://xxx/68"	"4"
"http://xxx/8629"	"3"
"http://xxx/5154"	"4"
"http://xxx/8893"	"4"
"http://xxx/4498"	"4"
"http://xxx/9412"	"4"
"http://xxx/7699"	"4"
"http://xxx/6338"	"4"
"http://xxx/1532"	"4"
"http://xxx/1401"	"4"
"http://xxx/1792"	"4"
"http://xxx/5589"	"4"
"http://xxx/8495"	"4"
"http://xxx/5982"	"4"
"http://xxx/5756"	"4"
"http://xxx/3516"	"4"
"http://xxx/3414"	"1"
"http://xxx/6364"	"4"
"http://xxx/8693"	"4"
"http://xxx/5496"	"4"
"http://xxx/8117"	"4"
"http://xxx/636"	"4"
"http://xxx/8879"	"4"
"http://xxx/7423"	"4"
"http://xxx/7900"	"4"
"http://xxx/4115"	"4"
"http://xxx/4116"	"3"
"http://xxx/3298"	"4"
"http://xxx/7502"	"4"
"http://xxx/5791"	"4"
"http://xxx/7513"	"4"
"http://xxx/9262"	"4"
"http://xxx/9172"	"4"
"http://xxx/9190"	"4"
"http://xxx/4922"	"4"
"http://xxx/4251"	"4"
"http://xxx/4256"	"4"
"http://xxx/7574"	"3"
"http://xxx/7402"	"3"
"http://xxx/8448"	"3"
"http://xxx/984"	"3"
"http://xxx/4333"	"3"
"http://xxx/4594"	"4"
"http://xxx/9151"	"4"
"http://xxx/3400"	"1"
"http://xxx/2117"	"3"
"http://xxx/3013"	"3"
"http://xxx/1632"	"3"
"http://xxx/1986"	"3"
"http://xxx/2066"	"3"
"http://xxx/213"	"4"
"http://xxx/6293"	"4"
"http://xxx/4253"	"4"
"http://xxx/7075"	"4"
"http://xxx/2160"	"4"
"http://xxx/5486"	"4"
"http://xxx/6378"	"4"
"http://xxx/8025"	"4"
"http://xxx/7244"	"4"
"http://xxx/4182"	"4"
"http://xxx/8766"	"1"
"http://xxx/517"	"3"
"http://xxx/1955"	"3"
"http://xxx/8110"	"4"
"http://xxx/13570"	"4"
"http://xxx/6274"	"3"
"http://xxx/4864"	"4"
"http://xxx/3073"	"4"
"http://xxx/4863"	"4"
"http://xxx/3151"	"4"
"http://xxx/4390"	"4"
"http://xxx/15039"	"4"
"http://xxx/9072"	"4"
"http://xxx/7018"	"4"
"http://xxx/6923"	"4"
"http://xxx/3342"	"4"
"http://xxx/7725"	"4"
"http://xxx/14652"	"4"
"http://xxx/1584"	"4"
"http://xxx/3678"	"4"
"http://xxx/3063"	"4"
"http://xxx/9095"	"4"
"http://xxx/596"	"4"
"http://xxx/7720"	"4"
"http://xxx/5058"	"4"
"http://xxx/5836"	"3"
"http://xxx/186"	"4"
"http://xxx/7295"	"4"
"http://xxx/4686"	"4"
"http://xxx/571"	"4"
"http://xxx/456"	"4"
"http://xxx/3183"	"1"
"http://xxx/4612"	"4"
"http://xxx/3477"	"3"
"http://xxx/1739"	"3"
"http://xxx/4762"	"3"
"http://xxx/14876"	"3"
"http://xxx/3714"	"4"
"http://xxx/14163"	"4"
"http://xxx/6788"	"4"
"http://xxx/4420"	"3"
"http://xxx/1776"	"4"
"http://xxx/6313"	"4"
"http://xxx/5755"	"4"
"http://xxx/1902"	"4"
"http://xxx/8912"	"4"
"http://xxx/3760"	"4"
"http://xxx/8909"	"4"
"http://xxx/13921"	"4"
"http://xxx/14543"	"4"
"http://xxx/13922"	"4"
"http://xxx/5147"	"4"
"http://xxx/3805"	"4"
"http://xxx/411"	"4"
"http://xxx/5994"	"4"
"http://xxx/5644"	"4"
"http://xxx/7938"	"4"
"http://xxx/4659"	"4"
"http://xxx/6950"	"4"
"http://xxx/8301"	"1"
"http://xxx/6602"	"4"
"http://xxx/7485"	"3"
"http://xxx/3194"	"3"
"http://xxx/3201"	"4"
"http://xxx/4478"	"4"
"http://xxx/6793"	"4"
"http://xxx/3205"	"4"
"http://xxx/1824"	"4"
"http://xxx/8569"	"1"
"http://xxx/183"	"3"
"http://xxx/1762"	"4"
"http://xxx/6835"	"3"
"http://xxx/7063"	"3"
"http://xxx/8626"	"3"
"http://xxx/792"	"3"
"http://xxx/8663"	"3"
"http://xxx/1437"	"3"
"http://xxx/4787"	"4"
"http://xxx/2000"	"1"
"http://xxx/4430"	"1"
"http://xxx/1862"	"1"
"http://xxx/1528"	"4"
"http://xxx/8597"	"4"
"http://xxx/5643"	"4"
"http://xxx/4614"	"1"
"http://xxx/6637"	"1"
"http://xxx/4749"	"1"
"http://xxx/5635"	"3"
"http://xxx/3648"	"3"
"http://xxx/9003"	"4"
"http://xxx/678"	"3"
"http://xxx/4668"	"3"
"http://xxx/4454"	"4"
"http://xxx/1889"	"4"
"http://xxx/6118"	"3"
"http://xxx/541"	"3"
"http://xxx/463"	"3"
"http://xxx/8686"	"3"
"http://xxx/5583"	"4"
"http://xxx/4018"	"4"
"http://xxx/14236"	"3"
"http://xxx/86"	"4"
"http://xxx/3842"	"3"
"http://xxx/1971"	"1"
"http://xxx/1970"	"3"
"http://xxx/7855"	"4"
"http://xxx/1909"	"3"
"http://xxx/2974"	"4"
"http://xxx/7137"	"4"
"http://xxx/9004"	"4"
"http://xxx/3047"	"1"
"http://xxx/4414"	"4"
"http://xxx/5062"	"4"
"http://xxx/3099"	"4"
"http://xxx/3334"	"1"
"http://xxx/4483"	"3"
"http://xxx/1373"	"3"
"http://xxx/716"	"1"
"http://xxx/4988"	"3"
"http://xxx/9234"	"3"
"http://xxx/4979"	"3"
"http://xxx/14208"	"1"
"http://xxx/4990"	"4"
"http://xxx/7000"	"4"
"http://xxx/8151"	"4"
"http://xxx/336"	"4"
"http://xxx/2161"	"4"
"http://xxx/7073"	"4"
"http://xxx/7444"	"4"
"http://xxx/8562"	"4"
"http://xxx/5267"	"1"
"http://xxx/15020"	"4"
"http://xxx/4371"	"3"
"http://xxx/6962"	"3"
"http://xxx/3729"	"3"
"http://xxx/8501"	"3"
"http://xxx/7032"	"3"
"http://xxx/9186"	"3"
"http://xxx/7214"	"3"
"http://xxx/5774"	"3"
"http://xxx/1809"	"4"
"http://xxx/88"	"1"
"http://xxx/8490"	"4"
"http://xxx/4723"	"4"
"http://xxx/965"	"4"
"http://xxx/7590"	"4"
"http://xxx/7694"	"4"
"http://xxx/5405"	"4"
"http://xxx/516"	"3"
"http://xxx/3955"	"3"
"http://xxx/14581"	"3"
"http://xxx/1513"	"4"
"http://xxx/401"	"1"
"http://xxx/2022"	"4"
"http://xxx/5789"	"4"
"http://xxx/9153"	"4"
"http://xxx/518"	"4"
"http://xxx/3254"	"4"
"http://xxx/3273"	"4"
"http://xxx/3367"	"3"
"http://xxx/4752"	"4"
"http://xxx/1569"	"4"
"http://xxx/3081"	"4"
"http://xxx/1638"	"4"
"http://xxx/7163"	"4"
"http://xxx/8401"	"4"
"http://xxx/6662"	"4"
"http://xxx/6663"	"4"
"http://xxx/7116"	"4"
"http://xxx/7083"	"4"
"http://xxx/8212"	"4"
"http://xxx/1628"	"4"
"http://xxx/5777"	"4"
"http://xxx/8573"	"4"
"http://xxx/5820"	"3"
"http://xxx/5572"	"3"
"http://xxx/6859"	"3"
"http://xxx/6661"	"3"
"http://xxx/5778"	"3"
"http://xxx/8213"	"3"
"http://xxx/5945"	"3"
"http://xxx/1533"	"4"
"http://xxx/3732"	"4"
"http://xxx/3288"	"3"
"http://xxx/14507"	"3"
"http://xxx/2093"	"3"
"http://xxx/4127"	"3"
"http://xxx/762"	"4"
"http://xxx/8381"	"3"
"http://xxx/764"	"3"
"http://xxx/4777"	"3"
"http://xxx/5802"	"3"
"http://xxx/2111"	"3"
"http://xxx/4360"	"1"
"http://xxx/5450"	"4"
"http://xxx/5024"	"4"
"http://xxx/1619"	"3"
"http://xxx/4148"	"3"
"http://xxx/6443"	"3"
"http://xxx/7082"	"1"
"http://xxx/3673"	"4"
"http://xxx/9297"	"4"
"http://xxx/3733"	"4"
"http://xxx/552"	"4"
"http://xxx/5023"	"4"
"http://xxx/8704"	"4"
"http://xxx/4545"	"4"
"http://xxx/6276"	"4"
"http://xxx/4590"	"4"
"http://xxx/3564"	"4"
"http://xxx/8997"	"4"
"http://xxx/3893"	"4"
"http://xxx/1512"	"4"
"http://xxx/13567"	"4"
"http://xxx/4589"	"4"
"http://xxx/4858"	"4"
"http://xxx/4514"	"3"
"http://xxx/8158"	"3"
"http://xxx/7497"	"4"
"http://xxx/772"	"4"
"http://xxx/5415"	"3"
"http://xxx/7034"	"3"
"http://xxx/1796"	"4"
"http://xxx/8887"	"3"
"http://xxx/9235"	"3"
"http://xxx/3800"	"4"
"http://xxx/7528"	"4"
"http://xxx/4186"	"3"
"http://xxx/4133"	"3"
"http://xxx/4132"	"4"
"http://xxx/749"	"3"
"http://xxx/751"	"3"
"http://xxx/3949"	"3"
"http://xxx/5401"	"4"
"http://xxx/1447"	"1"
"http://xxx/3698"	"1"
"http://xxx/14663"	"1"
"http://xxx/7868"	"3"
"http://xxx/14934"	"3"
"http://xxx/6897"	"3"
"http://xxx/680"	"4"
"http://xxx/1623"	"1"
"http://xxx/7925"	"1"
"http://xxx/7669"	"1"
"http://xxx/883"	"1"
"http://xxx/4628"	"4"
"http://xxx/7104"	"4"
"http://xxx/14717"	"4"
"http://xxx/4969"	"4"
"http://xxx/4641"	"4"
"http://xxx/6997"	"4"
"http://xxx/5843"	"4"
"http://xxx/7419"	"4"
"http://xxx/4611"	"4"
"http://xxx/4646"	"4"
"http://xxx/5295"	"4"
"http://xxx/6908"	"3"
"http://xxx/7856"	"3"
"http://xxx/7554"	"1"
"http://xxx/8247"	"1"
"http://xxx/8722"	"1"
"http://xxx/3195"	"1"
"http://xxx/4029"	"3"
"http://xxx/2001"	"3"
"http://xxx/8165"	"3"
"http://xxx/1854"	"3"
"http://xxx/7581"	"1"
"http://xxx/5031"	"1"
"http://xxx/505"	"4"
"http://xxx/2972"	"3"
"http://xxx/1516"	"3"
"http://xxx/1517"	"4"
"http://xxx/3489"	"3"
"http://xxx/662"	"1"
"http://xxx/6192"	"1"
"http://xxx/4784"	"3"
"http://xxx/8307"	"3"
"http://xxx/14499"	"4"
"http://xxx/6507"	"4"
"http://xxx/7230"	"4"
"http://xxx/3154"	"4"
"http://xxx/5362"	"4"
"http://xxx/8252"	"4"
"http://xxx/6510"	"4"
"http://xxx/14194"	"4"
"http://xxx/5110"	"4"
"http://xxx/2103"	"4"
"http://xxx/5409"	"4"
"http://xxx/3966"	"4"
"http://xxx/7396"	"3"
"http://xxx/4999"	"3"
"http://xxx/7397"	"3"
"http://xxx/8574"	"4"
"http://xxx/8567"	"3"
"http://xxx/932"	"1"
