"http://xxx/406"	"1"
"http://xxx/4154"	"4"
"http://xxx/1239"	"4"
"http://xxx/2705"	"4"
"http://xxx/332"	"3"
"http://xxx/4046"	"4"
"http://xxx/4157"	"3"
"http://xxx/3498"	"4"
"http://xxx/3312"	"4"
"http://xxx/4730"	"4"
"http://xxx/4805"	"4"
"http://xxx/2457"	"4"
"http://xxx/450"	"4"
"http://xxx/3305"	"4"
"http://xxx/11852"	"4"
"http://xxx/10003"	"4"
"http://xxx/2654"	"4"
"http://xxx/10043"	"4"
"http://xxx/11868"	"4"
"http://xxx/3663"	"4"
"http://xxx/4802"	"4"
"http://xxx/3026"	"3"
"http://xxx/3460"	"4"
"http://xxx/360"	"3"
"http://xxx/3628"	"3"
"http://xxx/2279"	"4"
"http://xxx/3664"	"4"
"http://xxx/3887"	"3"
"http://xxx/437"	"4"
"http://xxx/4055"	"4"
"http://xxx/2518"	"4"
"http://xxx/148"	"3"
"http://xxx/4830"	"3"
"http://xxx/3487"	"3"
"http://xxx/4088"	"3"
"http://xxx/11344"	"4"
"http://xxx/4651"	"4"
"http://xxx/13318"	"4"
"http://xxx/4719"	"4"
"http://xxx/2778"	"4"
"http://xxx/1479"	"4"
"http://xxx/2405"	"3"
"http://xxx/3676"	"4"
"http://xxx/3655"	"4"
"http://xxx/12139"	"4"
"http://xxx/2539"	"4"
"http://xxx/1974"	"3"
"http://xxx/2803"	"4"
"http://xxx/4303"	"3"
"http://xxx/14857"	"4"
"http://xxx/2284"	"4"
"http://xxx/4311"	"4"
"http://xxx/14856"	"4"
"http://xxx/14883"	"4"
"http://xxx/3054"	"4"
"http://xxx/1986"	"4"
"http://xxx/1979"	"3"
"http://xxx/4851"	"4"
"http://xxx/14897"	"4"
"http://xxx/14894"	"4"
"http://xxx/2196"	"3"
"http://xxx/12586"	"3"
"http://xxx/13218"	"4"
"http://xxx/11359"	"4"
"http://xxx/1434"	"4"
"http://xxx/4084"	"4"
"http://xxx/10055"	"4"
"http://xxx/10133"	"4"
"http://xxx/14949"	"4"
"http://xxx/2510"	"4"
"http://xxx/193"	"4"
"http://xxx/2811"	"4"
"http://xxx/3440"	"4"
"http://xxx/11165"	"3"
"http://xxx/3881"	"4"
"http://xxx/2880"	"4"
"http://xxx/13319"	"4"
"http://xxx/4250"	"4"
"http://xxx/3810"	"3"
"http://xxx/3384"	"3"
"http://xxx/4158"	"3"
"http://xxx/4054"	"4"
"http://xxx/2949"	"3"
"http://xxx/2530"	"4"
"http://xxx/3654"	"3"
"http://xxx/3638"	"3"
"http://xxx/3615"	"3"
"http://xxx/2784"	"3"
"http://xxx/10039"	"3"
"http://xxx/2984"	"3"
"http://xxx/397"	"4"
"http://xxx/11499"	"3"
"http://xxx/5051"	"4"
"http://xxx/3261"	"4"
"http://xxx/3625"	"4"
"http://xxx/4580"	"4"
"http://xxx/3874"	"4"
"http://xxx/1616"	"4"
"http://xxx/11494"	"4"
"http://xxx/11514"	"4"
"http://xxx/2862"	"4"
"http://xxx/3200"	"4"
"http://xxx/11427"	"4"
"http://xxx/13277"	"4"
"http://xxx/11472"	"4"
"http://xxx/3442"	"4"
"http://xxx/3281"	"3"
"http://xxx/3238"	"4"
"http://xxx/3269"	"4"
"http://xxx/1093"	"4"
"http://xxx/10758"	"4"
"http://xxx/5035"	"4"
"http://xxx/1220"	"4"
"http://xxx/1484"	"4"
"http://xxx/3613"	"4"
"http://xxx/3878"	"4"
"http://xxx/3865"	"4"
"http://xxx/3880"	"4"
"http://xxx/3871"	"4"
"http://xxx/13282"	"3"
"http://xxx/3006"	"3"
"http://xxx/2534"	"4"
"http://xxx/2989"	"4"
"http://xxx/11571"	"4"
"http://xxx/13279"	"4"
"http://xxx/2996"	"4"
"http://xxx/2422"	"4"
"http://xxx/13145"	"4"
"http://xxx/2997"	"4"
"http://xxx/2991"	"4"
"http://xxx/1669"	"4"
"http://xxx/1762"	"3"
"http://xxx/1437"	"4"
"http://xxx/183"	"4"
"http://xxx/3071"	"3"
"http://xxx/11536"	"3"
"http://xxx/13242"	"4"
"http://xxx/4420"	"3"
"http://xxx/4417"	"4"
"http://xxx/1619"	"3"
"http://xxx/4386"	"4"
"http://xxx/13306"	"4"
"http://xxx/4715"	"3"
"http://xxx/1971"	"3"
"http://xxx/1049"	"3"
"http://xxx/286"	"4"
"http://xxx/13273"	"3"
"http://xxx/13280"	"3"
"http://xxx/2536"	"4"
"http://xxx/3855"	"3"
"http://xxx/2579"	"3"
"http://xxx/2830"	"4"
"http://xxx/1970"	"3"
"http://xxx/14966"	"3"
"http://xxx/2859"	"3"
"http://xxx/2783"	"3"
"http://xxx/4758"	"3"
"http://xxx/2423"	"4"
"http://xxx/1590"	"3"
"http://xxx/4164"	"4"
"http://xxx/1446"	"4"
"http://xxx/13265"	"4"
"http://xxx/11468"	"3"
"http://xxx/11525"	"4"
"http://xxx/11526"	"4"
"http://xxx/1862"	"3"
"http://xxx/13268"	"4"
"http://xxx/4022"	"3"
"http://xxx/13275"	"4"
"http://xxx/13120"	"4"
"http://xxx/3481"	"4"
"http://xxx/4676"	"4"
"http://xxx/13234"	"4"
"http://xxx/13136"	"4"
"http://xxx/186"	"4"
"http://xxx/208"	"4"
"http://xxx/1899"	"4"
"http://xxx/10511"	"4"
"http://xxx/3177"	"4"
"http://xxx/3378"	"4"
"http://xxx/1874"	"4"
"http://xxx/2831"	"4"
"http://xxx/11476"	"3"
"http://xxx/3397"	"3"
"http://xxx/3171"	"3"
"http://xxx/3441"	"3"
"http://xxx/3439"	"3"
"http://xxx/3435"	"4"
"http://xxx/3438"	"4"
"http://xxx/3431"	"4"
"http://xxx/3444"	"4"
"http://xxx/167"	"4"
"http://xxx/4468"	"4"
"http://xxx/2835"	"4"
"http://xxx/2036"	"4"
"http://xxx/4660"	"1"
"http://xxx/4653"	"4"
"http://xxx/10706"	"3"
"http://xxx/10201"	"4"
"http://xxx/10208"	"4"
"http://xxx/2900"	"3"
"http://xxx/2905"	"4"
"http://xxx/10238"	"3"
"http://xxx/12204"	"4"
"http://xxx/11237"	"4"
"http://xxx/10189"	"4"
"http://xxx/3410"	"4"
"http://xxx/1708"	"4"
"http://xxx/10203"	"4"
"http://xxx/10214"	"4"
"http://xxx/10199"	"4"
"http://xxx/5046"	"4"
"http://xxx/471"	"4"
"http://xxx/5029"	"4"
"http://xxx/12107"	"3"
"http://xxx/4124"	"4"
"http://xxx/12248"	"4"
"http://xxx/3785"	"3"
"http://xxx/10064"	"3"
"http://xxx/3048"	"4"
"http://xxx/3084"	"3"
"http://xxx/4921"	"3"
"http://xxx/2702"	"3"
"http://xxx/2697"	"4"
"http://xxx/2700"	"4"
"http://xxx/1706"	"4"
"http://xxx/1704"	"4"
"http://xxx/4257"	"4"
"http://xxx/2394"	"4"
"http://xxx/1288"	"4"
"http://xxx/4455"	"4"
"http://xxx/13121"	"4"
"http://xxx/2531"	"4"
"http://xxx/10495"	"4"
"http://xxx/3358"	"4"
"http://xxx/2877"	"3"
"http://xxx/13102"	"4"
"http://xxx/10256"	"4"
"http://xxx/274"	"4"
"http://xxx/2872"	"4"
"http://xxx/2730"	"4"
"http://xxx/4633"	"4"
"http://xxx/4985"	"4"
"http://xxx/3673"	"4"
"http://xxx/10049"	"4"
"http://xxx/12866"	"4"
"http://xxx/1959"	"4"
"http://xxx/3218"	"4"
"http://xxx/10040"	"4"
"http://xxx/2882"	"3"
"http://xxx/2129"	"4"
"http://xxx/14924"	"4"
"http://xxx/11125"	"4"
"http://xxx/270"	"4"
"http://xxx/14973"	"4"
"http://xxx/5057"	"4"
"http://xxx/3491"	"4"
"http://xxx/11706"	"3"
"http://xxx/2892"	"4"
"http://xxx/15039"	"4"
"http://xxx/12898"	"4"
"http://xxx/10107"	"4"
"http://xxx/11662"	"3"
"http://xxx/3220"	"4"
"http://xxx/12687"	"4"
"http://xxx/4040"	"4"
"http://xxx/2657"	"3"
"http://xxx/2218"	"3"
"http://xxx/2923"	"3"
"http://xxx/277"	"3"
"http://xxx/3300"	"3"
"http://xxx/12677"	"3"
"http://xxx/13189"	"1"
"http://xxx/13209"	"4"
"http://xxx/220"	"4"
"http://xxx/233"	"4"
"http://xxx/13165"	"4"
"http://xxx/13188"	"3"
"http://xxx/3528"	"4"
"http://xxx/4799"	"4"
"http://xxx/2070"	"4"
"http://xxx/10708"	"4"
"http://xxx/2005"	"4"
"http://xxx/10685"	"4"
"http://xxx/2354"	"4"
"http://xxx/13207"	"4"
"http://xxx/1029"	"4"
"http://xxx/2889"	"4"
"http://xxx/1902"	"4"
"http://xxx/1769"	"4"
"http://xxx/1652"	"4"
"http://xxx/11170"	"4"
"http://xxx/11186"	"4"
"http://xxx/1875"	"4"
"http://xxx/11187"	"4"
"http://xxx/2802"	"4"
"http://xxx/13194"	"4"
"http://xxx/3354"	"4"
"http://xxx/3499"	"4"
"http://xxx/2829"	"4"
"http://xxx/11813"	"4"
"http://xxx/3388"	"4"
"http://xxx/3505"	"4"
"http://xxx/13167"	"3"
"http://xxx/429"	"4"
"http://xxx/1039"	"4"
"http://xxx/3232"	"4"
"http://xxx/12784"	"4"
"http://xxx/1044"	"4"
"http://xxx/1310"	"4"
"http://xxx/2587"	"4"
"http://xxx/13213"	"4"
"http://xxx/2837"	"4"
"http://xxx/13215"	"4"
"http://xxx/2634"	"4"
"http://xxx/12325"	"4"
"http://xxx/3681"	"4"
"http://xxx/3540"	"4"
"http://xxx/1267"	"4"
"http://xxx/4738"	"4"
"http://xxx/11206"	"4"
"http://xxx/11153"	"4"
"http://xxx/2920"	"4"
"http://xxx/20"	"4"
"http://xxx/475"	"4"
"http://xxx/1298"	"4"
"http://xxx/12814"	"4"
"http://xxx/1133"	"3"
"http://xxx/2823"	"4"
"http://xxx/12816"	"3"
"http://xxx/10104"	"3"
"http://xxx/10102"	"3"
"http://xxx/2921"	"3"
"http://xxx/4140"	"4"
"http://xxx/2668"	"4"
"http://xxx/4150"	"4"
"http://xxx/12131"	"4"
"http://xxx/4451"	"4"
"http://xxx/1632"	"3"
"http://xxx/2246"	"3"
"http://xxx/2066"	"3"
"http://xxx/2440"	"4"
"http://xxx/11061"	"4"
"http://xxx/14854"	"4"
"http://xxx/2912"	"4"
"http://xxx/11816"	"4"
"http://xxx/1536"	"4"
"http://xxx/11124"	"4"
"http://xxx/4917"	"4"
"http://xxx/14920"	"4"
"http://xxx/14921"	"4"
"http://xxx/14919"	"4"
"http://xxx/2713"	"4"
"http://xxx/11693"	"4"
"http://xxx/10215"	"4"
"http://xxx/14918"	"4"
"http://xxx/14922"	"4"
"http://xxx/14923"	"4"
"http://xxx/4873"	"4"
"http://xxx/486"	"4"
"http://xxx/3226"	"4"
"http://xxx/11498"	"4"
"http://xxx/11618"	"4"
"http://xxx/11612"	"4"
"http://xxx/1542"	"4"
"http://xxx/11531"	"4"
"http://xxx/11128"	"4"
"http://xxx/4648"	"4"
"http://xxx/4666"	"4"
"http://xxx/4684"	"4"
"http://xxx/11323"	"4"
"http://xxx/4614"	"4"
"http://xxx/4988"	"4"
"http://xxx/2740"	"4"
"http://xxx/2733"	"4"
"http://xxx/2009"	"4"
"http://xxx/1745"	"3"
"http://xxx/12231"	"4"
"http://xxx/12240"	"4"
"http://xxx/3907"	"4"
"http://xxx/14884"	"4"
"http://xxx/4814"	"4"
"http://xxx/2714"	"4"
"http://xxx/11031"	"4"
"http://xxx/4255"	"3"
"http://xxx/13295"	"4"
"http://xxx/2805"	"4"
"http://xxx/2896"	"4"
"http://xxx/2893"	"4"
"http://xxx/4427"	"4"
"http://xxx/4885"	"4"
"http://xxx/3404"	"3"
"http://xxx/3430"	"3"
"http://xxx/13301"	"4"
"http://xxx/13299"	"3"
"http://xxx/2555"	"3"
"http://xxx/13142"	"3"
"http://xxx/1917"	"3"
"http://xxx/13296"	"4"
"http://xxx/1033"	"1"
"http://xxx/1355"	"4"
"http://xxx/1042"	"4"
"http://xxx/4211"	"3"
"http://xxx/1063"	"3"
"http://xxx/1065"	"4"
"http://xxx/2661"	"3"
"http://xxx/3755"	"3"
"http://xxx/4635"	"4"
"http://xxx/336"	"4"
"http://xxx/2387"	"4"
"http://xxx/488"	"4"
"http://xxx/3516"	"4"
"http://xxx/4242"	"4"
"http://xxx/4217"	"4"
"http://xxx/13562"	"4"
"http://xxx/4888"	"3"
"http://xxx/1731"	"3"
"http://xxx/1058"	"4"
"http://xxx/1730"	"4"
"http://xxx/1725"	"4"
"http://xxx/1247"	"3"
"http://xxx/15020"	"3"
"http://xxx/4371"	"4"
"http://xxx/14933"	"4"
"http://xxx/3640"	"4"
"http://xxx/1462"	"4"
"http://xxx/2456"	"3"
"http://xxx/11875"	"4"
"http://xxx/2437"	"3"
"http://xxx/3634"	"3"
"http://xxx/2441"	"3"
"http://xxx/1912"	"4"
"http://xxx/10667"	"4"
"http://xxx/1921"	"3"
"http://xxx/2801"	"4"
"http://xxx/4850"	"3"
"http://xxx/3971"	"3"
"http://xxx/2865"	"3"
"http://xxx/4789"	"3"
"http://xxx/14588"	"4"
"http://xxx/452"	"3"
"http://xxx/1591"	"3"
"http://xxx/11089"	"4"
"http://xxx/13182"	"4"
"http://xxx/11100"	"3"
"http://xxx/12923"	"3"
"http://xxx/5006"	"3"
"http://xxx/13149"	"3"
"http://xxx/1588"	"4"
"http://xxx/3362"	"3"
"http://xxx/13307"	"3"
"http://xxx/122"	"4"
"http://xxx/10778"	"4"
"http://xxx/3945"	"4"
"http://xxx/10767"	"4"
"http://xxx/1926"	"4"
"http://xxx/3207"	"3"
"http://xxx/13288"	"4"
"http://xxx/11556"	"3"
"http://xxx/4538"	"3"
"http://xxx/11523"	"3"
"http://xxx/11517"	"3"
"http://xxx/3401"	"3"
"http://xxx/4534"	"3"
"http://xxx/11621"	"3"
"http://xxx/11559"	"3"
"http://xxx/4746"	"3"
"http://xxx/4744"	"3"
"http://xxx/3184"	"4"
"http://xxx/4234"	"4"
"http://xxx/1981"	"4"
"http://xxx/13222"	"4"
"http://xxx/2633"	"4"
"http://xxx/3277"	"4"
"http://xxx/13220"	"4"
"http://xxx/2336"	"4"
"http://xxx/11701"	"4"
"http://xxx/1113"	"4"
"http://xxx/2139"	"4"
"http://xxx/4574"	"3"
"http://xxx/1570"	"4"
"http://xxx/4481"	"4"
"http://xxx/11113"	"3"
"http://xxx/398"	"3"
"http://xxx/2744"	"3"
"http://xxx/14976"	"4"
"http://xxx/3906"	"4"
"http://xxx/12366"	"4"
"http://xxx/1092"	"4"
"http://xxx/12367"	"4"
"http://xxx/38"	"3"
"http://xxx/2741"	"4"
"http://xxx/4015"	"3"
"http://xxx/1384"	"4"
"http://xxx/1209"	"4"
"http://xxx/1212"	"4"
"http://xxx/3190"	"3"
"http://xxx/12576"	"4"
"http://xxx/3186"	"4"
"http://xxx/3904"	"3"
"http://xxx/3894"	"4"
"http://xxx/3892"	"3"
"http://xxx/3538"	"3"
"http://xxx/1311"	"4"
"http://xxx/4487"	"3"
"http://xxx/4206"	"3"
"http://xxx/3044"	"3"
"http://xxx/13224"	"3"
"http://xxx/12318"	"3"
"http://xxx/1660"	"3"
"http://xxx/2211"	"3"
"http://xxx/1984"	"3"
"http://xxx/4398"	"4"
"http://xxx/3123"	"4"
"http://xxx/3998"	"4"
"http://xxx/4391"	"4"
"http://xxx/1148"	"4"
"http://xxx/4913"	"4"
"http://xxx/12011"	"4"
"http://xxx/3587"	"4"
"http://xxx/4550"	"4"
"http://xxx/2179"	"4"
"http://xxx/3507"	"4"
"http://xxx/1582"	"3"
"http://xxx/13221"	"3"
"http://xxx/3159"	"4"
"http://xxx/2618"	"4"
"http://xxx/13292"	"4"
"http://xxx/4126"	"1"
"http://xxx/4155"	"4"
"http://xxx/2824"	"4"
"http://xxx/2238"	"3"
"http://xxx/4374"	"4"
"http://xxx/14964"	"4"
"http://xxx/4362"	"4"
"http://xxx/2870"	"4"
"http://xxx/3194"	"4"
"http://xxx/11044"	"3"
"http://xxx/3201"	"3"
"http://xxx/3197"	"4"
"http://xxx/13150"	"3"
"http://xxx/3196"	"4"
"http://xxx/13152"	"3"
"http://xxx/11082"	"4"
"http://xxx/13254"	"4"
"http://xxx/3205"	"3"
"http://xxx/4029"	"4"
"http://xxx/3195"	"4"
"http://xxx/13248"	"4"
"http://xxx/4401"	"4"
"http://xxx/1025"	"3"
"http://xxx/13137"	"4"
"http://xxx/13151"	"3"
"http://xxx/1824"	"3"
"http://xxx/1291"	"4"
"http://xxx/1826"	"4"
"http://xxx/2596"	"4"
"http://xxx/13252"	"3"
"http://xxx/13250"	"3"
"http://xxx/2474"	"1"
"http://xxx/420"	"3"
"http://xxx/5030"	"3"
"http://xxx/191"	"3"
"http://xxx/10130"	"3"
"http://xxx/4047"	"3"
"http://xxx/10128"	"3"
"http://xxx/494"	"3"
"http://xxx/10135"	"3"
"http://xxx/2069"	"3"
"http://xxx/1638"	"4"
"http://xxx/1569"	"4"
"http://xxx/3081"	"4"
"http://xxx/10707"	"4"
"http://xxx/4432"	"4"
"http://xxx/2514"	"4"
"http://xxx/4629"	"4"
"http://xxx/12849"	"4"
"http://xxx/3652"	"4"
"http://xxx/2115"	"4"
"http://xxx/4253"	"4"
"http://xxx/2497"	"4"
"http://xxx/12166"	"4"
"http://xxx/1512"	"3"
"http://xxx/3800"	"4"
"http://xxx/10142"	"4"
"http://xxx/1513"	"4"
"http://xxx/10175"	"4"
"http://xxx/10146"	"3"
"http://xxx/1231"	"3"
"http://xxx/4133"	"3"
"http://xxx/13567"	"4"
"http://xxx/4589"	"4"
"http://xxx/4858"	"4"
"http://xxx/12145"	"4"
"http://xxx/4590"	"4"
"http://xxx/1020"	"4"
"http://xxx/10071"	"4"
"http://xxx/4545"	"4"
"http://xxx/3564"	"4"
"http://xxx/3893"	"4"
"http://xxx/4514"	"3"
"http://xxx/3263"	"4"
"http://xxx/2974"	"4"
"http://xxx/204"	"3"
"http://xxx/14951"	"4"
"http://xxx/11333"	"4"
"http://xxx/10244"	"4"
"http://xxx/2275"	"4"
"http://xxx/3770"	"4"
"http://xxx/2156"	"4"
"http://xxx/1527"	"3"
"http://xxx/11322"	"4"
"http://xxx/4682"	"3"
"http://xxx/4678"	"4"
"http://xxx/1471"	"4"
"http://xxx/11226"	"4"
"http://xxx/11227"	"4"
"http://xxx/12717"	"4"
"http://xxx/4607"	"4"
"http://xxx/2461"	"4"
"http://xxx/10190"	"4"
"http://xxx/14975"	"3"
"http://xxx/12007"	"3"
"http://xxx/4052"	"4"
"http://xxx/25"	"4"
"http://xxx/1213"	"4"
"http://xxx/3212"	"4"
"http://xxx/3647"	"4"
"http://xxx/2963"	"3"
"http://xxx/3648"	"3"
"http://xxx/4668"	"3"
"http://xxx/170"	"3"
"http://xxx/1255"	"4"
"http://xxx/1257"	"4"
"http://xxx/2992"	"3"
"http://xxx/367"	"3"
"http://xxx/1256"	"4"
"http://xxx/1190"	"4"
"http://xxx/461"	"3"
"http://xxx/4195"	"3"
"http://xxx/4080"	"3"
"http://xxx/4832"	"4"
"http://xxx/4146"	"4"
"http://xxx/11795"	"4"
"http://xxx/2039"	"4"
"http://xxx/458"	"4"
"http://xxx/1299"	"4"
"http://xxx/1333"	"4"
"http://xxx/14936"	"3"
"http://xxx/14937"	"3"
"http://xxx/3890"	"4"
"http://xxx/1571"	"4"
"http://xxx/12666"	"4"
"http://xxx/1686"	"4"
"http://xxx/4937"	"4"
"http://xxx/11116"	"4"
"http://xxx/1865"	"3"
"http://xxx/2958"	"3"
"http://xxx/2309"	"3"
"http://xxx/11786"	"3"
"http://xxx/2233"	"4"
"http://xxx/2564"	"4"
"http://xxx/2562"	"4"
"http://xxx/2406"	"3"
"http://xxx/1114"	"4"
"http://xxx/3283"	"4"
"http://xxx/10152"	"3"
"http://xxx/10160"	"4"
"http://xxx/10149"	"4"
"http://xxx/2052"	"3"
"http://xxx/4440"	"3"
"http://xxx/4116"	"3"
"http://xxx/12135"	"4"
"http://xxx/4115"	"4"
"http://xxx/2339"	"4"
"http://xxx/5044"	"4"
"http://xxx/3493"	"4"
"http://xxx/2704"	"4"
"http://xxx/2323"	"4"
"http://xxx/14930"	"4"
"http://xxx/4189"	"4"
"http://xxx/1748"	"4"
"http://xxx/1700"	"4"
"http://xxx/3774"	"4"
"http://xxx/3029"	"4"
"http://xxx/4282"	"4"
"http://xxx/12198"	"4"
"http://xxx/2002"	"4"
"http://xxx/1846"	"4"
"http://xxx/11272"	"4"
"http://xxx/2327"	"4"
"http://xxx/12605"	"4"
"http://xxx/12482"	"4"
"http://xxx/1793"	"4"
"http://xxx/11246"	"4"
"http://xxx/1694"	"4"
"http://xxx/3154"	"4"
"http://xxx/12161"	"4"
"http://xxx/14194"	"4"
"http://xxx/10699"	"4"
"http://xxx/11118"	"4"
"http://xxx/2918"	"3"
"http://xxx/2523"	"4"
"http://xxx/11148"	"4"
"http://xxx/2917"	"4"
"http://xxx/2828"	"4"
"http://xxx/14916"	"4"
"http://xxx/14917"	"3"
"http://xxx/2666"	"3"
"http://xxx/2672"	"4"
"http://xxx/2478"	"3"
"http://xxx/11057"	"4"
"http://xxx/11097"	"4"
"http://xxx/13240"	"4"
"http://xxx/11055"	"4"
"http://xxx/2569"	"4"
"http://xxx/4259"	"4"
"http://xxx/11127"	"3"
"http://xxx/10893"	"3"
"http://xxx/10031"	"3"
"http://xxx/2568"	"3"
"http://xxx/4567"	"4"
"http://xxx/3057"	"4"
"http://xxx/14852"	"3"
"http://xxx/11135"	"3"
"http://xxx/10274"	"4"
"http://xxx/126"	"4"
"http://xxx/3477"	"4"
"http://xxx/1739"	"4"
"http://xxx/4762"	"4"
"http://xxx/14878"	"4"
"http://xxx/14882"	"4"
"http://xxx/14893"	"4"
"http://xxx/4967"	"4"
"http://xxx/14861"	"4"
"http://xxx/4309"	"4"
"http://xxx/4310"	"4"
"http://xxx/14859"	"4"
"http://xxx/14868"	"4"
"http://xxx/14891"	"4"
"http://xxx/14867"	"4"
"http://xxx/14864"	"4"
"http://xxx/14863"	"4"
"http://xxx/3567"	"4"
"http://xxx/2810"	"4"
"http://xxx/4350"	"4"
"http://xxx/4839"	"4"
"http://xxx/363"	"4"
"http://xxx/11792"	"4"
"http://xxx/11794"	"4"
"http://xxx/3522"	"4"
"http://xxx/4519"	"4"
"http://xxx/15041"	"4"
"http://xxx/1181"	"4"
"http://xxx/3050"	"4"
"http://xxx/370"	"4"
"http://xxx/2944"	"4"
"http://xxx/10198"	"4"
"http://xxx/10166"	"3"
"http://xxx/10193"	"4"
"http://xxx/1559"	"4"
"http://xxx/3416"	"4"
"http://xxx/3734"	"4"
"http://xxx/4515"	"4"
"http://xxx/3947"	"4"
"http://xxx/10225"	"4"
"http://xxx/1421"	"4"
"http://xxx/4073"	"4"
"http://xxx/10905"	"4"
"http://xxx/4771"	"4"
"http://xxx/1406"	"3"
"http://xxx/2168"	"4"
"http://xxx/3162"	"3"
"http://xxx/3529"	"3"
"http://xxx/1303"	"4"
"http://xxx/4628"	"3"
"http://xxx/4646"	"3"
"http://xxx/12711"	"4"
"http://xxx/11930"	"4"
"http://xxx/2161"	"4"
"http://xxx/11248"	"4"
"http://xxx/10851"	"4"
"http://xxx/2897"	"4"
"http://xxx/1031"	"3"
"http://xxx/2722"	"4"
"http://xxx/3586"	"4"
"http://xxx/10847"	"4"
"http://xxx/1061"	"4"
"http://xxx/10243"	"4"
"http://xxx/4621"	"4"
"http://xxx/11259"	"4"
"http://xxx/14955"	"4"
"http://xxx/1410"	"4"
"http://xxx/428"	"4"
"http://xxx/3182"	"4"
"http://xxx/503"	"3"
"http://xxx/4982"	"4"
"http://xxx/10305"	"4"
"http://xxx/3553"	"3"
"http://xxx/2291"	"3"
"http://xxx/3535"	"3"
"http://xxx/1548"	"4"
"http://xxx/2428"	"4"
"http://xxx/10381"	"4"
"http://xxx/1134"	"4"
"http://xxx/4356"	"3"
"http://xxx/2029"	"4"
"http://xxx/10444"	"4"
"http://xxx/4632"	"3"
"http://xxx/1275"	"3"
"http://xxx/13192"	"4"
"http://xxx/3900"	"4"
"http://xxx/4691"	"4"
"http://xxx/4184"	"4"
"http://xxx/12279"	"4"
"http://xxx/12263"	"4"
"http://xxx/11975"	"4"
"http://xxx/10066"	"4"
"http://xxx/415"	"4"
"http://xxx/4137"	"4"
"http://xxx/3391"	"4"
"http://xxx/3370"	"4"
"http://xxx/1728"	"4"
"http://xxx/14165"	"4"
"http://xxx/224"	"4"
"http://xxx/4504"	"4"
"http://xxx/2260"	"4"
"http://xxx/3282"	"4"
"http://xxx/3521"	"4"
"http://xxx/4518"	"4"
"http://xxx/12583"	"4"
"http://xxx/2977"	"4"
"http://xxx/2344"	"4"
"http://xxx/12277"	"4"
"http://xxx/14962"	"4"
"http://xxx/12254"	"4"
"http://xxx/12608"	"4"
"http://xxx/12607"	"4"
"http://xxx/132"	"4"
"http://xxx/14965"	"4"
"http://xxx/12488"	"4"
"http://xxx/2098"	"4"
"http://xxx/1506"	"4"
"http://xxx/3324"	"4"
"http://xxx/3550"	"4"
"http://xxx/2735"	"4"
"http://xxx/501"	"1"
"http://xxx/10744"	"4"
"http://xxx/2232"	"4"
"http://xxx/4864"	"4"
"http://xxx/11192"	"4"
"http://xxx/3073"	"4"
"http://xxx/11199"	"4"
"http://xxx/442"	"3"
"http://xxx/453"	"3"
"http://xxx/490"	"3"
"http://xxx/10753"	"3"
"http://xxx/2833"	"4"
"http://xxx/2839"	"4"
"http://xxx/2834"	"4"
"http://xxx/4163"	"4"
"http://xxx/3465"	"4"
"http://xxx/10523"	"4"
"http://xxx/11633"	"4"
"http://xxx/1199"	"4"
"http://xxx/1724"	"4"
"http://xxx/4177"	"4"
"http://xxx/2186"	"4"
"http://xxx/3019"	"4"
"http://xxx/3518"	"4"
"http://xxx/1553"	"4"
"http://xxx/3581"	"4"
"http://xxx/3595"	"4"
"http://xxx/12600"	"4"
"http://xxx/12599"	"4"
"http://xxx/12259"	"4"
"http://xxx/12287"	"4"
"http://xxx/12278"	"4"
"http://xxx/12260"	"4"
"http://xxx/3328"	"4"
"http://xxx/11214"	"4"
"http://xxx/1746"	"4"
"http://xxx/354"	"4"
"http://xxx/3325"	"4"
"http://xxx/2040"	"4"
"http://xxx/12394"	"4"
"http://xxx/1885"	"4"
"http://xxx/2595"	"4"
"http://xxx/2712"	"4"
"http://xxx/2573"	"4"
"http://xxx/2653"	"4"
"http://xxx/394"	"4"
"http://xxx/3022"	"4"
"http://xxx/13118"	"4"
"http://xxx/10660"	"3"
"http://xxx/4143"	"4"
"http://xxx/212"	"4"
"http://xxx/4845"	"4"
"http://xxx/229"	"4"
"http://xxx/1651"	"4"
"http://xxx/4273"	"4"
"http://xxx/12382"	"4"
"http://xxx/15040"	"4"
"http://xxx/15038"	"4"
"http://xxx/12390"	"4"
"http://xxx/4834"	"4"
"http://xxx/4575"	"4"
"http://xxx/1742"	"4"
"http://xxx/2064"	"3"
"http://xxx/3031"	"3"
"http://xxx/3763"	"3"
"http://xxx/1168"	"4"
"http://xxx/1583"	"4"
"http://xxx/3572"	"4"
"http://xxx/3319"	"4"
"http://xxx/2330"	"3"
"http://xxx/1576"	"3"
"http://xxx/12283"	"3"
"http://xxx/2305"	"3"
"http://xxx/4002"	"3"
"http://xxx/1584"	"3"
"http://xxx/4268"	"3"
"http://xxx/12435"	"3"
"http://xxx/5058"	"4"
"http://xxx/12381"	"3"
"http://xxx/4857"	"3"
"http://xxx/3266"	"4"
"http://xxx/253"	"4"
"http://xxx/2612"	"4"
"http://xxx/10574"	"4"
"http://xxx/10626"	"3"
"http://xxx/10640"	"3"
"http://xxx/10617"	"4"
"http://xxx/3729"	"4"
"http://xxx/10605"	"4"
"http://xxx/3462"	"4"
"http://xxx/15034"	"4"
"http://xxx/2742"	"4"
"http://xxx/2293"	"4"
"http://xxx/419"	"4"
"http://xxx/3517"	"4"
"http://xxx/4840"	"4"
"http://xxx/2294"	"3"
"http://xxx/435"	"4"
"http://xxx/1930"	"4"
"http://xxx/237"	"4"
"http://xxx/3169"	"3"
"http://xxx/14957"	"4"
"http://xxx/11201"	"4"
"http://xxx/15033"	"4"
"http://xxx/1470"	"4"
"http://xxx/13226"	"4"
"http://xxx/10099"	"4"
"http://xxx/13229"	"4"
"http://xxx/14847"	"4"
"http://xxx/13227"	"4"
"http://xxx/13179"	"4"
"http://xxx/1248"	"4"
"http://xxx/4952"	"4"
"http://xxx/1813"	"4"
"http://xxx/3376"	"4"
"http://xxx/2593"	"4"
"http://xxx/2597"	"4"
"http://xxx/4503"	"4"
"http://xxx/4541"	"1"
"http://xxx/103"	"4"
"http://xxx/13290"	"4"
"http://xxx/13289"	"4"
"http://xxx/11548"	"3"
"http://xxx/10988"	"3"
"http://xxx/3113"	"3"
"http://xxx/3742"	"3"
"http://xxx/12656"	"4"
"http://xxx/3032"	"3"
"http://xxx/3028"	"4"
"http://xxx/4072"	"4"
"http://xxx/10907"	"4"
"http://xxx/11506"	"3"
"http://xxx/11502"	"3"
"http://xxx/10861"	"3"
"http://xxx/3064"	"4"
"http://xxx/2242"	"4"
"http://xxx/2936"	"4"
"http://xxx/13311"	"4"
"http://xxx/13310"	"4"
"http://xxx/13309"	"4"
"http://xxx/5003"	"4"
"http://xxx/10126"	"4"
"http://xxx/2886"	"4"
"http://xxx/2931"	"3"
"http://xxx/10076"	"1"
"http://xxx/13231"	"4"
"http://xxx/2683"	"3"
"http://xxx/2684"	"4"
"http://xxx/2687"	"4"
"http://xxx/1623"	"4"
"http://xxx/4424"	"4"
"http://xxx/10837"	"3"
"http://xxx/13342"	"4"
"http://xxx/13341"	"4"
"http://xxx/4764"	"3"
"http://xxx/2003"	"3"
"http://xxx/1075"	"3"
"http://xxx/1261"	"3"
"http://xxx/3717"	"3"
"http://xxx/2753"	"3"
"http://xxx/4710"	"4"
"http://xxx/11490"	"3"
"http://xxx/4404"	"3"
"http://xxx/11489"	"3"
"http://xxx/2127"	"3"
"http://xxx/130"	"3"
"http://xxx/11527"	"3"
"http://xxx/4680"	"4"
"http://xxx/1663"	"3"
"http://xxx/21"	"3"
"http://xxx/105"	"3"
"http://xxx/4262"	"3"
"http://xxx/112"	"3"
"http://xxx/4749"	"3"
"http://xxx/11508"	"3"
"http://xxx/14208"	"3"
"http://xxx/4708"	"3"
"http://xxx/1788"	"3"
"http://xxx/1688"	"3"
"http://xxx/1689"	"3"
"http://xxx/13259"	"4"
"http://xxx/13160"	"3"
"http://xxx/13262"	"3"
"http://xxx/1641"	"4"
"http://xxx/10002"	"3"
"http://xxx/2767"	"4"
"http://xxx/4258"	"3"
"http://xxx/3777"	"4"
"http://xxx/11050"	"4"
"http://xxx/1820"	"4"
"http://xxx/1823"	"4"
"http://xxx/3716"	"3"
"http://xxx/11038"	"3"
"http://xxx/4914"	"3"
"http://xxx/1880"	"4"
"http://xxx/10651"	"3"
"http://xxx/13041"	"3"
"http://xxx/10652"	"3"
"http://xxx/14939"	"4"
"http://xxx/3977"	"3"
"http://xxx/2527"	"4"
"http://xxx/5052"	"4"
"http://xxx/2608"	"4"
"http://xxx/14888"	"4"
"http://xxx/14885"	"4"
"http://xxx/12587"	"4"
"http://xxx/1457"	"4"
"http://xxx/4375"	"3"
"http://xxx/12889"	"3"
"http://xxx/12349"	"3"
"http://xxx/13232"	"3"
"http://xxx/1482"	"4"
"http://xxx/13320"	"4"
"http://xxx/2358"	"3"
"http://xxx/10895"	"4"
"http://xxx/10914"	"4"
"http://xxx/388"	"4"
"http://xxx/10911"	"4"
"http://xxx/3834"	"4"
"http://xxx/11276"	"4"
"http://xxx/1001"	"4"
"http://xxx/12276"	"4"
"http://xxx/3999"	"4"
"http://xxx/2319"	"4"
"http://xxx/4902"	"4"
"http://xxx/1622"	"4"
"http://xxx/3133"	"4"
"http://xxx/3984"	"3"
"http://xxx/4777"	"1"
"http://xxx/3732"	"4"
"http://xxx/1296"	"4"
"http://xxx/3288"	"3"
"http://xxx/2093"	"3"
"http://xxx/4127"	"3"
"http://xxx/2409"	"3"
"http://xxx/2316"	"4"
"http://xxx/1028"	"3"
"http://xxx/12027"	"4"
"http://xxx/1082"	"4"
"http://xxx/4897"	"3"
"http://xxx/4056"	"1"
"http://xxx/2060"	"4"
"http://xxx/13327"	"4"
"http://xxx/3119"	"4"
"http://xxx/2055"	"3"
"http://xxx/13326"	"3"
"http://xxx/1350"	"3"
"http://xxx/10933"	"3"
"http://xxx/10930"	"1"
"http://xxx/10927"	"4"
"http://xxx/1737"	"4"
"http://xxx/2498"	"4"
"http://xxx/13238"	"4"
"http://xxx/3149"	"4"
"http://xxx/2490"	"4"
"http://xxx/2508"	"4"
"http://xxx/2493"	"4"
"http://xxx/2476"	"4"
"http://xxx/2723"	"4"
"http://xxx/11069"	"4"
"http://xxx/13148"	"4"
"http://xxx/10260"	"3"
"http://xxx/4167"	"3"
"http://xxx/3063"	"3"
"http://xxx/335"	"3"
"http://xxx/11032"	"3"
"http://xxx/10932"	"3"
"http://xxx/2511"	"3"
"http://xxx/2364"	"3"
"http://xxx/1637"	"4"
"http://xxx/11234"	"3"
"http://xxx/11158"	"4"
"http://xxx/2731"	"3"
"http://xxx/3854"	"3"
"http://xxx/2869"	"4"
"http://xxx/11814"	"4"
"http://xxx/11787"	"3"
"http://xxx/14245"	"3"
"http://xxx/2871"	"3"
"http://xxx/2042"	"3"
"http://xxx/1993"	"4"
"http://xxx/2427"	"3"
"http://xxx/1024"	"4"
"http://xxx/10968"	"4"
"http://xxx/10993"	"4"
"http://xxx/4323"	"4"
"http://xxx/10991"	"4"
"http://xxx/14974"	"4"
"http://xxx/2469"	"4"
"http://xxx/3120"	"4"
"http://xxx/11207"	"4"
"http://xxx/3065"	"3"
"http://xxx/3768"	"3"
"http://xxx/10255"	"3"
"http://xxx/3960"	"4"
"http://xxx/1782"	"4"
"http://xxx/1266"	"4"
"http://xxx/1458"	"4"
"http://xxx/3219"	"4"
"http://xxx/3539"	"4"
"http://xxx/1530"	"4"
"http://xxx/3181"	"4"
"http://xxx/4934"	"4"
"http://xxx/3061"	"4"
"http://xxx/4586"	"4"
"http://xxx/13202"	"4"
"http://xxx/3209"	"4"
"http://xxx/4172"	"4"
"http://xxx/3817"	"4"
"http://xxx/4016"	"4"
"http://xxx/13196"	"4"
"http://xxx/10008"	"4"
"http://xxx/11184"	"4"
"http://xxx/423"	"4"
"http://xxx/13198"	"4"
"http://xxx/10661"	"4"
"http://xxx/28"	"4"
"http://xxx/451"	"4"
"http://xxx/2131"	"3"
"http://xxx/3097"	"3"
"http://xxx/1343"	"3"
"http://xxx/2860"	"4"
"http://xxx/500"	"4"
"http://xxx/1633"	"4"
"http://xxx/11532"	"4"
"http://xxx/4176"	"4"
"http://xxx/1636"	"4"
"http://xxx/14950"	"4"
"http://xxx/1732"	"4"
"http://xxx/3012"	"4"
"http://xxx/13560"	"4"
"http://xxx/4301"	"4"
"http://xxx/13697"	"4"
"http://xxx/1791"	"4"
"http://xxx/3632"	"4"
"http://xxx/1941"	"3"
"http://xxx/3496"	"3"
"http://xxx/3812"	"3"
"http://xxx/3860"	"3"
"http://xxx/4077"	"3"
"http://xxx/12091"	"3"
"http://xxx/12064"	"4"
"http://xxx/12066"	"3"
"http://xxx/12065"	"3"
"http://xxx/12062"	"3"
"http://xxx/12061"	"3"
"http://xxx/12067"	"3"
"http://xxx/2041"	"4"
"http://xxx/1574"	"4"
"http://xxx/2566"	"4"
"http://xxx/2414"	"4"
"http://xxx/4421"	"4"
"http://xxx/4723"	"4"
"http://xxx/4498"	"4"
"http://xxx/1100"	"4"
"http://xxx/1007"	"4"
"http://xxx/1373"	"4"
"http://xxx/2635"	"3"
"http://xxx/2640"	"3"
"http://xxx/2638"	"3"
"http://xxx/2641"	"3"
"http://xxx/2637"	"3"
"http://xxx/1111"	"4"
"http://xxx/4535"	"4"
"http://xxx/11134"	"4"
"http://xxx/100"	"4"
"http://xxx/11046"	"3"
"http://xxx/4422"	"3"
"http://xxx/11065"	"3"
"http://xxx/2856"	"3"
"http://xxx/11070"	"4"
"http://xxx/2821"	"3"
"http://xxx/11071"	"3"
"http://xxx/2477"	"3"
"http://xxx/1825"	"3"
"http://xxx/185"	"4"
"http://xxx/421"	"4"
"http://xxx/4908"	"4"
"http://xxx/4340"	"3"
"http://xxx/3178"	"3"
"http://xxx/2195"	"4"
"http://xxx/13335"	"4"
"http://xxx/13147"	"4"
"http://xxx/2651"	"4"
"http://xxx/10960"	"4"
"http://xxx/10972"	"4"
"http://xxx/13154"	"4"
"http://xxx/2152"	"3"
"http://xxx/11103"	"3"
"http://xxx/355"	"4"
"http://xxx/11671"	"4"
"http://xxx/10048"	"4"
"http://xxx/2766"	"4"
"http://xxx/1225"	"4"
"http://xxx/12476"	"3"
"http://xxx/11212"	"4"
"http://xxx/11209"	"4"
"http://xxx/2964"	"3"
"http://xxx/12170"	"4"
"http://xxx/313"	"4"
"http://xxx/1751"	"4"
"http://xxx/4070"	"4"
"http://xxx/2157"	"4"
"http://xxx/13107"	"4"
"http://xxx/2140"	"4"
"http://xxx/4663"	"4"
"http://xxx/11269"	"4"
"http://xxx/1126"	"4"
"http://xxx/12199"	"4"
"http://xxx/1881"	"4"
"http://xxx/1800"	"4"
"http://xxx/4823"	"4"
"http://xxx/5018"	"4"
"http://xxx/1449"	"4"
"http://xxx/3955"	"4"
"http://xxx/2298"	"4"
"http://xxx/11923"	"4"
"http://xxx/10092"	"4"
"http://xxx/4918"	"3"
"http://xxx/12171"	"4"
"http://xxx/12511"	"4"
"http://xxx/4636"	"4"
"http://xxx/11990"	"4"
"http://xxx/4160"	"4"
"http://xxx/10938"	"4"
"http://xxx/1541"	"4"
"http://xxx/4141"	"4"
"http://xxx/11431"	"4"
"http://xxx/11429"	"4"
"http://xxx/11430"	"4"
"http://xxx/4039"	"3"
"http://xxx/11691"	"3"
"http://xxx/2915"	"3"
"http://xxx/13178"	"4"
"http://xxx/13330"	"4"
"http://xxx/4060"	"4"
"http://xxx/11479"	"3"
"http://xxx/13329"	"3"
"http://xxx/4315"	"3"
"http://xxx/13284"	"4"
"http://xxx/1860"	"4"
"http://xxx/13285"	"4"
"http://xxx/4796"	"3"
"http://xxx/4797"	"4"
"http://xxx/493"	"3"
"http://xxx/3885"	"3"
"http://xxx/492"	"3"
"http://xxx/4920"	"4"
"http://xxx/3455"	"4"
"http://xxx/10012"	"4"
"http://xxx/12912"	"4"
"http://xxx/1837"	"4"
"http://xxx/10999"	"4"
"http://xxx/1568"	"4"
"http://xxx/375"	"3"
"http://xxx/4724"	"3"
"http://xxx/11734"	"4"
"http://xxx/4094"	"3"
"http://xxx/3372"	"4"
"http://xxx/2571"	"4"
"http://xxx/11651"	"4"
"http://xxx/1330"	"4"
"http://xxx/10089"	"3"
"http://xxx/11643"	"4"
"http://xxx/3842"	"4"
"http://xxx/11646"	"4"
"http://xxx/11639"	"4"
"http://xxx/12022"	"4"
"http://xxx/1647"	"4"
"http://xxx/216"	"4"
"http://xxx/3822"	"4"
"http://xxx/1752"	"4"
"http://xxx/1101"	"4"
"http://xxx/11675"	"3"
"http://xxx/3396"	"4"
"http://xxx/42"	"4"
"http://xxx/15030"	"4"
"http://xxx/4147"	"4"
"http://xxx/2383"	"4"
"http://xxx/11762"	"4"
"http://xxx/3884"	"4"
"http://xxx/10017"	"4"
"http://xxx/11752"	"4"
"http://xxx/3820"	"4"
"http://xxx/3937"	"4"
"http://xxx/3819"	"4"
"http://xxx/1381"	"4"
"http://xxx/243"	"4"
"http://xxx/4288"	"4"
"http://xxx/4325"	"4"
"http://xxx/4977"	"4"
"http://xxx/1130"	"4"
"http://xxx/2947"	"4"
"http://xxx/13"	"3"
"http://xxx/4728"	"3"
"http://xxx/11763"	"3"
"http://xxx/12417"	"4"
"http://xxx/11648"	"4"
"http://xxx/3192"	"3"
"http://xxx/3380"	"4"
"http://xxx/12285"	"4"
"http://xxx/194"	"4"
"http://xxx/4149"	"4"
"http://xxx/3414"	"4"
"http://xxx/4916"	"4"
"http://xxx/2789"	"4"
"http://xxx/4907"	"4"
"http://xxx/3381"	"4"
"http://xxx/2352"	"3"
"http://xxx/2381"	"3"
"http://xxx/373"	"4"
"http://xxx/298"	"4"
"http://xxx/3536"	"4"
"http://xxx/2979"	"4"
"http://xxx/311"	"3"
"http://xxx/312"	"4"
"http://xxx/322"	"4"
"http://xxx/326"	"3"
"http://xxx/1931"	"3"
"http://xxx/1159"	"4"
"http://xxx/2945"	"4"
"http://xxx/4838"	"4"
"http://xxx/4810"	"4"
"http://xxx/14901"	"4"
"http://xxx/454"	"3"
"http://xxx/1244"	"4"
"http://xxx/3483"	"4"
"http://xxx/1385"	"4"
"http://xxx/4625"	"4"
"http://xxx/432"	"4"
"http://xxx/1115"	"4"
"http://xxx/4395"	"4"
"http://xxx/2119"	"4"
"http://xxx/120"	"4"
"http://xxx/2689"	"3"
"http://xxx/3295"	"3"
"http://xxx/1499"	"3"
"http://xxx/1674"	"3"
"http://xxx/3308"	"3"
"http://xxx/2601"	"4"
"http://xxx/4474"	"4"
"http://xxx/4049"	"4"
"http://xxx/12444"	"4"
"http://xxx/1279"	"4"
"http://xxx/4974"	"4"
"http://xxx/1393"	"4"
"http://xxx/11922"	"3"
"http://xxx/11921"	"3"
"http://xxx/4178"	"3"
"http://xxx/11918"	"3"
"http://xxx/2287"	"4"
"http://xxx/4871"	"4"
"http://xxx/3548"	"4"
"http://xxx/404"	"4"
"http://xxx/3995"	"4"
"http://xxx/4122"	"1"
"http://xxx/1502"	"3"
"http://xxx/2748"	"3"
"http://xxx/2380"	"4"
"http://xxx/2758"	"3"
"http://xxx/2720"	"4"
"http://xxx/2594"	"4"
"http://xxx/44"	"3"
"http://xxx/11789"	"4"
"http://xxx/1312"	"3"
"http://xxx/1786"	"4"
"http://xxx/14931"	"3"
"http://xxx/14932"	"4"
"http://xxx/2270"	"4"
"http://xxx/3301"	"4"
"http://xxx/12122"	"4"
"http://xxx/2227"	"4"
"http://xxx/3311"	"4"
"http://xxx/3784"	"4"
"http://xxx/15031"	"4"
"http://xxx/12342"	"4"
"http://xxx/14098"	"3"
"http://xxx/14236"	"4"
"http://xxx/12220"	"4"
"http://xxx/4501"	"4"
"http://xxx/14871"	"4"
"http://xxx/4205"	"4"
"http://xxx/4382"	"4"
"http://xxx/3144"	"4"
"http://xxx/10992"	"4"
"http://xxx/10985"	"4"
"http://xxx/2908"	"4"
"http://xxx/2551"	"4"
"http://xxx/12913"	"4"
"http://xxx/12914"	"4"
"http://xxx/4886"	"4"
"http://xxx/4108"	"4"
"http://xxx/1892"	"4"
"http://xxx/3593"	"4"
"http://xxx/11958"	"4"
"http://xxx/11974"	"4"
"http://xxx/2213"	"4"
"http://xxx/1738"	"3"
"http://xxx/10904"	"4"
"http://xxx/3117"	"3"
"http://xxx/12013"	"3"
"http://xxx/10024"	"4"
"http://xxx/1909"	"4"
"http://xxx/13001"	"4"
"http://xxx/2286"	"4"
"http://xxx/10646"	"4"
"http://xxx/14906"	"4"
"http://xxx/11308"	"4"
"http://xxx/14934"	"4"
"http://xxx/14873"	"4"
"http://xxx/3694"	"4"
"http://xxx/13026"	"4"
"http://xxx/2173"	"4"
"http://xxx/4785"	"4"
"http://xxx/13002"	"4"
"http://xxx/13556"	"4"
"http://xxx/14663"	"4"
"http://xxx/1292"	"4"
"http://xxx/10251"	"4"
"http://xxx/14892"	"4"
"http://xxx/4354"	"4"
"http://xxx/305"	"4"
"http://xxx/3506"	"4"
"http://xxx/4436"	"3"
"http://xxx/2755"	"4"
"http://xxx/11713"	"4"
"http://xxx/4383"	"4"
"http://xxx/13305"	"1"
"http://xxx/13304"	"3"
"http://xxx/1958"	"4"
"http://xxx/14872"	"4"
"http://xxx/13249"	"4"
"http://xxx/1561"	"4"
"http://xxx/3307"	"4"
"http://xxx/10671"	"4"
"http://xxx/10672"	"4"
"http://xxx/3287"	"4"
"http://xxx/2124"	"4"
"http://xxx/2071"	"4"
"http://xxx/15029"	"3"
"http://xxx/2025"	"3"
"http://xxx/1520"	"3"
"http://xxx/2332"	"3"
"http://xxx/1511"	"4"
"http://xxx/11296"	"3"
"http://xxx/12819"	"3"
"http://xxx/3392"	"3"
"http://xxx/4889"	"3"
"http://xxx/14850"	"4"
"http://xxx/2826"	"3"
"http://xxx/2841"	"3"
"http://xxx/309"	"4"
"http://xxx/13161"	"1"
"http://xxx/4879"	"4"
"http://xxx/1773"	"4"
"http://xxx/14970"	"4"
"http://xxx/14671"	"4"
"http://xxx/14908"	"4"
"http://xxx/14907"	"4"
"http://xxx/13576"	"4"
"http://xxx/3686"	"4"
"http://xxx/2913"	"4"
"http://xxx/2779"	"4"
"http://xxx/2925"	"4"
"http://xxx/3033"	"3"
"http://xxx/12219"	"4"
"http://xxx/13333"	"3"
"http://xxx/11522"	"3"
"http://xxx/2050"	"3"
"http://xxx/11231"	"4"
"http://xxx/14956"	"3"
"http://xxx/4819"	"3"
"http://xxx/3739"	"3"
"http://xxx/1500"	"4"
"http://xxx/1554"	"3"
"http://xxx/1290"	"3"
"http://xxx/14911"	"4"
"http://xxx/14914"	"4"
"http://xxx/14928"	"4"
"http://xxx/14902"	"4"
"http://xxx/14926"	"4"
"http://xxx/5014"	"4"
"http://xxx/14912"	"3"
"http://xxx/2972"	"4"
"http://xxx/5031"	"4"
"http://xxx/12104"	"4"
"http://xxx/3316"	"4"
"http://xxx/3958"	"3"
"http://xxx/13324"	"4"
"http://xxx/2734"	"3"
"http://xxx/2716"	"4"
"http://xxx/3585"	"3"
"http://xxx/2691"	"3"
"http://xxx/1567"	"3"
"http://xxx/3935"	"4"
"http://xxx/10154"	"4"
"http://xxx/10148"	"3"
"http://xxx/2847"	"4"
"http://xxx/4200"	"4"
"http://xxx/11672"	"3"
"http://xxx/4202"	"3"
"http://xxx/11530"	"4"
"http://xxx/4284"	"4"
"http://xxx/1774"	"3"
"http://xxx/4911"	"4"
"http://xxx/2756"	"4"
"http://xxx/3571"	"3"
"http://xxx/1389"	"4"
"http://xxx/352"	"4"
"http://xxx/11635"	"4"
"http://xxx/12098"	"4"
"http://xxx/4999"	"4"
"http://xxx/13325"	"3"
"http://xxx/2943"	"1"
"http://xxx/2940"	"4"
