"http://xxx/961"	"1"
"http://xxx/7788"	"4"
"http://xxx/13261"	"4"
"http://xxx/6670"	"4"
"http://xxx/1817"	"4"
"http://xxx/11035"	"4"
"http://xxx/11034"	"4"
"http://xxx/1084"	"3"
"http://xxx/13159"	"4"
"http://xxx/13160"	"4"
"http://xxx/3232"	"4"
"http://xxx/1639"	"4"
"http://xxx/13262"	"4"
"http://xxx/3049"	"3"
"http://xxx/11039"	"4"
"http://xxx/3716"	"4"
"http://xxx/11038"	"4"
"http://xxx/5476"	"4"
"http://xxx/709"	"3"
"http://xxx/6678"	"4"
"http://xxx/4914"	"4"
"http://xxx/1820"	"3"
"http://xxx/1823"	"3"
"http://xxx/1818"	"3"
"http://xxx/3777"	"3"
"http://xxx/11050"	"3"
"http://xxx/13258"	"3"
"http://xxx/13259"	"3"
"http://xxx/13193"	"3"
"http://xxx/13194"	"4"
"http://xxx/8100"	"3"
"http://xxx/8722"	"3"
"http://xxx/6816"	"4"
"http://xxx/6640"	"4"
"http://xxx/13226"	"3"
"http://xxx/10099"	"3"
"http://xxx/4258"	"4"
"http://xxx/12450"	"4"
"http://xxx/13229"	"3"
"http://xxx/5421"	"3"
"http://xxx/2876"	"3"
"http://xxx/4279"	"3"
"http://xxx/233"	"4"
"http://xxx/1490"	"4"
"http://xxx/13215"	"4"
"http://xxx/9110"	"4"
"http://xxx/3090"	"4"
"http://xxx/5268"	"4"
"http://xxx/2837"	"4"
"http://xxx/7043"	"4"
"http://xxx/9103"	"4"
"http://xxx/1039"	"4"
"http://xxx/8421"	"4"
"http://xxx/2849"	"4"
"http://xxx/1044"	"4"
"http://xxx/1310"	"4"
"http://xxx/5175"	"4"
"http://xxx/13216"	"4"
"http://xxx/3570"	"4"
"http://xxx/2634"	"4"
"http://xxx/5181"	"4"
"http://xxx/3423"	"4"
"http://xxx/3260"	"4"
"http://xxx/7327"	"4"
"http://xxx/6630"	"4"
"http://xxx/2587"	"4"
"http://xxx/12325"	"4"
"http://xxx/5005"	"4"
"http://xxx/3681"	"4"
"http://xxx/12528"	"4"
"http://xxx/12784"	"4"
"http://xxx/3540"	"4"
"http://xxx/240"	"4"
"http://xxx/13213"	"4"
"http://xxx/8486"	"4"
"http://xxx/8273"	"4"
"http://xxx/12514"	"4"
"http://xxx/6164"	"4"
"http://xxx/4267"	"4"
"http://xxx/6026"	"4"
"http://xxx/14847"	"3"
"http://xxx/13227"	"3"
"http://xxx/7747"	"4"
"http://xxx/2263"	"3"
"http://xxx/13277"	"3"
"http://xxx/11499"	"4"
"http://xxx/13263"	"3"
"http://xxx/5357"	"4"
"http://xxx/1641"	"3"
"http://xxx/3079"	"3"
"http://xxx/11148"	"1"
"http://xxx/14983"	"4"
"http://xxx/4400"	"4"
"http://xxx/2918"	"4"
"http://xxx/2568"	"4"
"http://xxx/7127"	"4"
"http://xxx/11146"	"4"
"http://xxx/14852"	"4"
"http://xxx/4573"	"4"
"http://xxx/11807"	"4"
"http://xxx/3179"	"4"
"http://xxx/2523"	"3"
"http://xxx/2520"	"4"
"http://xxx/10191"	"3"
"http://xxx/2882"	"4"
"http://xxx/2803"	"4"
"http://xxx/2851"	"4"
"http://xxx/397"	"4"
"http://xxx/8845"	"3"
"http://xxx/4567"	"3"
"http://xxx/14939"	"4"
"http://xxx/1911"	"4"
"http://xxx/7129"	"3"
"http://xxx/14938"	"4"
"http://xxx/5745"	"4"
"http://xxx/7135"	"3"
"http://xxx/3975"	"3"
"http://xxx/3057"	"3"
"http://xxx/4852"	"3"
"http://xxx/4850"	"4"
"http://xxx/4853"	"3"
"http://xxx/6992"	"3"
"http://xxx/7584"	"3"
"http://xxx/8339"	"4"
"http://xxx/4574"	"3"
"http://xxx/1400"	"4"
"http://xxx/1570"	"4"
"http://xxx/7038"	"4"
"http://xxx/7992"	"4"
"http://xxx/4480"	"4"
"http://xxx/5203"	"4"
"http://xxx/5863"	"4"
"http://xxx/4948"	"4"
"http://xxx/4481"	"4"
"http://xxx/7712"	"4"
"http://xxx/5119"	"1"
"http://xxx/6467"	"4"
"http://xxx/5346"	"4"
"http://xxx/5123"	"4"
"http://xxx/5646"	"4"
"http://xxx/10088"	"4"
"http://xxx/10087"	"4"
"http://xxx/7939"	"4"
"http://xxx/13088"	"3"
"http://xxx/5122"	"4"
"http://xxx/402"	"4"
"http://xxx/210"	"4"
"http://xxx/807"	"4"
"http://xxx/1113"	"4"
"http://xxx/2139"	"4"
"http://xxx/11113"	"3"
"http://xxx/5230"	"3"
"http://xxx/1992"	"3"
"http://xxx/7223"	"3"
"http://xxx/10064"	"4"
"http://xxx/9313"	"4"
"http://xxx/8351"	"3"
"http://xxx/7102"	"4"
"http://xxx/398"	"3"
"http://xxx/2070"	"3"
"http://xxx/5648"	"3"
"http://xxx/5631"	"4"
"http://xxx/6892"	"3"
"http://xxx/6469"	"3"
"http://xxx/6451"	"4"
"http://xxx/631"	"3"
"http://xxx/270"	"4"
"http://xxx/272"	"4"
"http://xxx/14973"	"4"
"http://xxx/11706"	"3"
"http://xxx/587"	"4"
"http://xxx/7452"	"4"
"http://xxx/7593"	"3"
"http://xxx/5354"	"3"
"http://xxx/6204"	"4"
"http://xxx/14924"	"4"
"http://xxx/6860"	"4"
"http://xxx/5353"	"4"
"http://xxx/1989"	"4"
"http://xxx/6920"	"4"
"http://xxx/11125"	"4"
"http://xxx/5350"	"4"
"http://xxx/7407"	"4"
"http://xxx/8240"	"4"
"http://xxx/9196"	"3"
"http://xxx/3491"	"4"
"http://xxx/8133"	"4"
"http://xxx/5042"	"4"
"http://xxx/9214"	"4"
"http://xxx/5349"	"3"
"http://xxx/2956"	"4"
"http://xxx/2129"	"4"
"http://xxx/6883"	"4"
"http://xxx/6452"	"4"
"http://xxx/11700"	"4"
"http://xxx/8595"	"3"
"http://xxx/861"	"3"
"http://xxx/841"	"4"
"http://xxx/5057"	"4"
"http://xxx/5056"	"4"
"http://xxx/4196"	"4"
"http://xxx/7578"	"3"
"http://xxx/10034"	"4"
"http://xxx/9276"	"3"
"http://xxx/9269"	"4"
"http://xxx/5629"	"3"
"http://xxx/11909"	"4"
"http://xxx/401"	"3"
"http://xxx/4161"	"4"
"http://xxx/2633"	"4"
"http://xxx/13222"	"4"
"http://xxx/6447"	"4"
"http://xxx/6977"	"4"
"http://xxx/13225"	"4"
"http://xxx/1981"	"4"
"http://xxx/3277"	"4"
"http://xxx/7612"	"4"
"http://xxx/3184"	"4"
"http://xxx/2754"	"4"
"http://xxx/14898"	"4"
"http://xxx/7180"	"4"
"http://xxx/6841"	"4"
"http://xxx/2588"	"4"
"http://xxx/4234"	"4"
"http://xxx/13220"	"4"
"http://xxx/7905"	"4"
"http://xxx/2336"	"4"
"http://xxx/1718"	"4"
"http://xxx/11701"	"4"
"http://xxx/2290"	"4"
"http://xxx/12189"	"1"
"http://xxx/9195"	"3"
"http://xxx/2877"	"4"
"http://xxx/5440"	"4"
"http://xxx/9217"	"4"
"http://xxx/9164"	"4"
"http://xxx/9244"	"4"
"http://xxx/9230"	"4"
"http://xxx/11237"	"3"
"http://xxx/680"	"4"
"http://xxx/10236"	"4"
"http://xxx/13102"	"3"
"http://xxx/4684"	"4"
"http://xxx/11323"	"4"
"http://xxx/4666"	"4"
"http://xxx/4614"	"4"
"http://xxx/4599"	"4"
"http://xxx/10256"	"3"
"http://xxx/4985"	"4"
"http://xxx/3425"	"3"
"http://xxx/274"	"3"
"http://xxx/2872"	"3"
"http://xxx/7175"	"3"
"http://xxx/7168"	"4"
"http://xxx/12301"	"4"
"http://xxx/4988"	"4"
"http://xxx/9234"	"4"
"http://xxx/2730"	"3"
"http://xxx/2718"	"4"
"http://xxx/2740"	"4"
"http://xxx/2733"	"4"
"http://xxx/208"	"3"
"http://xxx/4658"	"3"
"http://xxx/4648"	"4"
"http://xxx/15039"	"4"
"http://xxx/9121"	"4"
"http://xxx/2365"	"4"
"http://xxx/9072"	"4"
"http://xxx/7018"	"4"
"http://xxx/6923"	"4"
"http://xxx/4633"	"3"
"http://xxx/3238"	"3"
"http://xxx/3237"	"4"
"http://xxx/4065"	"4"
"http://xxx/2009"	"4"
"http://xxx/1280"	"4"
"http://xxx/13291"	"4"
"http://xxx/6373"	"4"
"http://xxx/1745"	"3"
"http://xxx/1736"	"4"
"http://xxx/9160"	"4"
"http://xxx/7811"	"4"
"http://xxx/2751"	"4"
"http://xxx/2343"	"3"
"http://xxx/7355"	"3"
"http://xxx/4254"	"4"
"http://xxx/6817"	"3"
"http://xxx/8350"	"4"
"http://xxx/5428"	"4"
"http://xxx/14940"	"4"
"http://xxx/14884"	"4"
"http://xxx/3907"	"4"
"http://xxx/250"	"4"
"http://xxx/3599"	"4"
"http://xxx/2746"	"4"
"http://xxx/8633"	"4"
"http://xxx/7621"	"4"
"http://xxx/8852"	"3"
"http://xxx/9165"	"3"
"http://xxx/4082"	"4"
"http://xxx/4321"	"4"
"http://xxx/9290"	"4"
"http://xxx/11232"	"4"
"http://xxx/12240"	"4"
"http://xxx/12231"	"4"
"http://xxx/2778"	"1"
"http://xxx/2818"	"4"
"http://xxx/2814"	"4"
"http://xxx/5003"	"4"
"http://xxx/10274"	"4"
"http://xxx/2865"	"4"
"http://xxx/2886"	"4"
"http://xxx/10976"	"4"
"http://xxx/2980"	"3"
"http://xxx/830"	"4"
"http://xxx/6187"	"4"
"http://xxx/5508"	"3"
"http://xxx/1921"	"3"
"http://xxx/1912"	"4"
"http://xxx/7679"	"4"
"http://xxx/7823"	"4"
"http://xxx/23"	"4"
"http://xxx/13307"	"3"
"http://xxx/2547"	"4"
"http://xxx/13308"	"4"
"http://xxx/122"	"4"
"http://xxx/7542"	"4"
"http://xxx/10778"	"4"
"http://xxx/11498"	"4"
"http://xxx/3945"	"4"
"http://xxx/10773"	"4"
"http://xxx/7470"	"4"
"http://xxx/6610"	"4"
"http://xxx/10767"	"4"
"http://xxx/1926"	"4"
"http://xxx/11497"	"4"
"http://xxx/3768"	"3"
"http://xxx/2874"	"3"
"http://xxx/2857"	"3"
"http://xxx/3788"	"3"
"http://xxx/1286"	"4"
"http://xxx/7804"	"4"
"http://xxx/7781"	"4"
"http://xxx/2253"	"4"
"http://xxx/10968"	"4"
"http://xxx/7796"	"4"
"http://xxx/10255"	"3"
"http://xxx/6801"	"3"
"http://xxx/12982"	"4"
"http://xxx/3477"	"4"
"http://xxx/6808"	"4"
"http://xxx/126"	"4"
"http://xxx/1739"	"4"
"http://xxx/4762"	"4"
"http://xxx/4303"	"4"
"http://xxx/14876"	"4"
"http://xxx/4787"	"3"
"http://xxx/4788"	"4"
"http://xxx/6658"	"4"
"http://xxx/1437"	"4"
"http://xxx/4789"	"4"
"http://xxx/2771"	"3"
"http://xxx/6775"	"4"
"http://xxx/8887"	"1"
"http://xxx/4629"	"4"
"http://xxx/2276"	"4"
"http://xxx/12849"	"4"
"http://xxx/6740"	"4"
"http://xxx/10131"	"4"
"http://xxx/9380"	"4"
"http://xxx/12783"	"4"
"http://xxx/5494"	"4"
"http://xxx/835"	"4"
"http://xxx/4635"	"4"
"http://xxx/1476"	"4"
"http://xxx/3652"	"4"
"http://xxx/8158"	"3"
"http://xxx/772"	"4"
"http://xxx/7497"	"4"
"http://xxx/5415"	"3"
"http://xxx/7034"	"3"
"http://xxx/1796"	"4"
"http://xxx/10146"	"3"
"http://xxx/1512"	"3"
"http://xxx/3800"	"4"
"http://xxx/10142"	"4"
"http://xxx/1513"	"4"
"http://xxx/10144"	"4"
"http://xxx/10155"	"4"
"http://xxx/7528"	"4"
"http://xxx/10161"	"3"
"http://xxx/7244"	"4"
"http://xxx/2377"	"3"
"http://xxx/7420"	"4"
"http://xxx/1231"	"3"
"http://xxx/4133"	"3"
"http://xxx/3673"	"4"
"http://xxx/13552"	"3"
"http://xxx/2215"	"4"
"http://xxx/5496"	"4"
"http://xxx/2461"	"4"
"http://xxx/5857"	"4"
"http://xxx/3872"	"4"
"http://xxx/8334"	"4"
"http://xxx/3853"	"4"
"http://xxx/2823"	"4"
"http://xxx/5550"	"4"
"http://xxx/5506"	"4"
"http://xxx/12793"	"4"
"http://xxx/14975"	"3"
"http://xxx/12007"	"3"
"http://xxx/3435"	"1"
"http://xxx/10696"	"4"
"http://xxx/10201"	"4"
"http://xxx/10694"	"4"
"http://xxx/3441"	"4"
"http://xxx/4468"	"3"
"http://xxx/4466"	"4"
"http://xxx/3419"	"3"
"http://xxx/3212"	"4"
"http://xxx/3406"	"3"
"http://xxx/8386"	"4"
"http://xxx/11246"	"4"
"http://xxx/1694"	"4"
"http://xxx/8687"	"4"
"http://xxx/2004"	"4"
"http://xxx/10698"	"4"
"http://xxx/1793"	"4"
"http://xxx/6949"	"4"
"http://xxx/8361"	"4"
"http://xxx/6622"	"4"
"http://xxx/5316"	"4"
"http://xxx/4204"	"4"
"http://xxx/10693"	"4"
"http://xxx/5502"	"4"
"http://xxx/9349"	"4"
"http://xxx/10692"	"3"
"http://xxx/3438"	"3"
"http://xxx/8919"	"4"
"http://xxx/2835"	"3"
"http://xxx/2829"	"4"
"http://xxx/239"	"3"
"http://xxx/527"	"4"
"http://xxx/13553"	"3"
"http://xxx/3444"	"3"
"http://xxx/8099"	"4"
"http://xxx/1930"	"4"
"http://xxx/167"	"3"
"http://xxx/10683"	"4"
"http://xxx/6979"	"4"
"http://xxx/2036"	"3"
"http://xxx/1471"	"4"
"http://xxx/5424"	"4"
"http://xxx/3756"	"4"
"http://xxx/6747"	"4"
"http://xxx/5484"	"4"
"http://xxx/8782"	"4"
"http://xxx/5511"	"4"
"http://xxx/471"	"4"
"http://xxx/6743"	"4"
"http://xxx/9321"	"4"
"http://xxx/10510"	"4"
"http://xxx/2970"	"4"
"http://xxx/9382"	"4"
"http://xxx/7173"	"4"
"http://xxx/894"	"4"
"http://xxx/5029"	"4"
"http://xxx/5513"	"3"
"http://xxx/10200"	"4"
"http://xxx/10210"	"4"
"http://xxx/10214"	"4"
"http://xxx/10202"	"4"
"http://xxx/5545"	"3"
"http://xxx/10032"	"4"
"http://xxx/10208"	"4"
"http://xxx/4378"	"4"
"http://xxx/10212"	"3"
"http://xxx/10199"	"4"
"http://xxx/7495"	"4"
"http://xxx/5046"	"4"
"http://xxx/5489"	"3"
"http://xxx/204"	"1"
"http://xxx/4652"	"3"
"http://xxx/4649"	"3"
"http://xxx/5523"	"3"
"http://xxx/10233"	"3"
"http://xxx/8824"	"3"
"http://xxx/4233"	"1"
"http://xxx/4255"	"4"
"http://xxx/2892"	"4"
"http://xxx/5820"	"4"
"http://xxx/5572"	"4"
"http://xxx/6370"	"3"
"http://xxx/215"	"4"
"http://xxx/3718"	"4"
"http://xxx/13302"	"4"
"http://xxx/3404"	"4"
"http://xxx/13300"	"4"
"http://xxx/3430"	"4"
"http://xxx/8571"	"4"
"http://xxx/8639"	"4"
"http://xxx/3246"	"4"
"http://xxx/13299"	"4"
"http://xxx/13142"	"4"
"http://xxx/2555"	"4"
"http://xxx/13297"	"4"
"http://xxx/1917"	"4"
"http://xxx/7480"	"4"
"http://xxx/13298"	"4"
"http://xxx/6662"	"3"
"http://xxx/6663"	"3"
"http://xxx/5778"	"4"
"http://xxx/10936"	"4"
"http://xxx/7116"	"3"
"http://xxx/7083"	"3"
"http://xxx/8212"	"3"
"http://xxx/8213"	"4"
"http://xxx/1317"	"3"
"http://xxx/1628"	"3"
"http://xxx/5777"	"3"
"http://xxx/2386"	"3"
"http://xxx/2896"	"3"
"http://xxx/2434"	"4"
"http://xxx/8247"	"4"
"http://xxx/2914"	"3"
"http://xxx/10049"	"4"
"http://xxx/6623"	"4"
"http://xxx/4162"	"4"
"http://xxx/5430"	"3"
"http://xxx/8679"	"3"
"http://xxx/6376"	"3"
"http://xxx/4531"	"4"
"http://xxx/14671"	"4"
"http://xxx/4654"	"4"
"http://xxx/2893"	"3"
"http://xxx/13107"	"4"
"http://xxx/4427"	"3"
"http://xxx/4438"	"4"
"http://xxx/11514"	"1"
"http://xxx/2626"	"4"
"http://xxx/1971"	"4"
"http://xxx/7086"	"4"
"http://xxx/11624"	"4"
"http://xxx/3878"	"4"
"http://xxx/2909"	"4"
"http://xxx/13272"	"4"
"http://xxx/6453"	"4"
"http://xxx/13273"	"4"
"http://xxx/13280"	"4"
"http://xxx/5293"	"4"
"http://xxx/7077"	"4"
"http://xxx/4743"	"4"
"http://xxx/2534"	"4"
"http://xxx/2655"	"3"
"http://xxx/7978"	"4"
"http://xxx/5051"	"3"
"http://xxx/3261"	"3"
"http://xxx/3625"	"3"
"http://xxx/4580"	"3"
"http://xxx/13276"	"3"
"http://xxx/13316"	"4"
"http://xxx/3874"	"3"
"http://xxx/4051"	"4"
"http://xxx/5643"	"4"
"http://xxx/1616"	"3"
"http://xxx/3006"	"4"
"http://xxx/13282"	"4"
"http://xxx/13281"	"4"
"http://xxx/8663"	"3"
"http://xxx/13279"	"4"
"http://xxx/5971"	"3"
"http://xxx/3071"	"4"
"http://xxx/6728"	"4"
"http://xxx/11536"	"4"
"http://xxx/1776"	"3"
"http://xxx/7063"	"4"
"http://xxx/4420"	"4"
"http://xxx/8626"	"4"
"http://xxx/792"	"4"
"http://xxx/183"	"4"
"http://xxx/11494"	"3"
"http://xxx/3040"	"4"
"http://xxx/8162"	"4"
"http://xxx/2907"	"4"
"http://xxx/3614"	"4"
"http://xxx/4752"	"3"
"http://xxx/1619"	"4"
"http://xxx/4148"	"4"
"http://xxx/6443"	"4"
"http://xxx/6290"	"3"
"http://xxx/7089"	"4"
"http://xxx/4715"	"4"
"http://xxx/8805"	"4"
"http://xxx/6989"	"3"
"http://xxx/4247"	"3"
"http://xxx/3855"	"4"
"http://xxx/4727"	"4"
"http://xxx/2862"	"3"
"http://xxx/2579"	"4"
"http://xxx/7853"	"4"
"http://xxx/1970"	"4"
"http://xxx/14966"	"4"
"http://xxx/2859"	"4"
"http://xxx/9208"	"4"
"http://xxx/2783"	"4"
"http://xxx/4758"	"4"
"http://xxx/5538"	"4"
"http://xxx/2863"	"4"
"http://xxx/2212"	"3"
"http://xxx/9207"	"4"
"http://xxx/2578"	"4"
"http://xxx/9215"	"4"
"http://xxx/2422"	"4"
"http://xxx/3200"	"3"
"http://xxx/8312"	"4"
"http://xxx/7087"	"3"
"http://xxx/2729"	"3"
"http://xxx/5713"	"4"
"http://xxx/11427"	"3"
"http://xxx/10084"	"3"
"http://xxx/1590"	"4"
"http://xxx/6637"	"4"
"http://xxx/4430"	"4"
"http://xxx/11468"	"4"
"http://xxx/1630"	"4"
"http://xxx/108"	"4"
"http://xxx/13271"	"4"
"http://xxx/6802"	"4"
"http://xxx/1712"	"4"
"http://xxx/6647"	"4"
"http://xxx/1862"	"4"
"http://xxx/9091"	"3"
"http://xxx/7019"	"4"
"http://xxx/9133"	"4"
"http://xxx/2226"	"4"
"http://xxx/2006"	"3"
"http://xxx/4032"	"3"
"http://xxx/11472"	"3"
"http://xxx/8641"	"4"
"http://xxx/685"	"3"
"http://xxx/282"	"4"
"http://xxx/285"	"4"
"http://xxx/2020"	"3"
"http://xxx/5298"	"4"
"http://xxx/6758"	"3"
"http://xxx/206"	"3"
"http://xxx/11476"	"4"
"http://xxx/3397"	"4"
"http://xxx/3171"	"4"
"http://xxx/6368"	"3"
"http://xxx/5290"	"3"
"http://xxx/10026"	"3"
"http://xxx/9063"	"4"
"http://xxx/1328"	"4"
"http://xxx/9391"	"4"
"http://xxx/12746"	"3"
"http://xxx/1969"	"3"
"http://xxx/10930"	"4"
"http://xxx/10085"	"3"
"http://xxx/13146"	"4"
"http://xxx/6583"	"4"
"http://xxx/11556"	"4"
"http://xxx/8886"	"4"
"http://xxx/1601"	"4"
"http://xxx/11587"	"4"
"http://xxx/5812"	"4"
"http://xxx/83"	"4"
"http://xxx/4538"	"4"
"http://xxx/6631"	"4"
"http://xxx/11523"	"4"
"http://xxx/6586"	"4"
"http://xxx/11517"	"4"
"http://xxx/11623"	"4"
"http://xxx/3401"	"4"
"http://xxx/182"	"4"
"http://xxx/8723"	"4"
"http://xxx/11563"	"4"
"http://xxx/8283"	"4"
"http://xxx/4534"	"4"
"http://xxx/5776"	"4"
"http://xxx/6799"	"4"
"http://xxx/11621"	"4"
"http://xxx/11559"	"4"
"http://xxx/3880"	"4"
"http://xxx/3871"	"4"
"http://xxx/3865"	"4"
"http://xxx/286"	"3"
"http://xxx/8582"	"3"
"http://xxx/8590"	"4"
"http://xxx/8522"	"4"
"http://xxx/1622"	"4"
"http://xxx/4891"	"4"
"http://xxx/3133"	"4"
"http://xxx/5816"	"4"
"http://xxx/7320"	"4"
"http://xxx/8585"	"4"
"http://xxx/8583"	"4"
"http://xxx/8658"	"4"
"http://xxx/1594"	"4"
"http://xxx/8598"	"4"
"http://xxx/13233"	"4"
"http://xxx/6059"	"4"
"http://xxx/9245"	"4"
"http://xxx/3481"	"4"
"http://xxx/8653"	"4"
"http://xxx/975"	"4"
"http://xxx/13234"	"4"
"http://xxx/8648"	"4"
"http://xxx/4676"	"4"
"http://xxx/2536"	"3"
"http://xxx/3047"	"4"
"http://xxx/2535"	"3"
"http://xxx/11493"	"3"
"http://xxx/2989"	"4"
"http://xxx/11571"	"4"
"http://xxx/2998"	"4"
"http://xxx/2996"	"4"
"http://xxx/2993"	"4"
"http://xxx/3002"	"4"
"http://xxx/11045"	"4"
"http://xxx/13145"	"4"
"http://xxx/2997"	"4"
"http://xxx/13237"	"4"
"http://xxx/2991"	"4"
"http://xxx/4434"	"4"
"http://xxx/2419"	"4"
"http://xxx/1669"	"4"
"http://xxx/10833"	"1"
"http://xxx/3705"	"4"
"http://xxx/11007"	"4"
"http://xxx/11632"	"4"
"http://xxx/10980"	"4"
"http://xxx/4764"	"4"
"http://xxx/7118"	"4"
"http://xxx/95"	"4"
"http://xxx/5479"	"4"
"http://xxx/1261"	"4"
"http://xxx/3717"	"4"
"http://xxx/7411"	"3"
"http://xxx/112"	"4"
"http://xxx/13937"	"4"
"http://xxx/1486"	"4"
"http://xxx/7616"	"4"
"http://xxx/6102"	"4"
"http://xxx/111"	"3"
"http://xxx/2753"	"4"
"http://xxx/7581"	"4"
"http://xxx/11490"	"4"
"http://xxx/7217"	"4"
"http://xxx/11489"	"4"
"http://xxx/10981"	"4"
"http://xxx/7165"	"4"
"http://xxx/7082"	"4"
"http://xxx/4741"	"4"
"http://xxx/654"	"4"
"http://xxx/130"	"4"
"http://xxx/2127"	"4"
"http://xxx/11627"	"4"
"http://xxx/1445"	"4"
"http://xxx/1663"	"4"
"http://xxx/11527"	"4"
"http://xxx/1447"	"4"
"http://xxx/6124"	"4"
"http://xxx/21"	"4"
"http://xxx/105"	"4"
"http://xxx/4262"	"4"
"http://xxx/7221"	"4"
"http://xxx/662"	"4"
"http://xxx/4360"	"4"
"http://xxx/7218"	"4"
"http://xxx/6709"	"4"
"http://xxx/13289"	"3"
"http://xxx/6809"	"4"
"http://xxx/710"	"4"
"http://xxx/1788"	"4"
"http://xxx/8214"	"4"
"http://xxx/1688"	"4"
"http://xxx/1690"	"4"
"http://xxx/5433"	"4"
"http://xxx/4365"	"4"
"http://xxx/1689"	"4"
"http://xxx/13290"	"3"
"http://xxx/11508"	"4"
"http://xxx/14208"	"4"
"http://xxx/4749"	"4"
"http://xxx/3847"	"4"
"http://xxx/4708"	"4"
"http://xxx/103"	"3"
"http://xxx/7184"	"4"
"http://xxx/4994"	"4"
"http://xxx/11535"	"4"
"http://xxx/11548"	"4"
"http://xxx/4541"	"4"
"http://xxx/10988"	"4"
"http://xxx/4760"	"4"
"http://xxx/8579"	"1"
"http://xxx/10964"	"4"
"http://xxx/10078"	"4"
"http://xxx/14845"	"4"
"http://xxx/3971"	"3"
"http://xxx/568"	"3"
"http://xxx/7188"	"3"
"http://xxx/4040"	"4"
"http://xxx/5507"	"3"
"http://xxx/10666"	"4"
"http://xxx/10136"	"4"
"http://xxx/10667"	"4"
"http://xxx/5478"	"3"
"http://xxx/5449"	"3"
"http://xxx/8075"	"1"
"http://xxx/5624"	"4"
"http://xxx/11127"	"4"
"http://xxx/6107"	"4"
"http://xxx/8076"	"4"
"http://xxx/10893"	"4"
"http://xxx/1974"	"3"
"http://xxx/5877"	"3"
"http://xxx/11118"	"3"
"http://xxx/8068"	"3"
"http://xxx/14933"	"3"
"http://xxx/14857"	"4"
"http://xxx/3645"	"4"
"http://xxx/14917"	"4"
"http://xxx/4612"	"4"
"http://xxx/5348"	"3"
"http://xxx/2666"	"4"
"http://xxx/6708"	"4"
"http://xxx/2672"	"4"
"http://xxx/11119"	"3"
"http://xxx/2478"	"4"
"http://xxx/2924"	"3"
"http://xxx/8077"	"3"
"http://xxx/9141"	"4"
"http://xxx/8074"	"3"
"http://xxx/4259"	"3"
"http://xxx/2926"	"3"
"http://xxx/9318"	"4"
"http://xxx/7079"	"3"
"http://xxx/9241"	"3"
"http://xxx/1975"	"3"
"http://xxx/8525"	"4"
"http://xxx/7354"	"4"
"http://xxx/4678"	"4"
"http://xxx/2527"	"4"
"http://xxx/7465"	"4"
"http://xxx/10651"	"4"
"http://xxx/13041"	"4"
"http://xxx/5360"	"4"
"http://xxx/529"	"4"
"http://xxx/8608"	"4"
"http://xxx/9422"	"4"
"http://xxx/10652"	"4"
"http://xxx/2285"	"4"
"http://xxx/5444"	"4"
"http://xxx/4793"	"4"
"http://xxx/3977"	"4"
"http://xxx/969"	"4"
"http://xxx/3999"	"4"
"http://xxx/7684"	"4"
"http://xxx/11276"	"4"
"http://xxx/8073"	"4"
"http://xxx/267"	"4"
"http://xxx/9254"	"4"
"http://xxx/6092"	"4"
"http://xxx/1001"	"4"
"http://xxx/8031"	"4"
"http://xxx/8955"	"4"
"http://xxx/1807"	"4"
"http://xxx/1880"	"4"
"http://xxx/8707"	"4"
"http://xxx/11277"	"4"
"http://xxx/6047"	"4"
"http://xxx/3834"	"4"
"http://xxx/14982"	"4"
"http://xxx/10895"	"4"
"http://xxx/1123"	"4"
"http://xxx/10910"	"4"
"http://xxx/13550"	"4"
"http://xxx/10909"	"4"
"http://xxx/10914"	"4"
"http://xxx/388"	"4"
"http://xxx/14418"	"3"
"http://xxx/10847"	"3"
"http://xxx/7668"	"4"
"http://xxx/8014"	"3"
"http://xxx/10861"	"4"
"http://xxx/516"	"4"
"http://xxx/8008"	"4"
"http://xxx/6270"	"3"
"http://xxx/1061"	"3"
"http://xxx/2319"	"4"
"http://xxx/7641"	"3"
"http://xxx/12276"	"4"
"http://xxx/9130"	"4"
"http://xxx/12273"	"4"
"http://xxx/2722"	"3"
"http://xxx/2599"	"4"
"http://xxx/3586"	"3"
"http://xxx/3591"	"4"
"http://xxx/3596"	"4"
"http://xxx/10851"	"3"
"http://xxx/5810"	"4"
"http://xxx/1410"	"4"
"http://xxx/449"	"4"
"http://xxx/8811"	"4"
"http://xxx/7669"	"4"
"http://xxx/3182"	"4"
"http://xxx/6787"	"4"
"http://xxx/4062"	"4"
"http://xxx/6339"	"4"
"http://xxx/1063"	"3"
"http://xxx/1029"	"4"
"http://xxx/1065"	"4"
"http://xxx/7970"	"4"
"http://xxx/7003"	"4"
"http://xxx/4682"	"4"
"http://xxx/11321"	"4"
"http://xxx/7900"	"4"
"http://xxx/3984"	"3"
"http://xxx/7784"	"1"
"http://xxx/7832"	"4"
"http://xxx/7819"	"4"
"http://xxx/7816"	"4"
"http://xxx/7825"	"4"
"http://xxx/13156"	"4"
"http://xxx/10939"	"4"
"http://xxx/4808"	"4"
"http://xxx/10959"	"4"
"http://xxx/6861"	"4"
"http://xxx/7798"	"3"
"http://xxx/7826"	"4"
"http://xxx/4269"	"3"
"http://xxx/7793"	"3"
"http://xxx/5880"	"4"
"http://xxx/6785"	"4"
"http://xxx/1419"	"4"
"http://xxx/5364"	"4"
"http://xxx/7810"	"4"
"http://xxx/7805"	"3"
"http://xxx/3770"	"4"
"http://xxx/2838"	"4"
"http://xxx/4767"	"4"
"http://xxx/10905"	"4"
"http://xxx/4771"	"4"
"http://xxx/7813"	"3"
"http://xxx/7787"	"3"
"http://xxx/4137"	"3"
"http://xxx/7815"	"3"
"http://xxx/6749"	"4"
"http://xxx/7099"	"3"
"http://xxx/77"	"3"
"http://xxx/14974"	"4"
"http://xxx/1618"	"4"
"http://xxx/765"	"3"
"http://xxx/767"	"4"
"http://xxx/415"	"4"
"http://xxx/664"	"4"
"http://xxx/7790"	"3"
"http://xxx/11095"	"4"
"http://xxx/7622"	"3"
"http://xxx/10993"	"4"
"http://xxx/8820"	"4"
"http://xxx/10991"	"4"
"http://xxx/4027"	"4"
"http://xxx/1775"	"4"
"http://xxx/7795"	"4"
"http://xxx/11307"	"4"
"http://xxx/10925"	"3"
"http://xxx/1928"	"3"
"http://xxx/6551"	"3"
"http://xxx/3120"	"4"
"http://xxx/6739"	"3"
"http://xxx/5555"	"3"
"http://xxx/4034"	"4"
"http://xxx/2636"	"1"
"http://xxx/2643"	"4"
"http://xxx/4103"	"4"
"http://xxx/5154"	"4"
"http://xxx/1532"	"4"
"http://xxx/1792"	"4"
"http://xxx/1401"	"4"
"http://xxx/4498"	"4"
"http://xxx/1100"	"4"
"http://xxx/8893"	"4"
"http://xxx/9412"	"4"
"http://xxx/68"	"4"
"http://xxx/7699"	"4"
"http://xxx/6338"	"4"
"http://xxx/8495"	"4"
"http://xxx/2635"	"3"
"http://xxx/6935"	"4"
"http://xxx/2640"	"3"
"http://xxx/567"	"4"
"http://xxx/2639"	"3"
"http://xxx/8490"	"4"
"http://xxx/1160"	"4"
"http://xxx/4723"	"4"
"http://xxx/965"	"4"
"http://xxx/8428"	"4"
"http://xxx/353"	"4"
"http://xxx/2642"	"3"
"http://xxx/3334"	"4"
"http://xxx/4483"	"4"
"http://xxx/1007"	"4"
"http://xxx/1373"	"4"
"http://xxx/2641"	"3"
"http://xxx/7590"	"4"
"http://xxx/2637"	"3"
"http://xxx/1111"	"4"
"http://xxx/8144"	"4"
"http://xxx/781"	"4"
"http://xxx/8680"	"3"
"http://xxx/12004"	"4"
"http://xxx/1673"	"1"
"http://xxx/355"	"4"
"http://xxx/48"	"4"
"http://xxx/5758"	"4"
"http://xxx/7390"	"4"
"http://xxx/8200"	"4"
"http://xxx/5986"	"4"
"http://xxx/1322"	"4"
"http://xxx/14636"	"3"
"http://xxx/731"	"3"
"http://xxx/47"	"3"
"http://xxx/947"	"4"
"http://xxx/1536"	"4"
"http://xxx/5892"	"4"
"http://xxx/9147"	"4"
"http://xxx/9232"	"4"
"http://xxx/9138"	"4"
"http://xxx/13106"	"4"
"http://xxx/486"	"4"
"http://xxx/2912"	"4"
"http://xxx/7395"	"3"
"http://xxx/11233"	"3"
"http://xxx/5987"	"3"
"http://xxx/1299"	"3"
"http://xxx/3509"	"4"
"http://xxx/2039"	"3"
"http://xxx/766"	"4"
"http://xxx/11793"	"4"
"http://xxx/821"	"4"
"http://xxx/6405"	"4"
"http://xxx/8148"	"3"
"http://xxx/7923"	"3"
"http://xxx/6229"	"4"
"http://xxx/11791"	"4"
"http://xxx/2257"	"4"
"http://xxx/8263"	"3"
"http://xxx/8265"	"4"
"http://xxx/1574"	"4"
"http://xxx/11795"	"3"
"http://xxx/1808"	"4"
"http://xxx/6033"	"4"
"http://xxx/6129"	"3"
"http://xxx/6131"	"4"
"http://xxx/1333"	"3"
"http://xxx/8171"	"3"
"http://xxx/7114"	"4"
"http://xxx/1578"	"3"
"http://xxx/14910"	"4"
"http://xxx/14927"	"4"
"http://xxx/14925"	"4"
"http://xxx/14928"	"4"
"http://xxx/14902"	"4"
"http://xxx/14905"	"4"
"http://xxx/14926"	"4"
"http://xxx/14915"	"4"
"http://xxx/5014"	"4"
"http://xxx/7818"	"4"
"http://xxx/11531"	"4"
"http://xxx/7830"	"4"
"http://xxx/7831"	"3"
"http://xxx/13317"	"4"
"http://xxx/10057"	"4"
"http://xxx/6805"	"3"
"http://xxx/11530"	"3"
"http://xxx/7882"	"1"
"http://xxx/7866"	"4"
"http://xxx/11226"	"4"
"http://xxx/7902"	"3"
"http://xxx/7874"	"4"
"http://xxx/7848"	"3"
"http://xxx/12717"	"4"
"http://xxx/7860"	"4"
"http://xxx/4607"	"4"
"http://xxx/7886"	"3"
"http://xxx/5521"	"4"
"http://xxx/7899"	"3"
"http://xxx/319"	"4"
"http://xxx/7851"	"4"
"http://xxx/8167"	"4"
"http://xxx/7895"	"3"
"http://xxx/6094"	"3"
"http://xxx/3524"	"3"
"http://xxx/7898"	"3"
"http://xxx/7845"	"3"
"http://xxx/4070"	"3"
"http://xxx/5277"	"3"
"http://xxx/5675"	"4"
"http://xxx/5510"	"4"
"http://xxx/4855"	"4"
"http://xxx/5265"	"4"
"http://xxx/5274"	"4"
"http://xxx/7345"	"4"
"http://xxx/1899"	"4"
"http://xxx/13136"	"4"
"http://xxx/186"	"4"
"http://xxx/1874"	"4"
"http://xxx/219"	"4"
"http://xxx/3378"	"4"
"http://xxx/3177"	"4"
"http://xxx/213"	"4"
"http://xxx/10511"	"4"
"http://xxx/2831"	"4"
"http://xxx/3274"	"4"
"http://xxx/1093"	"4"
"http://xxx/10758"	"4"
"http://xxx/13211"	"4"
"http://xxx/5035"	"4"
"http://xxx/5960"	"4"
"http://xxx/13210"	"4"
"http://xxx/4329"	"4"
"http://xxx/3269"	"4"
"http://xxx/8655"	"4"
"http://xxx/5245"	"4"
"http://xxx/4929"	"4"
"http://xxx/1431"	"4"
"http://xxx/256"	"4"
"http://xxx/6942"	"4"
"http://xxx/7282"	"4"
"http://xxx/8592"	"4"
"http://xxx/8847"	"4"
"http://xxx/14972"	"4"
"http://xxx/25"	"4"
"http://xxx/7659"	"4"
"http://xxx/11294"	"4"
"http://xxx/11289"	"4"
"http://xxx/14615"	"4"
"http://xxx/1888"	"4"
"http://xxx/7972"	"4"
"http://xxx/7962"	"4"
"http://xxx/4073"	"4"
"http://xxx/3263"	"4"
"http://xxx/2836"	"4"
"http://xxx/7827"	"4"
"http://xxx/9166"	"4"
"http://xxx/4163"	"4"
"http://xxx/2840"	"4"
"http://xxx/2834"	"4"
"http://xxx/8570"	"4"
"http://xxx/2832"	"4"
"http://xxx/3087"	"4"
"http://xxx/4663"	"4"
"http://xxx/7172"	"4"
"http://xxx/8812"	"4"
"http://xxx/9251"	"4"
"http://xxx/8876"	"4"
"http://xxx/13100"	"1"
"http://xxx/4868"	"4"
"http://xxx/8841"	"4"
"http://xxx/7143"	"3"
"http://xxx/7146"	"4"
"http://xxx/7144"	"3"
"http://xxx/2387"	"4"
"http://xxx/488"	"4"
"http://xxx/13120"	"3"
"http://xxx/13275"	"3"
"http://xxx/10898"	"4"
"http://xxx/8367"	"3"
"http://xxx/13104"	"3"
"http://xxx/7353"	"4"
"http://xxx/4030"	"3"
"http://xxx/7110"	"3"
"http://xxx/7092"	"3"
"http://xxx/8627"	"4"
"http://xxx/8967"	"4"
"http://xxx/2889"	"4"
"http://xxx/8032"	"4"
"http://xxx/8804"	"4"
"http://xxx/5686"	"4"
"http://xxx/8844"	"3"
"http://xxx/8797"	"4"
"http://xxx/6291"	"4"
"http://xxx/6636"	"3"
"http://xxx/11309"	"3"
"http://xxx/8182"	"3"
"http://xxx/11259"	"3"
"http://xxx/14955"	"3"
"http://xxx/10066"	"4"
"http://xxx/5210"	"4"
"http://xxx/8829"	"4"
"http://xxx/1421"	"4"
"http://xxx/14951"	"4"
"http://xxx/10244"	"4"
"http://xxx/4211"	"4"
"http://xxx/7618"	"4"
"http://xxx/5667"	"4"
"http://xxx/2275"	"4"
"http://xxx/2156"	"4"
"http://xxx/11334"	"4"
"http://xxx/5317"	"4"
"http://xxx/5253"	"3"
"http://xxx/12456"	"4"
"http://xxx/1041"	"3"
"http://xxx/1031"	"4"
"http://xxx/1046"	"4"
"http://xxx/1052"	"4"
"http://xxx/10243"	"3"
"http://xxx/2661"	"4"
"http://xxx/3755"	"4"
"http://xxx/1033"	"4"
"http://xxx/1064"	"4"
"http://xxx/3954"	"4"
"http://xxx/4046"	"4"
"http://xxx/3748"	"4"
"http://xxx/3176"	"4"
"http://xxx/3864"	"4"
"http://xxx/6061"	"4"
"http://xxx/202"	"4"
"http://xxx/5286"	"3"
"http://xxx/3742"	"4"
"http://xxx/6867"	"4"
"http://xxx/5261"	"4"
"http://xxx/3032"	"4"
"http://xxx/7425"	"4"
"http://xxx/3115"	"3"
"http://xxx/3113"	"4"
"http://xxx/10704"	"3"
"http://xxx/8667"	"4"
"http://xxx/4621"	"3"
"http://xxx/9069"	"4"
"http://xxx/5856"	"4"
"http://xxx/12321"	"4"
"http://xxx/9071"	"4"
"http://xxx/7438"	"4"
"http://xxx/14947"	"4"
"http://xxx/2304"	"4"
"http://xxx/3857"	"4"
"http://xxx/8004"	"4"
"http://xxx/8747"	"4"
"http://xxx/1515"	"4"
"http://xxx/6806"	"3"
"http://xxx/8815"	"3"
"http://xxx/3917"	"4"
"http://xxx/3754"	"4"
"http://xxx/13117"	"4"
"http://xxx/3559"	"3"
"http://xxx/10229"	"4"
"http://xxx/10225"	"4"
"http://xxx/13122"	"4"
"http://xxx/10228"	"4"
"http://xxx/7880"	"3"
"http://xxx/1314"	"4"
"http://xxx/4636"	"4"
"http://xxx/5959"	"4"
"http://xxx/7138"	"3"
"http://xxx/12248"	"4"
"http://xxx/579"	"4"
"http://xxx/10048"	"1"
"http://xxx/11643"	"4"
"http://xxx/11642"	"4"
"http://xxx/1319"	"4"
"http://xxx/866"	"4"
"http://xxx/3842"	"4"
"http://xxx/4256"	"4"
"http://xxx/5837"	"4"
"http://xxx/6445"	"4"
"http://xxx/11646"	"4"
"http://xxx/5862"	"4"
"http://xxx/11638"	"4"
"http://xxx/12022"	"4"
"http://xxx/11639"	"4"
"http://xxx/11647"	"4"
"http://xxx/1647"	"4"
"http://xxx/6227"	"4"
"http://xxx/11641"	"4"
"http://xxx/216"	"4"
"http://xxx/9135"	"3"
"http://xxx/6228"	"4"
"http://xxx/6422"	"3"
"http://xxx/4152"	"3"
"http://xxx/1759"	"3"
"http://xxx/3914"	"3"
"http://xxx/5902"	"3"
"http://xxx/1318"	"4"
"http://xxx/3822"	"4"
"http://xxx/14849"	"4"
"http://xxx/4015"	"3"
"http://xxx/9369"	"4"
"http://xxx/2301"	"4"
"http://xxx/4347"	"4"
"http://xxx/6395"	"4"
"http://xxx/11645"	"3"
"http://xxx/1752"	"4"
"http://xxx/1101"	"4"
"http://xxx/5155"	"4"
"http://xxx/4725"	"4"
"http://xxx/11675"	"3"
"http://xxx/865"	"3"
"http://xxx/698"	"4"
"http://xxx/4231"	"3"
"http://xxx/2663"	"4"
"http://xxx/4251"	"4"
"http://xxx/3045"	"4"
"http://xxx/11813"	"4"
"http://xxx/5831"	"3"
"http://xxx/5839"	"4"
"http://xxx/5830"	"4"
"http://xxx/4052"	"4"
"http://xxx/8000"	"3"
"http://xxx/2084"	"3"
"http://xxx/6406"	"4"
"http://xxx/42"	"4"
"http://xxx/6446"	"3"
"http://xxx/1384"	"4"
"http://xxx/5838"	"4"
"http://xxx/6473"	"4"
"http://xxx/2670"	"4"
"http://xxx/3396"	"4"
"http://xxx/6904"	"4"
"http://xxx/2895"	"3"
"http://xxx/636"	"4"
"http://xxx/8833"	"4"
"http://xxx/8621"	"4"
"http://xxx/9202"	"4"
"http://xxx/8588"	"4"
"http://xxx/7936"	"4"
"http://xxx/6911"	"4"
"http://xxx/2673"	"4"
"http://xxx/15030"	"4"
"http://xxx/9086"	"4"
"http://xxx/2668"	"4"
"http://xxx/6413"	"4"
"http://xxx/625"	"4"
"http://xxx/2667"	"4"
"http://xxx/2679"	"4"
"http://xxx/4146"	"3"
"http://xxx/2383"	"4"
"http://xxx/7937"	"4"
"http://xxx/6417"	"4"
"http://xxx/4147"	"4"
"http://xxx/4150"	"4"
"http://xxx/6474"	"3"
"http://xxx/2185"	"4"
"http://xxx/4835"	"4"
"http://xxx/6357"	"4"
"http://xxx/2674"	"4"
"http://xxx/6280"	"4"
"http://xxx/8596"	"4"
"http://xxx/5392"	"4"
"http://xxx/255"	"4"
"http://xxx/8538"	"3"
"http://xxx/5575"	"4"
"http://xxx/8539"	"4"
"http://xxx/2528"	"4"
"http://xxx/8541"	"4"
"http://xxx/11762"	"4"
"http://xxx/1946"	"4"
"http://xxx/6250"	"4"
"http://xxx/6359"	"4"
"http://xxx/5650"	"4"
"http://xxx/5653"	"4"
"http://xxx/3884"	"4"
"http://xxx/5640"	"4"
"http://xxx/10017"	"4"
"http://xxx/8442"	"3"
"http://xxx/9085"	"4"
"http://xxx/6226"	"3"
"http://xxx/6884"	"4"
"http://xxx/5666"	"4"
"http://xxx/800"	"4"
"http://xxx/5229"	"4"
"http://xxx/3372"	"4"
"http://xxx/9199"	"4"
"http://xxx/6402"	"4"
"http://xxx/6915"	"4"
"http://xxx/11651"	"4"
"http://xxx/6412"	"4"
"http://xxx/7878"	"4"
"http://xxx/2571"	"4"
"http://xxx/263"	"4"
"http://xxx/2207"	"3"
"http://xxx/5929"	"4"
"http://xxx/6486"	"4"
"http://xxx/3937"	"4"
"http://xxx/5924"	"4"
"http://xxx/3819"	"4"
"http://xxx/3823"	"4"
"http://xxx/1381"	"4"
"http://xxx/11718"	"4"
"http://xxx/1327"	"4"
"http://xxx/9203"	"4"
"http://xxx/5785"	"3"
"http://xxx/5784"	"4"
"http://xxx/2221"	"3"
"http://xxx/1959"	"3"
"http://xxx/5311"	"3"
"http://xxx/11662"	"4"
"http://xxx/7362"	"4"
"http://xxx/7364"	"3"
"http://xxx/2218"	"4"
"http://xxx/2923"	"4"
"http://xxx/5787"	"4"
"http://xxx/12764"	"4"
"http://xxx/6970"	"4"
"http://xxx/2222"	"4"
"http://xxx/2657"	"4"
"http://xxx/891"	"4"
"http://xxx/7557"	"4"
"http://xxx/2656"	"4"
"http://xxx/277"	"4"
"http://xxx/2350"	"4"
"http://xxx/5746"	"4"
"http://xxx/3300"	"4"
"http://xxx/6978"	"4"
"http://xxx/6600"	"3"
"http://xxx/3877"	"4"
"http://xxx/8377"	"4"
"http://xxx/3218"	"3"
"http://xxx/3220"	"4"
"http://xxx/3866"	"3"
"http://xxx/6309"	"4"
"http://xxx/2354"	"4"
"http://xxx/8435"	"4"
"http://xxx/11812"	"4"
"http://xxx/1482"	"4"
"http://xxx/13320"	"4"
"http://xxx/6681"	"4"
"http://xxx/3225"	"4"
"http://xxx/11927"	"4"
"http://xxx/6896"	"3"
"http://xxx/12687"	"3"
"http://xxx/12263"	"4"
"http://xxx/7366"	"3"
"http://xxx/11433"	"4"
"http://xxx/7367"	"4"
"http://xxx/10107"	"3"
"http://xxx/10054"	"3"
"http://xxx/6753"	"4"
"http://xxx/9035"	"4"
"http://xxx/10106"	"4"
"http://xxx/12898"	"3"
"http://xxx/3011"	"4"
"http://xxx/4441"	"3"
"http://xxx/7363"	"4"
"http://xxx/12861"	"4"
"http://xxx/7235"	"4"
"http://xxx/20"	"4"
"http://xxx/2920"	"4"
"http://xxx/8341"	"4"
"http://xxx/2220"	"4"
"http://xxx/12778"	"4"
"http://xxx/7370"	"4"
"http://xxx/7238"	"4"
"http://xxx/475"	"4"
"http://xxx/10103"	"4"
"http://xxx/10053"	"4"
"http://xxx/7240"	"4"
"http://xxx/7241"	"4"
"http://xxx/2793"	"3"
"http://xxx/6287"	"3"
"http://xxx/4253"	"4"
"http://xxx/7075"	"4"
"http://xxx/6710"	"4"
"http://xxx/2160"	"4"
"http://xxx/2554"	"4"
"http://xxx/2497"	"4"
"http://xxx/5486"	"4"
"http://xxx/6378"	"4"
"http://xxx/6705"	"4"
"http://xxx/9375"	"3"
"http://xxx/5742"	"4"
"http://xxx/4691"	"4"
"http://xxx/4184"	"4"
"http://xxx/3604"	"4"
"http://xxx/6262"	"4"
"http://xxx/9123"	"4"
"http://xxx/1316"	"4"
"http://xxx/12279"	"4"
"http://xxx/3900"	"4"
"http://xxx/6252"	"4"
"http://xxx/8286"	"4"
"http://xxx/2099"	"4"
"http://xxx/6842"	"4"
"http://xxx/3891"	"4"
"http://xxx/7035"	"4"
"http://xxx/7170"	"3"
"http://xxx/2790"	"4"
"http://xxx/1706"	"4"
"http://xxx/9223"	"4"
"http://xxx/2216"	"3"
"http://xxx/2658"	"3"
"http://xxx/898"	"4"
"http://xxx/7588"	"4"
"http://xxx/1484"	"4"
"http://xxx/7122"	"4"
"http://xxx/3630"	"4"
"http://xxx/6988"	"4"
"http://xxx/7586"	"4"
"http://xxx/13187"	"4"
"http://xxx/5885"	"4"
"http://xxx/11990"	"4"
"http://xxx/11375"	"4"
"http://xxx/12872"	"3"
"http://xxx/9034"	"3"
"http://xxx/5736"	"3"
"http://xxx/2606"	"4"
"http://xxx/5724"	"4"
"http://xxx/12006"	"4"
"http://xxx/12816"	"4"
"http://xxx/7763"	"3"
"http://xxx/8503"	"4"
"http://xxx/2827"	"3"
"http://xxx/7803"	"4"
"http://xxx/2238"	"4"
"http://xxx/7443"	"4"
"http://xxx/4126"	"4"
"http://xxx/2884"	"4"
"http://xxx/3365"	"4"
"http://xxx/6409"	"4"
"http://xxx/6428"	"4"
"http://xxx/6400"	"4"
"http://xxx/6415"	"4"
"http://xxx/6144"	"4"
"http://xxx/10089"	"4"
"http://xxx/6912"	"4"
"http://xxx/6418"	"4"
"http://xxx/6429"	"4"
"http://xxx/6423"	"4"
"http://xxx/3572"	"4"
"http://xxx/12008"	"4"
"http://xxx/7761"	"4"
"http://xxx/7929"	"4"
"http://xxx/3342"	"4"
"http://xxx/265"	"4"
"http://xxx/633"	"4"
"http://xxx/3518"	"4"
"http://xxx/7759"	"4"
"http://xxx/8020"	"4"
"http://xxx/3209"	"4"
"http://xxx/7720"	"4"
"http://xxx/3380"	"4"
"http://xxx/5708"	"4"
"http://xxx/6890"	"4"
"http://xxx/6887"	"4"
"http://xxx/1799"	"4"
"http://xxx/4350"	"1"
"http://xxx/4091"	"4"
"http://xxx/6499"	"4"
"http://xxx/326"	"4"
"http://xxx/5936"	"4"
"http://xxx/1931"	"4"
"http://xxx/5928"	"4"
"http://xxx/5613"	"4"
"http://xxx/1933"	"4"
"http://xxx/5178"	"4"
"http://xxx/6189"	"4"
"http://xxx/4724"	"4"
"http://xxx/375"	"4"
"http://xxx/1168"	"4"
"http://xxx/8190"	"4"
"http://xxx/8204"	"4"
"http://xxx/8203"	"4"
"http://xxx/5593"	"4"
"http://xxx/8192"	"4"
"http://xxx/379"	"4"
"http://xxx/4094"	"4"
"http://xxx/1366"	"4"
"http://xxx/5601"	"4"
"http://xxx/813"	"3"
"http://xxx/1159"	"4"
"http://xxx/2945"	"4"
"http://xxx/1391"	"4"
"http://xxx/8289"	"4"
"http://xxx/8986"	"4"
"http://xxx/373"	"4"
"http://xxx/6755"	"4"
"http://xxx/4838"	"4"
"http://xxx/5751"	"4"
"http://xxx/5756"	"3"
"http://xxx/6660"	"4"
"http://xxx/14619"	"3"
"http://xxx/1298"	"3"
"http://xxx/4839"	"3"
"http://xxx/7401"	"3"
"http://xxx/4493"	"3"
"http://xxx/454"	"4"
"http://xxx/1224"	"4"
"http://xxx/11788"	"3"
"http://xxx/8554"	"3"
"http://xxx/363"	"3"
"http://xxx/340"	"4"
"http://xxx/4523"	"3"
"http://xxx/6928"	"4"
"http://xxx/11792"	"3"
"http://xxx/8995"	"4"
"http://xxx/11794"	"3"
"http://xxx/8993"	"4"
"http://xxx/5184"	"3"
"http://xxx/7600"	"4"
"http://xxx/8540"	"4"
"http://xxx/5676"	"4"
"http://xxx/3915"	"4"
"http://xxx/5670"	"4"
"http://xxx/5978"	"3"
"http://xxx/8496"	"4"
"http://xxx/8202"	"4"
"http://xxx/3522"	"3"
"http://xxx/6918"	"3"
"http://xxx/728"	"3"
"http://xxx/4519"	"3"
"http://xxx/15041"	"3"
"http://xxx/4625"	"4"
"http://xxx/5612"	"3"
"http://xxx/13577"	"3"
"http://xxx/5608"	"3"
"http://xxx/3763"	"3"
"http://xxx/9077"	"4"
"http://xxx/1162"	"3"
"http://xxx/6540"	"4"
"http://xxx/11734"	"3"
"http://xxx/1180"	"4"
"http://xxx/1133"	"4"
"http://xxx/5456"	"4"
"http://xxx/8378"	"4"
"http://xxx/91"	"4"
"http://xxx/3869"	"4"
"http://xxx/5107"	"4"
"http://xxx/5108"	"4"
"http://xxx/2825"	"4"
"http://xxx/2529"	"4"
"http://xxx/4728"	"4"
"http://xxx/243"	"3"
"http://xxx/4288"	"3"
"http://xxx/5554"	"3"
"http://xxx/6777"	"3"
"http://xxx/6778"	"4"
"http://xxx/4325"	"3"
"http://xxx/332"	"3"
"http://xxx/4157"	"3"
"http://xxx/7179"	"3"
"http://xxx/6827"	"4"
"http://xxx/7181"	"4"
"http://xxx/4977"	"3"
"http://xxx/8703"	"3"
"http://xxx/6773"	"4"
"http://xxx/6774"	"4"
"http://xxx/2873"	"3"
"http://xxx/849"	"4"
"http://xxx/2824"	"4"
"http://xxx/4782"	"3"
"http://xxx/1130"	"4"
"http://xxx/8141"	"3"
"http://xxx/8843"	"4"
"http://xxx/7730"	"3"
"http://xxx/7729"	"4"
"http://xxx/1185"	"3"
"http://xxx/2232"	"3"
"http://xxx/6304"	"4"
"http://xxx/5752"	"4"
"http://xxx/4286"	"4"
"http://xxx/417"	"4"
"http://xxx/5547"	"3"
"http://xxx/5806"	"4"
"http://xxx/5781"	"3"
"http://xxx/11752"	"4"
"http://xxx/8537"	"3"
"http://xxx/2947"	"3"
"http://xxx/8906"	"4"
"http://xxx/8405"	"1"
"http://xxx/3050"	"4"
"http://xxx/11782"	"4"
"http://xxx/1631"	"4"
"http://xxx/1181"	"4"
"http://xxx/13077"	"4"
"http://xxx/5747"	"4"
"http://xxx/3159"	"4"
"http://xxx/185"	"4"
"http://xxx/851"	"4"
"http://xxx/7702"	"3"
"http://xxx/1473"	"4"
"http://xxx/11087"	"4"
"http://xxx/5327"	"4"
"http://xxx/4571"	"3"
"http://xxx/4908"	"4"
"http://xxx/421"	"4"
"http://xxx/4340"	"3"
"http://xxx/14894"	"4"
"http://xxx/3178"	"3"
"http://xxx/5457"	"3"
"http://xxx/1399"	"4"
"http://xxx/7159"	"4"
"http://xxx/11798"	"4"
"http://xxx/7604"	"4"
"http://xxx/5097"	"4"
"http://xxx/9044"	"4"
"http://xxx/6399"	"4"
"http://xxx/4156"	"3"
"http://xxx/1332"	"3"
"http://xxx/5094"	"3"
"http://xxx/1114"	"3"
"http://xxx/1115"	"4"
"http://xxx/4408"	"3"
"http://xxx/6319"	"3"
"http://xxx/3283"	"3"
"http://xxx/8542"	"3"
"http://xxx/6959"	"3"
"http://xxx/12107"	"1"
"http://xxx/9206"	"4"
"http://xxx/4124"	"4"
"http://xxx/9242"	"4"
"http://xxx/9221"	"4"
"http://xxx/8229"	"4"
"http://xxx/9161"	"4"
"http://xxx/2900"	"3"
"http://xxx/5544"	"4"
"http://xxx/1221"	"4"
"http://xxx/1466"	"4"
"http://xxx/7538"	"3"
"http://xxx/3785"	"3"
"http://xxx/12790"	"3"
"http://xxx/2766"	"3"
"http://xxx/3058"	"4"
"http://xxx/30"	"3"
"http://xxx/6889"	"4"
"http://xxx/6899"	"4"
"http://xxx/3647"	"4"
"http://xxx/5193"	"4"
"http://xxx/4111"	"4"
"http://xxx/5718"	"3"
"http://xxx/5741"	"4"
"http://xxx/11157"	"3"
"http://xxx/468"	"3"
"http://xxx/9274"	"4"
"http://xxx/6355"	"4"
"http://xxx/5000"	"4"
"http://xxx/7097"	"4"
"http://xxx/3730"	"3"
"http://xxx/8999"	"4"
"http://xxx/8117"	"4"
"http://xxx/8516"	"4"
"http://xxx/1941"	"4"
"http://xxx/12893"	"4"
"http://xxx/12145"	"1"
"http://xxx/2974"	"4"
"http://xxx/2052"	"4"
"http://xxx/9170"	"4"
"http://xxx/1288"	"4"
"http://xxx/4594"	"4"
"http://xxx/4116"	"4"
"http://xxx/9151"	"4"
"http://xxx/4440"	"4"
"http://xxx/7251"	"4"
"http://xxx/4448"	"3"
"http://xxx/963"	"4"
"http://xxx/8025"	"3"
"http://xxx/1015"	"3"
"http://xxx/10152"	"4"
"http://xxx/12152"	"4"
"http://xxx/12153"	"4"
"http://xxx/976"	"4"
"http://xxx/1772"	"4"
"http://xxx/4514"	"4"
"http://xxx/3949"	"4"
"http://xxx/9297"	"3"
"http://xxx/6507"	"4"
"http://xxx/7230"	"4"
"http://xxx/3154"	"4"
"http://xxx/5362"	"4"
"http://xxx/8252"	"4"
"http://xxx/6510"	"4"
"http://xxx/12161"	"4"
"http://xxx/14194"	"4"
"http://xxx/3733"	"3"
"http://xxx/5110"	"4"
"http://xxx/552"	"3"
"http://xxx/2103"	"4"
"http://xxx/5023"	"3"
"http://xxx/10071"	"3"
"http://xxx/4545"	"3"
"http://xxx/6276"	"3"
"http://xxx/10170"	"4"
"http://xxx/1020"	"3"
"http://xxx/7683"	"4"
"http://xxx/10699"	"4"
"http://xxx/4590"	"3"
"http://xxx/5405"	"3"
"http://xxx/10176"	"4"
"http://xxx/5409"	"4"
"http://xxx/3966"	"4"
"http://xxx/9004"	"4"
"http://xxx/8997"	"3"
"http://xxx/3893"	"3"
"http://xxx/5875"	"3"
"http://xxx/1520"	"3"
"http://xxx/9305"	"3"
"http://xxx/2332"	"3"
"http://xxx/15029"	"3"
"http://xxx/429"	"4"
"http://xxx/437"	"4"
"http://xxx/8951"	"4"
"http://xxx/5044"	"4"
"http://xxx/1523"	"4"
"http://xxx/3493"	"4"
"http://xxx/3007"	"4"
"http://xxx/2782"	"3"
"http://xxx/2562"	"4"
"http://xxx/7985"	"4"
"http://xxx/4916"	"4"
"http://xxx/7376"	"4"
"http://xxx/2789"	"4"
"http://xxx/2105"	"4"
"http://xxx/11816"	"1"
"http://xxx/2570"	"3"
"http://xxx/14920"	"3"
"http://xxx/14921"	"3"
"http://xxx/6791"	"3"
"http://xxx/2929"	"3"
"http://xxx/5689"	"4"
"http://xxx/14919"	"3"
"http://xxx/11896"	"3"
"http://xxx/7933"	"4"
"http://xxx/2713"	"3"
"http://xxx/11686"	"3"
"http://xxx/11693"	"3"
"http://xxx/7094"	"3"
"http://xxx/11124"	"3"
"http://xxx/2848"	"4"
"http://xxx/11786"	"4"
"http://xxx/10215"	"3"
"http://xxx/8610"	"3"
"http://xxx/14918"	"3"
"http://xxx/11133"	"3"
"http://xxx/1462"	"4"
"http://xxx/4359"	"3"
"http://xxx/14848"	"4"
"http://xxx/8487"	"3"
"http://xxx/890"	"4"
"http://xxx/5195"	"3"
"http://xxx/5994"	"4"
"http://xxx/4917"	"3"
"http://xxx/57"	"4"
"http://xxx/14935"	"3"
"http://xxx/14936"	"4"
"http://xxx/14937"	"4"
"http://xxx/9095"	"4"
"http://xxx/14922"	"3"
"http://xxx/14923"	"3"
"http://xxx/6888"	"4"
"http://xxx/2958"	"4"
"http://xxx/2309"	"4"
"http://xxx/2307"	"4"
"http://xxx/4151"	"3"
"http://xxx/10140"	"3"
"http://xxx/1556"	"3"
"http://xxx/3890"	"4"
"http://xxx/8470"	"3"
"http://xxx/11130"	"3"
"http://xxx/6123"	"3"
"http://xxx/3067"	"4"
"http://xxx/12214"	"3"
"http://xxx/5623"	"3"
"http://xxx/1864"	"3"
"http://xxx/1865"	"4"
"http://xxx/5644"	"4"
"http://xxx/11889"	"4"
"http://xxx/8521"	"3"
"http://xxx/14899"	"3"
"http://xxx/5825"	"3"
"http://xxx/820"	"3"
"http://xxx/2259"	"3"
"http://xxx/11779"	"3"
"http://xxx/2339"	"4"
"http://xxx/740"	"4"
"http://xxx/9180"	"4"
"http://xxx/9178"	"4"
"http://xxx/8028"	"4"
"http://xxx/8784"	"4"
"http://xxx/5279"	"4"
"http://xxx/3485"	"4"
"http://xxx/7574"	"4"
"http://xxx/2323"	"4"
"http://xxx/7402"	"4"
"http://xxx/984"	"4"
"http://xxx/4333"	"4"
"http://xxx/2704"	"4"
"http://xxx/9127"	"3"
"http://xxx/9051"	"4"
"http://xxx/12284"	"4"
"http://xxx/9132"	"4"
"http://xxx/7628"	"4"
"http://xxx/4276"	"4"
"http://xxx/6111"	"4"
"http://xxx/2305"	"4"
"http://xxx/12283"	"4"
"http://xxx/15031"	"4"
"http://xxx/2799"	"4"
"http://xxx/8892"	"4"
"http://xxx/2440"	"4"
"http://xxx/4159"	"4"
"http://xxx/11061"	"4"
"http://xxx/14854"	"4"
"http://xxx/7169"	"4"
"http://xxx/2776"	"4"
"http://xxx/7884"	"3"
"http://xxx/4862"	"1"
"http://xxx/4864"	"4"
"http://xxx/448"	"4"
"http://xxx/3122"	"4"
"http://xxx/13639"	"3"
"http://xxx/977"	"4"
"http://xxx/761"	"3"
"http://xxx/994"	"3"
"http://xxx/11198"	"4"
"http://xxx/3073"	"4"
"http://xxx/3151"	"4"
"http://xxx/11192"	"4"
"http://xxx/4390"	"4"
"http://xxx/11199"	"4"
"http://xxx/8037"	"4"
"http://xxx/7724"	"4"
"http://xxx/13321"	"4"
"http://xxx/501"	"4"
"http://xxx/453"	"4"
"http://xxx/490"	"4"
"http://xxx/2291"	"4"
"http://xxx/441"	"4"
"http://xxx/6548"	"3"
"http://xxx/6549"	"4"
"http://xxx/450"	"3"
"http://xxx/3553"	"4"
"http://xxx/5914"	"4"
"http://xxx/9032"	"4"
"http://xxx/8944"	"4"
"http://xxx/503"	"4"
"http://xxx/4475"	"4"
"http://xxx/1798"	"4"
"http://xxx/2324"	"3"
"http://xxx/8769"	"3"
"http://xxx/6645"	"4"
"http://xxx/2029"	"4"
"http://xxx/4982"	"4"
"http://xxx/10444"	"4"
"http://xxx/2955"	"4"
"http://xxx/9062"	"3"
"http://xxx/5956"	"4"
"http://xxx/1177"	"4"
"http://xxx/4183"	"4"
"http://xxx/9118"	"4"
"http://xxx/5737"	"4"
"http://xxx/2254"	"4"
"http://xxx/3192"	"4"
"http://xxx/2367"	"4"
"http://xxx/2372"	"4"
"http://xxx/7921"	"4"
"http://xxx/9045"	"4"
"http://xxx/746"	"4"
"http://xxx/7756"	"3"
"http://xxx/9129"	"3"
"http://xxx/7629"	"3"
"http://xxx/7630"	"3"
"http://xxx/13313"	"4"
"http://xxx/1728"	"4"
"http://xxx/2932"	"4"
"http://xxx/1311"	"4"
"http://xxx/6177"	"4"
"http://xxx/1813"	"4"
"http://xxx/783"	"4"
"http://xxx/5835"	"4"
"http://xxx/12525"	"4"
"http://xxx/2735"	"4"
"http://xxx/2593"	"4"
"http://xxx/2597"	"4"
"http://xxx/6830"	"4"
"http://xxx/7655"	"4"
"http://xxx/5393"	"4"
"http://xxx/5840"	"4"
"http://xxx/12482"	"4"
"http://xxx/4242"	"4"
"http://xxx/5258"	"4"
"http://xxx/4217"	"4"
"http://xxx/13562"	"4"
"http://xxx/3130"	"4"
"http://xxx/7697"	"3"
"http://xxx/1457"	"4"
"http://xxx/8136"	"4"
"http://xxx/14886"	"4"
"http://xxx/14888"	"4"
"http://xxx/14891"	"4"
"http://xxx/14887"	"4"
"http://xxx/14885"	"4"
"http://xxx/14890"	"4"
"http://xxx/3894"	"4"
"http://xxx/14963"	"4"
"http://xxx/2269"	"4"
"http://xxx/2749"	"4"
"http://xxx/2608"	"4"
"http://xxx/2744"	"4"
"http://xxx/13722"	"4"
"http://xxx/4702"	"4"
"http://xxx/14964"	"4"
"http://xxx/7112"	"4"
"http://xxx/4362"	"4"
"http://xxx/2870"	"4"
"http://xxx/6824"	"4"
"http://xxx/6810"	"4"
"http://xxx/12202"	"4"
"http://xxx/8762"	"4"
"http://xxx/6009"	"4"
"http://xxx/6822"	"4"
"http://xxx/4374"	"4"
"http://xxx/14960"	"4"
"http://xxx/12676"	"4"
"http://xxx/5081"	"1"
"http://xxx/7690"	"4"
"http://xxx/2618"	"4"
"http://xxx/3190"	"4"
"http://xxx/2167"	"4"
"http://xxx/6838"	"4"
"http://xxx/6055"	"3"
"http://xxx/4815"	"3"
"http://xxx/6718"	"4"
"http://xxx/4171"	"4"
"http://xxx/2264"	"4"
"http://xxx/5318"	"4"
"http://xxx/1781"	"4"
"http://xxx/2044"	"4"
"http://xxx/2186"	"4"
"http://xxx/1891"	"4"
"http://xxx/2361"	"4"
"http://xxx/5148"	"4"
"http://xxx/3019"	"4"
"http://xxx/8650"	"4"
"http://xxx/9289"	"4"
"http://xxx/5983"	"4"
"http://xxx/7774"	"4"
"http://xxx/7491"	"4"
"http://xxx/1681"	"4"
"http://xxx/1659"	"4"
"http://xxx/7516"	"4"
"http://xxx/132"	"4"
"http://xxx/5722"	"4"
"http://xxx/5728"	"4"
"http://xxx/4491"	"4"
"http://xxx/2245"	"4"
"http://xxx/2689"	"4"
"http://xxx/7044"	"4"
"http://xxx/1320"	"4"
"http://xxx/2363"	"4"
"http://xxx/12444"	"4"
"http://xxx/11809"	"4"
"http://xxx/5083"	"4"
"http://xxx/1625"	"4"
"http://xxx/7897"	"4"
"http://xxx/8755"	"4"
"http://xxx/12277"	"4"
"http://xxx/8940"	"4"
"http://xxx/1336"	"4"
"http://xxx/12611"	"4"
"http://xxx/12601"	"4"
"http://xxx/9013"	"4"
"http://xxx/13123"	"4"
"http://xxx/12605"	"4"
"http://xxx/2115"	"4"
"http://xxx/9236"	"4"
"http://xxx/4566"	"4"
"http://xxx/14976"	"4"
"http://xxx/1550"	"4"
"http://xxx/4189"	"4"
"http://xxx/8337"	"4"
"http://xxx/1731"	"4"
"http://xxx/12606"	"4"
"http://xxx/7707"	"4"
"http://xxx/3375"	"4"
"http://xxx/2394"	"4"
"http://xxx/6815"	"4"
"http://xxx/4623"	"4"
"http://xxx/13561"	"4"
"http://xxx/8305"	"4"
"http://xxx/1700"	"4"
"http://xxx/7036"	"4"
"http://xxx/3774"	"4"
"http://xxx/6953"	"4"
"http://xxx/13217"	"4"
"http://xxx/7195"	"4"
"http://xxx/4282"	"4"
"http://xxx/12198"	"4"
"http://xxx/6650"	"4"
"http://xxx/7057"	"4"
"http://xxx/5761"	"4"
"http://xxx/6833"	"4"
"http://xxx/9157"	"4"
"http://xxx/2693"	"4"
"http://xxx/15027"	"4"
"http://xxx/9227"	"4"
"http://xxx/2002"	"4"
"http://xxx/7201"	"4"
"http://xxx/1846"	"4"
"http://xxx/8303"	"4"
"http://xxx/736"	"4"
"http://xxx/7941"	"4"
"http://xxx/13218"	"4"
"http://xxx/6736"	"4"
"http://xxx/8227"	"4"
"http://xxx/12471"	"4"
"http://xxx/11272"	"4"
"http://xxx/2333"	"4"
"http://xxx/7926"	"4"
"http://xxx/12123"	"4"
"http://xxx/2327"	"4"
"http://xxx/8095"	"4"
"http://xxx/9356"	"4"
"http://xxx/7894"	"4"
"http://xxx/1054"	"4"
"http://xxx/6233"	"3"
"http://xxx/3295"	"4"
"http://xxx/1499"	"4"
"http://xxx/2040"	"4"
"http://xxx/2014"	"4"
"http://xxx/2260"	"4"
"http://xxx/1674"	"4"
"http://xxx/7930"	"4"
"http://xxx/4722"	"4"
"http://xxx/3308"	"4"
"http://xxx/4485"	"4"
"http://xxx/6570"	"4"
"http://xxx/7257"	"4"
"http://xxx/9143"	"4"
"http://xxx/12293"	"4"
"http://xxx/12165"	"4"
"http://xxx/5995"	"4"
"http://xxx/9210"	"4"
"http://xxx/14962"	"4"
"http://xxx/12254"	"4"
"http://xxx/8174"	"4"
"http://xxx/2125"	"4"
"http://xxx/12583"	"4"
"http://xxx/2977"	"4"
"http://xxx/12576"	"4"
"http://xxx/8731"	"4"
"http://xxx/7324"	"4"
"http://xxx/6200"	"4"
"http://xxx/14165"	"4"
"http://xxx/934"	"4"
"http://xxx/1509"	"4"
"http://xxx/2098"	"4"
"http://xxx/4173"	"4"
"http://xxx/1506"	"4"
"http://xxx/2048"	"4"
"http://xxx/171"	"4"
"http://xxx/5841"	"4"
"http://xxx/3229"	"4"
"http://xxx/3324"	"4"
"http://xxx/6855"	"4"
"http://xxx/3550"	"4"
"http://xxx/8803"	"4"
"http://xxx/12204"	"4"
"http://xxx/2435"	"4"
"http://xxx/8371"	"4"
"http://xxx/3387"	"4"
"http://xxx/8758"	"4"
"http://xxx/224"	"4"
"http://xxx/6558"	"4"
"http://xxx/1058"	"4"
"http://xxx/1042"	"4"
"http://xxx/1730"	"4"
"http://xxx/1725"	"4"
"http://xxx/11355"	"4"
"http://xxx/4504"	"4"
"http://xxx/2384"	"4"
"http://xxx/4182"	"4"
"http://xxx/7562"	"4"
"http://xxx/3282"	"4"
"http://xxx/3578"	"4"
"http://xxx/8447"	"4"
"http://xxx/4518"	"4"
"http://xxx/6588"	"4"
"http://xxx/3391"	"4"
"http://xxx/3370"	"4"
"http://xxx/7276"	"4"
"http://xxx/5999"	"4"
"http://xxx/9059"	"4"
"http://xxx/6536"	"4"
"http://xxx/12608"	"4"
"http://xxx/12607"	"4"
"http://xxx/12609"	"4"
"http://xxx/7119"	"4"
"http://xxx/7058"	"4"
"http://xxx/5186"	"4"
"http://xxx/5179"	"4"
"http://xxx/5169"	"4"
"http://xxx/14965"	"4"
"http://xxx/12586"	"4"
"http://xxx/12488"	"4"
"http://xxx/9106"	"4"
"http://xxx/12280"	"4"
"http://xxx/699"	"4"
"http://xxx/8736"	"3"
"http://xxx/5226"	"3"
"http://xxx/878"	"4"
"http://xxx/3186"	"3"
"http://xxx/7739"	"4"
"http://xxx/2188"	"4"
"http://xxx/7613"	"4"
"http://xxx/7636"	"4"
"http://xxx/8036"	"4"
"http://xxx/6234"	"3"
"http://xxx/9136"	"3"
"http://xxx/12289"	"4"
"http://xxx/9058"	"4"
"http://xxx/1337"	"4"
"http://xxx/7740"	"4"
"http://xxx/879"	"4"
"http://xxx/7680"	"4"
"http://xxx/1652"	"4"
"http://xxx/2190"	"4"
"http://xxx/12349"	"4"
"http://xxx/1763"	"4"
"http://xxx/9043"	"3"
"http://xxx/2072"	"4"
"http://xxx/7594"	"3"
"http://xxx/1456"	"3"
"http://xxx/78"	"4"
"http://xxx/342"	"4"
"http://xxx/8742"	"4"
"http://xxx/782"	"4"
"http://xxx/9398"	"4"
"http://xxx/3554"	"4"
"http://xxx/1777"	"4"
"http://xxx/1330"	"4"
"http://xxx/1324"	"4"
"http://xxx/7103"	"4"
"http://xxx/7839"	"4"
"http://xxx/5332"	"4"
"http://xxx/4317"	"4"
"http://xxx/1814"	"4"
"http://xxx/693"	"4"
"http://xxx/6925"	"4"
"http://xxx/7912"	"4"
"http://xxx/4810"	"4"
"http://xxx/695"	"4"
"http://xxx/5231"	"4"
"http://xxx/4698"	"4"
"http://xxx/5674"	"4"
"http://xxx/4224"	"4"
"http://xxx/10044"	"4"
"http://xxx/13186"	"4"
"http://xxx/3849"	"4"
"http://xxx/13165"	"4"
"http://xxx/1203"	"4"
"http://xxx/13209"	"4"
"http://xxx/1605"	"4"
"http://xxx/5079"	"4"
"http://xxx/14871"	"4"
"http://xxx/1724"	"4"
"http://xxx/7907"	"4"
"http://xxx/6454"	"4"
"http://xxx/4205"	"4"
"http://xxx/4931"	"4"
"http://xxx/4382"	"4"
"http://xxx/1460"	"4"
"http://xxx/13219"	"4"
"http://xxx/498"	"4"
"http://xxx/5638"	"4"
"http://xxx/1950"	"4"
"http://xxx/997"	"4"
"http://xxx/12807"	"4"
"http://xxx/12814"	"4"
"http://xxx/2712"	"4"
"http://xxx/2595"	"4"
"http://xxx/5684"	"4"
"http://xxx/7108"	"4"
"http://xxx/2747"	"4"
"http://xxx/668"	"4"
"http://xxx/12808"	"4"
"http://xxx/5858"	"4"
"http://xxx/5581"	"4"
"http://xxx/5299"	"1"
"http://xxx/12912"	"3"
"http://xxx/2551"	"4"
"http://xxx/12914"	"4"
"http://xxx/8083"	"4"
"http://xxx/4535"	"4"
"http://xxx/6048"	"4"
"http://xxx/8062"	"4"
"http://xxx/11134"	"4"
"http://xxx/13293"	"4"
"http://xxx/100"	"4"
"http://xxx/558"	"4"
"http://xxx/10012"	"3"
"http://xxx/2901"	"4"
"http://xxx/2908"	"4"
"http://xxx/3712"	"3"
"http://xxx/3455"	"3"
"http://xxx/3144"	"4"
"http://xxx/10992"	"4"
"http://xxx/10985"	"4"
"http://xxx/1259"	"4"
"http://xxx/4345"	"1"
"http://xxx/11211"	"4"
"http://xxx/11212"	"4"
"http://xxx/11209"	"4"
"http://xxx/6310"	"4"
"http://xxx/7568"	"4"
"http://xxx/7861"	"3"
"http://xxx/3169"	"4"
"http://xxx/11187"	"4"
"http://xxx/6139"	"4"
"http://xxx/4260"	"4"
"http://xxx/3505"	"4"
"http://xxx/3388"	"4"
"http://xxx/816"	"3"
"http://xxx/700"	"4"
"http://xxx/3933"	"4"
"http://xxx/305"	"4"
"http://xxx/4354"	"4"
"http://xxx/3530"	"4"
"http://xxx/3294"	"3"
"http://xxx/5980"	"3"
"http://xxx/6199"	"4"
"http://xxx/3695"	"3"
"http://xxx/90"	"4"
"http://xxx/932"	"3"
"http://xxx/2978"	"3"
"http://xxx/7925"	"3"
"http://xxx/2237"	"3"
"http://xxx/2389"	"3"
"http://xxx/1571"	"4"
"http://xxx/3360"	"4"
"http://xxx/3817"	"3"
"http://xxx/7042"	"3"
"http://xxx/72"	"3"
"http://xxx/4016"	"3"
"http://xxx/13197"	"3"
"http://xxx/3506"	"4"
"http://xxx/4942"	"3"
"http://xxx/13196"	"3"
"http://xxx/7840"	"3"
"http://xxx/1809"	"3"
"http://xxx/478"	"4"
"http://xxx/6192"	"3"
"http://xxx/6587"	"3"
"http://xxx/3343"	"3"
"http://xxx/1653"	"4"
"http://xxx/10691"	"3"
"http://xxx/8877"	"3"
"http://xxx/4505"	"3"
"http://xxx/8675"	"4"
"http://xxx/1769"	"3"
"http://xxx/11206"	"4"
"http://xxx/9373"	"3"
"http://xxx/7863"	"4"
"http://xxx/4609"	"4"
"http://xxx/8029"	"3"
"http://xxx/6592"	"3"
"http://xxx/7652"	"3"
"http://xxx/11186"	"3"
"http://xxx/1875"	"3"
"http://xxx/5009"	"3"
"http://xxx/1649"	"4"
"http://xxx/11170"	"3"
"http://xxx/521"	"4"
"http://xxx/3123"	"4"
"http://xxx/5897"	"4"
"http://xxx/5313"	"4"
"http://xxx/207"	"4"
"http://xxx/3103"	"4"
"http://xxx/4509"	"4"
"http://xxx/1761"	"4"
"http://xxx/4391"	"4"
"http://xxx/2360"	"4"
"http://xxx/4095"	"4"
"http://xxx/3499"	"4"
"http://xxx/11178"	"3"
"http://xxx/13164"	"3"
"http://xxx/13207"	"4"
"http://xxx/1902"	"4"
"http://xxx/5412"	"3"
"http://xxx/11204"	"3"
"http://xxx/13572"	"3"
"http://xxx/5086"	"4"
"http://xxx/5501"	"4"
"http://xxx/591"	"4"
"http://xxx/11207"	"4"
"http://xxx/5529"	"4"
"http://xxx/5007"	"3"
"http://xxx/3766"	"4"
"http://xxx/432"	"4"
"http://xxx/4843"	"4"
"http://xxx/13557"	"4"
"http://xxx/5500"	"3"
"http://xxx/14957"	"3"
"http://xxx/11201"	"3"
"http://xxx/3194"	"1"
"http://xxx/11044"	"4"
"http://xxx/3201"	"4"
"http://xxx/13150"	"4"
"http://xxx/4478"	"4"
"http://xxx/13260"	"4"
"http://xxx/6602"	"4"
"http://xxx/1025"	"4"
"http://xxx/6793"	"4"
"http://xxx/13177"	"4"
"http://xxx/3205"	"4"
"http://xxx/13151"	"4"
"http://xxx/8308"	"4"
"http://xxx/1824"	"4"
"http://xxx/8098"	"3"
"http://xxx/11043"	"3"
"http://xxx/3199"	"3"
"http://xxx/3197"	"3"
"http://xxx/13245"	"3"
"http://xxx/3196"	"3"
"http://xxx/11082"	"3"
"http://xxx/7485"	"3"
"http://xxx/13256"	"3"
"http://xxx/13255"	"3"
"http://xxx/13254"	"3"
"http://xxx/8301"	"3"
"http://xxx/13241"	"4"
"http://xxx/6607"	"4"
"http://xxx/13137"	"3"
"http://xxx/4884"	"3"
"http://xxx/2000"	"3"
"http://xxx/13249"	"4"
"http://xxx/2151"	"4"
"http://xxx/13248"	"3"
"http://xxx/4401"	"3"
"http://xxx/716"	"3"
"http://xxx/2671"	"4"
"http://xxx/4029"	"3"
"http://xxx/2001"	"3"
"http://xxx/8165"	"3"
"http://xxx/1854"	"3"
"http://xxx/8433"	"3"
"http://xxx/5343"	"3"
"http://xxx/13247"	"3"
"http://xxx/13246"	"3"
"http://xxx/13555"	"3"
"http://xxx/4784"	"3"
"http://xxx/10120"	"3"
"http://xxx/8307"	"3"
"http://xxx/13252"	"4"
"http://xxx/13251"	"4"
"http://xxx/14499"	"4"
"http://xxx/13253"	"3"
"http://xxx/8309"	"4"
"http://xxx/1291"	"3"
"http://xxx/8659"	"3"
"http://xxx/7115"	"3"
"http://xxx/1826"	"3"
"http://xxx/3278"	"3"
"http://xxx/11063"	"3"
"http://xxx/2596"	"3"
"http://xxx/1822"	"3"
"http://xxx/2796"	"3"
"http://xxx/2903"	"4"
"http://xxx/1825"	"4"
"http://xxx/4415"	"4"
"http://xxx/9065"	"4"
"http://xxx/14870"	"3"
"http://xxx/8380"	"4"
"http://xxx/4311"	"4"
"http://xxx/14856"	"4"
"http://xxx/14896"	"4"
"http://xxx/13053"	"4"
"http://xxx/13060"	"4"
"http://xxx/14881"	"4"
"http://xxx/2284"	"4"
"http://xxx/14883"	"4"
"http://xxx/7477"	"4"
"http://xxx/14862"	"4"
"http://xxx/4309"	"3"
"http://xxx/8347"	"3"
"http://xxx/4310"	"3"
"http://xxx/14892"	"4"
"http://xxx/1691"	"3"
"http://xxx/6901"	"3"
"http://xxx/14874"	"4"
"http://xxx/8353"	"3"
"http://xxx/14875"	"4"
"http://xxx/12985"	"3"
"http://xxx/6591"	"3"
"http://xxx/7045"	"3"
"http://xxx/13221"	"3"
"http://xxx/5222"	"3"
"http://xxx/3904"	"3"
"http://xxx/3892"	"3"
"http://xxx/3538"	"3"
"http://xxx/7755"	"4"
"http://xxx/7314"	"4"
"http://xxx/930"	"4"
"http://xxx/13613"	"3"
"http://xxx/8122"	"3"
"http://xxx/8086"	"3"
"http://xxx/6253"	"3"
"http://xxx/6205"	"4"
"http://xxx/8721"	"4"
"http://xxx/2177"	"4"
"http://xxx/5388"	"3"
"http://xxx/12011"	"4"
"http://xxx/3587"	"4"
"http://xxx/4550"	"4"
"http://xxx/2179"	"4"
"http://xxx/3507"	"4"
"http://xxx/6156"	"4"
"http://xxx/5390"	"3"
"http://xxx/8926"	"4"
"http://xxx/7692"	"4"
"http://xxx/4913"	"4"
"http://xxx/1212"	"4"
"http://xxx/1148"	"4"
"http://xxx/5384"	"4"
"http://xxx/6821"	"4"
"http://xxx/4487"	"3"
"http://xxx/4206"	"3"
"http://xxx/7194"	"3"
"http://xxx/8713"	"3"
"http://xxx/13224"	"3"
"http://xxx/6593"	"4"
"http://xxx/6831"	"3"
"http://xxx/12318"	"3"
"http://xxx/9116"	"4"
"http://xxx/2211"	"3"
"http://xxx/1660"	"3"
"http://xxx/1784"	"3"
"http://xxx/6305"	"3"
"http://xxx/7651"	"3"
"http://xxx/1528"	"4"
"http://xxx/9049"	"3"
"http://xxx/9054"	"4"
"http://xxx/13288"	"4"
"http://xxx/4746"	"3"
"http://xxx/4744"	"3"
"http://xxx/595"	"4"
"http://xxx/7752"	"4"
"http://xxx/11046"	"4"
"http://xxx/4422"	"4"
"http://xxx/2414"	"3"
"http://xxx/2031"	"3"
"http://xxx/11031"	"3"
"http://xxx/4429"	"3"
"http://xxx/13143"	"3"
"http://xxx/13305"	"4"
"http://xxx/13304"	"4"
"http://xxx/3405"	"3"
"http://xxx/4444"	"4"
"http://xxx/14971"	"3"
"http://xxx/4417"	"3"
"http://xxx/5419"	"4"
"http://xxx/4421"	"3"
"http://xxx/2423"	"4"
"http://xxx/2426"	"4"
"http://xxx/2425"	"4"
"http://xxx/11594"	"4"
"http://xxx/6812"	"4"
"http://xxx/8789"	"4"
"http://xxx/4920"	"4"
"http://xxx/5431"	"4"
"http://xxx/7059"	"4"
"http://xxx/6760"	"4"
"http://xxx/1837"	"4"
"http://xxx/10999"	"4"
"http://xxx/5536"	"4"
"http://xxx/661"	"4"
"http://xxx/8745"	"3"
"http://xxx/11568"	"3"
"http://xxx/1842"	"3"
"http://xxx/9220"	"3"
"http://xxx/6766"	"3"
"http://xxx/4879"	"3"
"http://xxx/1773"	"3"
"http://xxx/3143"	"3"
"http://xxx/14970"	"3"
"http://xxx/4759"	"3"
"http://xxx/556"	"3"
"http://xxx/9267"	"4"
"http://xxx/1958"	"3"
"http://xxx/9028"	"3"
"http://xxx/2941"	"4"
"http://xxx/13324"	"4"
"http://xxx/5236"	"1"
"http://xxx/7531"	"4"
"http://xxx/6525"	"4"
"http://xxx/5662"	"3"
"http://xxx/6528"	"3"
"http://xxx/2060"	"4"
"http://xxx/6523"	"4"
"http://xxx/14543"	"4"
"http://xxx/8362"	"4"
"http://xxx/13922"	"4"
"http://xxx/5147"	"4"
"http://xxx/6323"	"3"
"http://xxx/5138"	"4"
"http://xxx/13189"	"4"
"http://xxx/13190"	"4"
"http://xxx/13188"	"4"
"http://xxx/1890"	"4"
"http://xxx/1898"	"4"
"http://xxx/13191"	"4"
"http://xxx/514"	"4"
"http://xxx/5465"	"4"
"http://xxx/10575"	"4"
"http://xxx/9323"	"4"
"http://xxx/1481"	"4"
"http://xxx/3502"	"3"
"http://xxx/10708"	"3"
"http://xxx/2005"	"3"
"http://xxx/13976"	"3"
"http://xxx/10685"	"3"
"http://xxx/10568"	"3"
"http://xxx/10695"	"4"
"http://xxx/6316"	"4"
"http://xxx/9281"	"4"
"http://xxx/4383"	"4"
"http://xxx/971"	"3"
"http://xxx/4805"	"4"
"http://xxx/2069"	"4"
"http://xxx/6248"	"4"
"http://xxx/5463"	"4"
"http://xxx/11869"	"4"
"http://xxx/605"	"3"
"http://xxx/6244"	"3"
"http://xxx/6066"	"4"
"http://xxx/6240"	"3"
"http://xxx/4055"	"4"
"http://xxx/2518"	"4"
"http://xxx/881"	"4"
"http://xxx/3054"	"4"
"http://xxx/1986"	"4"
"http://xxx/1979"	"3"
"http://xxx/4851"	"4"
"http://xxx/14897"	"4"
"http://xxx/7472"	"3"
"http://xxx/5524"	"4"
"http://xxx/5135"	"4"
"http://xxx/6230"	"4"
"http://xxx/1348"	"4"
"http://xxx/13318"	"4"
"http://xxx/496"	"4"
"http://xxx/4719"	"4"
"http://xxx/10019"	"4"
"http://xxx/4543"	"4"
"http://xxx/3646"	"4"
"http://xxx/2922"	"4"
"http://xxx/5093"	"4"
"http://xxx/3027"	"4"
"http://xxx/2850"	"3"
"http://xxx/7842"	"3"
"http://xxx/2196"	"3"
"http://xxx/4140"	"4"
"http://xxx/5167"	"3"
"http://xxx/2286"	"4"
"http://xxx/10646"	"4"
"http://xxx/13311"	"4"
"http://xxx/8964"	"3"
"http://xxx/3183"	"3"
"http://xxx/13001"	"4"
"http://xxx/13000"	"4"
"http://xxx/135"	"4"
"http://xxx/14906"	"4"
"http://xxx/13040"	"3"
"http://xxx/6065"	"4"
"http://xxx/2564"	"4"
"http://xxx/60"	"4"
"http://xxx/4320"	"4"
"http://xxx/4832"	"4"
"http://xxx/617"	"4"
"http://xxx/7529"	"4"
"http://xxx/5804"	"4"
"http://xxx/7994"	"4"
"http://xxx/8226"	"4"
"http://xxx/12666"	"4"
"http://xxx/8898"	"4"
"http://xxx/1686"	"4"
"http://xxx/4965"	"4"
"http://xxx/4473"	"4"
"http://xxx/2582"	"4"
"http://xxx/6120"	"4"
"http://xxx/8977"	"4"
"http://xxx/5307"	"4"
"http://xxx/954"	"4"
"http://xxx/11116"	"4"
"http://xxx/8711"	"4"
"http://xxx/8366"	"4"
"http://xxx/6221"	"4"
"http://xxx/2592"	"4"
"http://xxx/8125"	"4"
"http://xxx/3315"	"4"
"http://xxx/14243"	"4"
"http://xxx/1464"	"4"
"http://xxx/11"	"4"
"http://xxx/5219"	"4"
"http://xxx/5196"	"4"
"http://xxx/1474"	"4"
"http://xxx/1469"	"4"
"http://xxx/867"	"4"
"http://xxx/8129"	"4"
"http://xxx/9008"	"4"
"http://xxx/3621"	"4"
"http://xxx/11678"	"4"
"http://xxx/13839"	"4"
"http://xxx/5658"	"4"
"http://xxx/66"	"4"
"http://xxx/8791"	"4"
"http://xxx/5518"	"3"
"http://xxx/2380"	"3"
"http://xxx/14912"	"3"
"http://xxx/14931"	"3"
"http://xxx/14932"	"4"
"http://xxx/5993"	"4"
"http://xxx/4474"	"4"
"http://xxx/4072"	"4"
"http://xxx/11502"	"4"
"http://xxx/873"	"3"
"http://xxx/8387"	"4"
"http://xxx/3632"	"4"
"http://xxx/445"	"4"
"http://xxx/8019"	"1"
"http://xxx/8072"	"3"
"http://xxx/7919"	"4"
"http://xxx/3577"	"4"
"http://xxx/1568"	"4"
"http://xxx/4844"	"4"
"http://xxx/623"	"3"
"http://xxx/624"	"4"
"http://xxx/632"	"4"
"http://xxx/7688"	"4"
"http://xxx/1782"	"3"
"http://xxx/1098"	"3"
"http://xxx/7597"	"4"
"http://xxx/1489"	"3"
"http://xxx/1201"	"4"
"http://xxx/14602"	"3"
"http://xxx/3174"	"3"
"http://xxx/8275"	"4"
"http://xxx/1266"	"3"
"http://xxx/1458"	"3"
"http://xxx/2131"	"4"
"http://xxx/7776"	"4"
"http://xxx/3219"	"3"
"http://xxx/7599"	"3"
"http://xxx/8422"	"3"
"http://xxx/3097"	"4"
"http://xxx/6007"	"3"
"http://xxx/8899"	"4"
"http://xxx/8222"	"3"
"http://xxx/6023"	"3"
"http://xxx/7014"	"4"
"http://xxx/9099"	"4"
"http://xxx/880"	"4"
"http://xxx/5750"	"4"
"http://xxx/1343"	"4"
"http://xxx/3539"	"3"
"http://xxx/6329"	"3"
"http://xxx/4249"	"3"
"http://xxx/1530"	"3"
"http://xxx/3181"	"3"
"http://xxx/4934"	"3"
"http://xxx/12394"	"4"
"http://xxx/3061"	"3"
"http://xxx/8272"	"3"
"http://xxx/4586"	"3"
"http://xxx/13202"	"3"
"http://xxx/5180"	"3"
"http://xxx/6052"	"3"
"http://xxx/11692"	"4"
"http://xxx/2381"	"3"
"http://xxx/3585"	"3"
"http://xxx/3566"	"3"
"http://xxx/1567"	"3"
"http://xxx/2691"	"3"
"http://xxx/5991"	"3"
"http://xxx/8696"	"4"
"http://xxx/245"	"3"
"http://xxx/4274"	"4"
"http://xxx/1583"	"4"
"http://xxx/14652"	"4"
"http://xxx/6001"	"4"
"http://xxx/9098"	"3"
"http://xxx/794"	"4"
"http://xxx/2326"	"3"
"http://xxx/7156"	"3"
"http://xxx/12429"	"4"
"http://xxx/1584"	"4"
"http://xxx/6146"	"4"
"http://xxx/12430"	"4"
"http://xxx/7662"	"3"
"http://xxx/7654"	"4"
"http://xxx/7663"	"4"
"http://xxx/1341"	"3"
"http://xxx/7981"	"4"
"http://xxx/6062"	"3"
"http://xxx/6441"	"3"
"http://xxx/15040"	"3"
"http://xxx/8547"	"3"
"http://xxx/5297"	"3"
"http://xxx/5289"	"4"
"http://xxx/8969"	"3"
"http://xxx/5913"	"3"
"http://xxx/1651"	"4"
"http://xxx/3838"	"3"
"http://xxx/8921"	"4"
"http://xxx/3562"	"4"
"http://xxx/9041"	"3"
"http://xxx/229"	"3"
"http://xxx/1877"	"4"
"http://xxx/12357"	"3"
"http://xxx/5437"	"3"
"http://xxx/4857"	"4"
"http://xxx/6336"	"3"
"http://xxx/3858"	"3"
"http://xxx/15038"	"3"
"http://xxx/7920"	"3"
"http://xxx/3678"	"4"
"http://xxx/12383"	"3"
"http://xxx/7681"	"3"
"http://xxx/12377"	"3"
"http://xxx/1059"	"3"
"http://xxx/2064"	"4"
"http://xxx/9083"	"4"
"http://xxx/3031"	"4"
"http://xxx/9057"	"3"
"http://xxx/1596"	"3"
"http://xxx/6921"	"3"
"http://xxx/6909"	"4"
"http://xxx/6937"	"3"
"http://xxx/7483"	"3"
"http://xxx/2625"	"4"
"http://xxx/7484"	"4"
"http://xxx/8866"	"4"
"http://xxx/7489"	"4"
"http://xxx/12390"	"3"
"http://xxx/4834"	"3"
"http://xxx/7632"	"3"
"http://xxx/12441"	"4"
"http://xxx/4268"	"4"
"http://xxx/12435"	"4"
"http://xxx/9140"	"4"
"http://xxx/12436"	"4"
"http://xxx/7733"	"4"
"http://xxx/2187"	"4"
"http://xxx/8"	"3"
"http://xxx/4575"	"3"
"http://xxx/8070"	"3"
"http://xxx/7328"	"3"
"http://xxx/4845"	"3"
"http://xxx/12395"	"4"
"http://xxx/4283"	"3"
"http://xxx/4273"	"3"
"http://xxx/4227"	"4"
"http://xxx/12381"	"4"
"http://xxx/12382"	"3"
"http://xxx/12379"	"3"
"http://xxx/4002"	"4"
"http://xxx/6179"	"4"
"http://xxx/1742"	"3"
"http://xxx/4229"	"3"
"http://xxx/3571"	"4"
"http://xxx/15034"	"4"
"http://xxx/2742"	"4"
"http://xxx/2293"	"4"
"http://xxx/419"	"4"
"http://xxx/3517"	"4"
"http://xxx/3462"	"4"
"http://xxx/4840"	"4"
"http://xxx/4296"	"4"
"http://xxx/7051"	"4"
"http://xxx/3512"	"4"
"http://xxx/5679"	"4"
"http://xxx/832"	"4"
"http://xxx/8780"	"4"
"http://xxx/10915"	"4"
"http://xxx/253"	"4"
"http://xxx/5322"	"4"
"http://xxx/788"	"4"
"http://xxx/2612"	"4"
"http://xxx/1595"	"4"
"http://xxx/6939"	"4"
"http://xxx/5116"	"4"
"http://xxx/8284"	"4"
"http://xxx/1210"	"4"
"http://xxx/6634"	"4"
"http://xxx/12027"	"4"
"http://xxx/1082"	"4"
"http://xxx/13205"	"4"
"http://xxx/13167"	"4"
"http://xxx/3354"	"4"
"http://xxx/992"	"4"
"http://xxx/423"	"4"
"http://xxx/8920"	"4"
"http://xxx/3356"	"4"
"http://xxx/784"	"4"
"http://xxx/5701"	"4"
"http://xxx/8913"	"4"
"http://xxx/2542"	"4"
"http://xxx/13198"	"4"
"http://xxx/8255"	"4"
"http://xxx/1952"	"4"
"http://xxx/5765"	"4"
"http://xxx/13199"	"4"
"http://xxx/3721"	"4"
"http://xxx/5124"	"4"
"http://xxx/7012"	"4"
"http://xxx/596"	"4"
"http://xxx/1746"	"4"
"http://xxx/10008"	"4"
"http://xxx/5583"	"4"
"http://xxx/13124"	"4"
"http://xxx/11184"	"4"
"http://xxx/4018"	"4"
"http://xxx/11713"	"4"
"http://xxx/1996"	"4"
"http://xxx/6197"	"4"
"http://xxx/6202"	"4"
"http://xxx/3465"	"4"
"http://xxx/12259"	"4"
"http://xxx/12287"	"4"
"http://xxx/12278"	"4"
"http://xxx/12260"	"4"
"http://xxx/9139"	"4"
"http://xxx/12600"	"4"
"http://xxx/12599"	"4"
"http://xxx/7536"	"4"
"http://xxx/11214"	"4"
"http://xxx/3581"	"4"
"http://xxx/3325"	"4"
"http://xxx/6293"	"4"
"http://xxx/11159"	"4"
"http://xxx/8839"	"4"
"http://xxx/13121"	"4"
"http://xxx/6285"	"4"
"http://xxx/7625"	"4"
"http://xxx/6068"	"4"
"http://xxx/7093"	"4"
"http://xxx/10238"	"4"
"http://xxx/3906"	"4"
"http://xxx/6396"	"4"
"http://xxx/11636"	"4"
"http://xxx/11633"	"4"
"http://xxx/1199"	"4"
"http://xxx/6397"	"4"
"http://xxx/8330"	"4"
"http://xxx/6327"	"4"
"http://xxx/2707"	"4"
"http://xxx/3014"	"4"
"http://xxx/4313"	"4"
"http://xxx/6654"	"4"
"http://xxx/9348"	"4"
"http://xxx/4888"	"4"
"http://xxx/8104"	"4"
"http://xxx/1247"	"4"
"http://xxx/998"	"4"
"http://xxx/4820"	"4"
"http://xxx/15020"	"4"
"http://xxx/3738"	"4"
"http://xxx/11271"	"4"
"http://xxx/7413"	"4"
"http://xxx/8296"	"4"
"http://xxx/7908"	"4"
"http://xxx/1553"	"4"
"http://xxx/3595"	"4"
"http://xxx/3594"	"4"
"http://xxx/3582"	"4"
"http://xxx/8440"	"4"
"http://xxx/55"	"4"
"http://xxx/5687"	"4"
"http://xxx/354"	"4"
"http://xxx/86"	"4"
"http://xxx/7198"	"4"
"http://xxx/11359"	"4"
"http://xxx/1305"	"4"
"http://xxx/1434"	"4"
"http://xxx/8589"	"4"
"http://xxx/4084"	"4"
"http://xxx/10055"	"4"
"http://xxx/5128"	"4"
"http://xxx/10133"	"4"
"http://xxx/2586"	"4"
"http://xxx/5032"	"4"
"http://xxx/195"	"4"
"http://xxx/5834"	"4"
"http://xxx/5824"	"4"
"http://xxx/9125"	"4"
"http://xxx/9048"	"4"
"http://xxx/7015"	"4"
"http://xxx/6967"	"4"
"http://xxx/1885"	"4"
"http://xxx/1956"	"4"
"http://xxx/4164"	"4"
"http://xxx/1929"	"4"
"http://xxx/13270"	"4"
"http://xxx/13274"	"4"
"http://xxx/6103"	"4"
"http://xxx/13268"	"4"
"http://xxx/13242"	"4"
"http://xxx/13269"	"3"
"http://xxx/14588"	"4"
"http://xxx/8569"	"3"
"http://xxx/6835"	"3"
"http://xxx/10260"	"3"
"http://xxx/2516"	"3"
"http://xxx/193"	"4"
"http://xxx/2476"	"4"
"http://xxx/10931"	"4"
"http://xxx/2498"	"4"
"http://xxx/2723"	"4"
"http://xxx/3440"	"4"
"http://xxx/4187"	"4"
"http://xxx/13148"	"4"
"http://xxx/11069"	"4"
"http://xxx/13239"	"4"
"http://xxx/3243"	"4"
"http://xxx/2508"	"4"
"http://xxx/13238"	"4"
"http://xxx/1743"	"4"
"http://xxx/2490"	"4"
"http://xxx/8566"	"4"
"http://xxx/5064"	"4"
"http://xxx/4228"	"4"
"http://xxx/14949"	"4"
"http://xxx/10940"	"4"
"http://xxx/3498"	"3"
"http://xxx/6300"	"4"
"http://xxx/612"	"4"
"http://xxx/640"	"4"
"http://xxx/9231"	"4"
"http://xxx/7890"	"4"
"http://xxx/2405"	"4"
"http://xxx/6180"	"4"
"http://xxx/2517"	"4"
"http://xxx/5144"	"4"
"http://xxx/702"	"4"
"http://xxx/1184"	"4"
"http://xxx/3810"	"4"
"http://xxx/6776"	"4"
"http://xxx/3384"	"4"
"http://xxx/4158"	"4"
"http://xxx/5870"	"4"
"http://xxx/2706"	"4"
"http://xxx/8543"	"4"
"http://xxx/4085"	"4"
"http://xxx/2624"	"4"
"http://xxx/11702"	"4"
"http://xxx/3322"	"4"
"http://xxx/8450"	"4"
"http://xxx/2617"	"4"
"http://xxx/3615"	"4"
"http://xxx/2784"	"4"
"http://xxx/815"	"4"
"http://xxx/5893"	"4"
"http://xxx/10039"	"4"
"http://xxx/621"	"4"
"http://xxx/399"	"4"
"http://xxx/834"	"4"
"http://xxx/4342"	"4"
"http://xxx/2984"	"4"
"http://xxx/11152"	"4"
"http://xxx/11165"	"4"
"http://xxx/611"	"4"
"http://xxx/2501"	"4"
"http://xxx/538"	"4"
"http://xxx/530"	"4"
"http://xxx/2982"	"4"
"http://xxx/10785"	"4"
"http://xxx/3654"	"4"
"http://xxx/1200"	"4"
"http://xxx/13170"	"4"
"http://xxx/6222"	"4"
"http://xxx/5944"	"4"
"http://xxx/836"	"4"
"http://xxx/4109"	"4"
"http://xxx/6383"	"4"
"http://xxx/3638"	"4"
"http://xxx/6313"	"4"
"http://xxx/6298"	"4"
"http://xxx/8912"	"4"
"http://xxx/1067"	"4"
"http://xxx/3760"	"4"
"http://xxx/2802"	"4"
"http://xxx/11243"	"4"
"http://xxx/11177"	"4"
"http://xxx/2042"	"1"
"http://xxx/6724"	"4"
"http://xxx/11787"	"3"
"http://xxx/9395"	"3"
"http://xxx/1094"	"3"
"http://xxx/7009"	"3"
"http://xxx/2869"	"4"
"http://xxx/3859"	"4"
"http://xxx/11814"	"4"
"http://xxx/8546"	"3"
"http://xxx/8545"	"4"
"http://xxx/6358"	"4"
"http://xxx/14245"	"3"
"http://xxx/8140"	"3"
"http://xxx/349"	"3"
"http://xxx/14330"	"3"
"http://xxx/2871"	"3"
"http://xxx/14254"	"3"
"http://xxx/5090"	"3"
"http://xxx/10935"	"4"
"http://xxx/13306"	"4"
"http://xxx/4628"	"4"
"http://xxx/7091"	"4"
"http://xxx/7104"	"4"
"http://xxx/14717"	"4"
"http://xxx/4969"	"4"
"http://xxx/4641"	"4"
"http://xxx/12213"	"4"
"http://xxx/6997"	"4"
"http://xxx/5843"	"4"
"http://xxx/7419"	"4"
"http://xxx/4611"	"4"
"http://xxx/5295"	"4"
"http://xxx/6908"	"3"
"http://xxx/7856"	"3"
"http://xxx/1303"	"4"
"http://xxx/7185"	"3"
"http://xxx/4160"	"4"
"http://xxx/7189"	"3"
"http://xxx/4386"	"4"
"http://xxx/10240"	"3"
"http://xxx/7202"	"3"
"http://xxx/8840"	"3"
"http://xxx/12711"	"3"
"http://xxx/5262"	"3"
"http://xxx/13333"	"4"
"http://xxx/6804"	"4"
"http://xxx/11522"	"4"
"http://xxx/6790"	"4"
"http://xxx/8894"	"3"
"http://xxx/2940"	"4"
"http://xxx/812"	"4"
"http://xxx/5269"	"4"
"http://xxx/11781"	"3"
"http://xxx/120"	"3"
"http://xxx/1347"	"3"
"http://xxx/7167"	"3"
"http://xxx/7204"	"3"
"http://xxx/4155"	"4"
"http://xxx/1406"	"1"
"http://xxx/301"	"4"
"http://xxx/1023"	"4"
"http://xxx/8559"	"4"
"http://xxx/3528"	"4"
"http://xxx/4799"	"4"
"http://xxx/5228"	"3"
"http://xxx/510"	"4"
"http://xxx/5325"	"1"
"http://xxx/3690"	"4"
"http://xxx/629"	"4"
"http://xxx/3686"	"3"
"http://xxx/3516"	"4"
"http://xxx/2294"	"4"
"http://xxx/3381"	"4"
"http://xxx/2760"	"4"
"http://xxx/8056"	"4"
"http://xxx/3953"	"4"
"http://xxx/3771"	"4"
"http://xxx/12431"	"4"
"http://xxx/14236"	"4"
"http://xxx/5462"	"4"
"http://xxx/6063"	"3"
"http://xxx/8549"	"3"
"http://xxx/1182"	"3"
"http://xxx/6492"	"4"
"http://xxx/329"	"3"
"http://xxx/11852"	"3"
"http://xxx/8976"	"4"
"http://xxx/3661"	"3"
"http://xxx/8379"	"3"
"http://xxx/5459"	"3"
"http://xxx/4049"	"3"
"http://xxx/36"	"4"
"http://xxx/8376"	"3"
"http://xxx/2565"	"3"
"http://xxx/4979"	"3"
"http://xxx/7689"	"3"
"http://xxx/2352"	"3"
"http://xxx/4149"	"3"
"http://xxx/6493"	"3"
"http://xxx/892"	"3"
"http://xxx/2470"	"4"
"http://xxx/11308"	"4"
"http://xxx/13021"	"4"
"http://xxx/14934"	"4"
"http://xxx/14873"	"4"
"http://xxx/13025"	"4"
"http://xxx/786"	"4"
"http://xxx/8990"	"4"
"http://xxx/13017"	"4"
"http://xxx/3694"	"4"
"http://xxx/2696"	"4"
"http://xxx/13026"	"4"
"http://xxx/2173"	"4"
"http://xxx/616"	"4"
"http://xxx/4785"	"4"
"http://xxx/13002"	"4"
"http://xxx/13556"	"4"
"http://xxx/2175"	"4"
"http://xxx/5011"	"3"
"http://xxx/14663"	"4"
"http://xxx/7868"	"4"
"http://xxx/1292"	"4"
"http://xxx/10251"	"4"
"http://xxx/8785"	"4"
"http://xxx/8607"	"4"
"http://xxx/8319"	"3"
"http://xxx/13157"	"4"
"http://xxx/8321"	"4"
"http://xxx/2931"	"4"
"http://xxx/13310"	"3"
"http://xxx/13309"	"3"
"http://xxx/8175"	"4"
"http://xxx/4080"	"3"
"http://xxx/7120"	"4"
"http://xxx/14163"	"4"
"http://xxx/6788"	"4"
"http://xxx/336"	"4"
"http://xxx/10068"	"4"
"http://xxx/8039"	"4"
"http://xxx/1355"	"4"
"http://xxx/5630"	"4"
"http://xxx/6579"	"4"
"http://xxx/768"	"4"
"http://xxx/495"	"4"
"http://xxx/730"	"4"
"http://xxx/3298"	"4"
"http://xxx/2041"	"4"
"http://xxx/6459"	"4"
"http://xxx/2566"	"4"
"http://xxx/4650"	"4"
"http://xxx/4906"	"4"
"http://xxx/8801"	"4"
"http://xxx/7855"	"3"
"http://xxx/7857"	"4"
"http://xxx/3414"	"3"
"http://xxx/12013"	"4"
"http://xxx/7709"	"4"
"http://xxx/9225"	"4"
"http://xxx/9417"	"4"
"http://xxx/12459"	"4"
"http://xxx/6263"	"4"
"http://xxx/11930"	"4"
"http://xxx/7000"	"4"
"http://xxx/8151"	"4"
"http://xxx/2161"	"4"
"http://xxx/10263"	"4"
"http://xxx/7073"	"4"
"http://xxx/7444"	"4"
"http://xxx/8562"	"4"
"http://xxx/11248"	"4"
"http://xxx/8794"	"4"
"http://xxx/5474"	"4"
"http://xxx/7592"	"4"
"http://xxx/8145"	"4"
"http://xxx/2897"	"4"
"http://xxx/4659"	"4"
"http://xxx/4289"	"4"
"http://xxx/5958"	"4"
"http://xxx/4290"	"4"
"http://xxx/6201"	"4"
"http://xxx/5577"	"4"
"http://xxx/44"	"4"
"http://xxx/5972"	"4"
"http://xxx/6975"	"4"
"http://xxx/1645"	"4"
"http://xxx/4119"	"4"
"http://xxx/7030"	"4"
"http://xxx/5976"	"4"
"http://xxx/1371"	"4"
"http://xxx/84"	"4"
"http://xxx/5598"	"4"
"http://xxx/1209"	"4"
"http://xxx/6498"	"4"
"http://xxx/378"	"4"
"http://xxx/12151"	"4"
"http://xxx/12166"	"4"
"http://xxx/1786"	"4"
"http://xxx/6655"	"4"
"http://xxx/12104"	"3"
"http://xxx/6951"	"3"
"http://xxx/3316"	"3"
"http://xxx/4131"	"3"
"http://xxx/7080"	"4"
"http://xxx/8597"	"4"
"http://xxx/9010"	"4"
"http://xxx/7279"	"4"
"http://xxx/2062"	"4"
"http://xxx/13232"	"4"
"http://xxx/3226"	"4"
"http://xxx/7404"	"4"
"http://xxx/7126"	"4"
"http://xxx/4376"	"4"
"http://xxx/12887"	"4"
"http://xxx/12889"	"4"
"http://xxx/4008"	"4"
"http://xxx/14082"	"4"
"http://xxx/639"	"4"
"http://xxx/622"	"3"
"http://xxx/262"	"3"
"http://xxx/290"	"3"
"http://xxx/11635"	"4"
"http://xxx/3022"	"4"
"http://xxx/8695"	"3"
"http://xxx/4492"	"3"
"http://xxx/8128"	"3"
"http://xxx/2830"	"4"
"http://xxx/2457"	"1"
"http://xxx/827"	"4"
"http://xxx/883"	"4"
"http://xxx/2456"	"4"
"http://xxx/5763"	"4"
"http://xxx/3620"	"4"
"http://xxx/868"	"4"
"http://xxx/3634"	"4"
"http://xxx/2437"	"4"
"http://xxx/143"	"4"
"http://xxx/7982"	"4"
"http://xxx/802"	"4"
"http://xxx/833"	"4"
"http://xxx/1480"	"4"
"http://xxx/1198"	"4"
"http://xxx/8908"	"4"
"http://xxx/899"	"4"
"http://xxx/2450"	"4"
"http://xxx/842"	"4"
"http://xxx/10512"	"4"
"http://xxx/1569"	"4"
"http://xxx/1638"	"4"
"http://xxx/8259"	"4"
"http://xxx/8401"	"4"
"http://xxx/7163"	"4"
"http://xxx/10707"	"4"
"http://xxx/3633"	"4"
"http://xxx/10129"	"4"
"http://xxx/9425"	"4"
"http://xxx/1945"	"4"
"http://xxx/8262"	"3"
"http://xxx/2531"	"4"
"http://xxx/2519"	"4"
"http://xxx/7976"	"4"
"http://xxx/819"	"4"
"http://xxx/3808"	"4"
"http://xxx/901"	"4"
"http://xxx/10495"	"4"
"http://xxx/6519"	"4"
"http://xxx/1613"	"4"
"http://xxx/2438"	"4"
"http://xxx/3358"	"4"
"http://xxx/2525"	"3"
"http://xxx/8388"	"4"
"http://xxx/4432"	"4"
"http://xxx/505"	"4"
"http://xxx/11875"	"4"
"http://xxx/6243"	"3"
"http://xxx/5460"	"3"
"http://xxx/470"	"3"
"http://xxx/3640"	"3"
"http://xxx/9015"	"4"
"http://xxx/8895"	"4"
"http://xxx/3084"	"4"
"http://xxx/4921"	"4"
"http://xxx/2702"	"4"
"http://xxx/6965"	"4"
"http://xxx/10073"	"3"
"http://xxx/5239"	"4"
"http://xxx/915"	"4"
"http://xxx/10074"	"3"
"http://xxx/10562"	"3"
"http://xxx/9149"	"3"
"http://xxx/5757"	"3"
"http://xxx/5759"	"3"
"http://xxx/1164"	"3"
"http://xxx/10626"	"4"
"http://xxx/8925"	"4"
"http://xxx/6299"	"4"
"http://xxx/10640"	"4"
"http://xxx/2810"	"1"
"http://xxx/2927"	"4"
"http://xxx/2442"	"4"
"http://xxx/11065"	"4"
"http://xxx/2463"	"4"
"http://xxx/3757"	"4"
"http://xxx/8564"	"4"
"http://xxx/2856"	"4"
"http://xxx/2845"	"4"
"http://xxx/11071"	"4"
"http://xxx/2938"	"4"
"http://xxx/3688"	"4"
"http://xxx/9324"	"4"
"http://xxx/13184"	"4"
"http://xxx/14835"	"4"
"http://xxx/2494"	"4"
"http://xxx/9052"	"3"
"http://xxx/13115"	"3"
"http://xxx/1170"	"3"
"http://xxx/566"	"3"
"http://xxx/9068"	"3"
"http://xxx/1637"	"3"
"http://xxx/11051"	"3"
"http://xxx/11048"	"3"
"http://xxx/9128"	"3"
"http://xxx/5637"	"3"
"http://xxx/11521"	"4"
"http://xxx/3064"	"4"
"http://xxx/4169"	"4"
"http://xxx/11504"	"4"
"http://xxx/6292"	"4"
"http://xxx/11506"	"4"
"http://xxx/2242"	"4"
"http://xxx/2866"	"4"
"http://xxx/11070"	"3"
"http://xxx/2928"	"3"
"http://xxx/483"	"3"
"http://xxx/11073"	"4"
"http://xxx/9325"	"3"
"http://xxx/11057"	"3"
"http://xxx/7237"	"3"
"http://xxx/11097"	"3"
"http://xxx/13240"	"3"
"http://xxx/11055"	"3"
"http://xxx/4530"	"3"
"http://xxx/2512"	"3"
"http://xxx/8279"	"3"
"http://xxx/4414"	"3"
"http://xxx/5062"	"3"
"http://xxx/3099"	"3"
"http://xxx/2731"	"3"
"http://xxx/7554"	"3"
"http://xxx/7548"	"4"
"http://xxx/6619"	"4"
"http://xxx/4423"	"3"
"http://xxx/2364"	"3"
"http://xxx/5475"	"3"
"http://xxx/5061"	"3"
"http://xxx/13244"	"3"
"http://xxx/1968"	"4"
"http://xxx/2053"	"3"
"http://xxx/9404"	"3"
"http://xxx/8219"	"3"
"http://xxx/8237"	"3"
"http://xxx/4167"	"3"
"http://xxx/13294"	"3"
"http://xxx/13295"	"3"
"http://xxx/1600"	"3"
"http://xxx/13301"	"3"
"http://xxx/13236"	"4"
"http://xxx/14853"	"4"
"http://xxx/14851"	"4"
"http://xxx/3411"	"4"
"http://xxx/2844"	"3"
"http://xxx/7482"	"4"
"http://xxx/2826"	"3"
"http://xxx/2841"	"3"
"http://xxx/10919"	"4"
"http://xxx/4056"	"4"
"http://xxx/121"	"4"
"http://xxx/1350"	"4"
"http://xxx/9344"	"4"
"http://xxx/2055"	"4"
"http://xxx/6517"	"3"
"http://xxx/13326"	"4"
"http://xxx/8834"	"3"
"http://xxx/13327"	"3"
"http://xxx/7352"	"3"
"http://xxx/10918"	"3"
"http://xxx/3119"	"3"
"http://xxx/13183"	"4"
"http://xxx/9406"	"3"
"http://xxx/5461"	"4"
"http://xxx/10661"	"4"
"http://xxx/10660"	"4"
"http://xxx/28"	"4"
"http://xxx/511"	"4"
"http://xxx/7876"	"4"
"http://xxx/3138"	"4"
"http://xxx/3305"	"4"
"http://xxx/6064"	"4"
"http://xxx/6138"	"4"
"http://xxx/8415"	"4"
"http://xxx/6646"	"4"
"http://xxx/13147"	"4"
"http://xxx/2651"	"4"
"http://xxx/2159"	"4"
"http://xxx/6614"	"3"
"http://xxx/6162"	"4"
"http://xxx/2720"	"4"
"http://xxx/2594"	"4"
"http://xxx/5714"	"4"
"http://xxx/2736"	"4"
"http://xxx/9087"	"4"
"http://xxx/3510"	"4"
"http://xxx/2724"	"4"
"http://xxx/9074"	"4"
"http://xxx/7738"	"4"
"http://xxx/2748"	"3"
"http://xxx/5668"	"4"
"http://xxx/2734"	"3"
"http://xxx/2716"	"4"
"http://xxx/2741"	"3"
"http://xxx/7904"	"4"
"http://xxx/2738"	"4"
"http://xxx/5677"	"4"
"http://xxx/38"	"4"
"http://xxx/7107"	"4"
"http://xxx/5829"	"3"
"http://xxx/13576"	"4"
"http://xxx/2775"	"4"
"http://xxx/2773"	"4"
"http://xxx/2913"	"4"
"http://xxx/2779"	"4"
"http://xxx/2786"	"4"
"http://xxx/3437"	"4"
"http://xxx/2887"	"4"
"http://xxx/2925"	"4"
"http://xxx/8872"	"3"
"http://xxx/4828"	"3"
"http://xxx/8067"	"3"
"http://xxx/1356"	"3"
"http://xxx/5530"	"3"
"http://xxx/6414"	"3"
"http://xxx/2117"	"4"
"http://xxx/3013"	"4"
"http://xxx/1632"	"4"
"http://xxx/2246"	"4"
"http://xxx/3400"	"4"
"http://xxx/2066"	"4"
"http://xxx/7155"	"4"
"http://xxx/10104"	"4"
"http://xxx/1326"	"4"
"http://xxx/10102"	"4"
"http://xxx/6472"	"4"
"http://xxx/2921"	"4"
"http://xxx/3207"	"3"
"http://xxx/10972"	"4"
"http://xxx/13154"	"4"
"http://xxx/10960"	"4"
"http://xxx/5580"	"4"
"http://xxx/10760"	"4"
"http://xxx/412"	"4"
"http://xxx/1591"	"4"
"http://xxx/9308"	"4"
"http://xxx/11100"	"4"
"http://xxx/12923"	"4"
"http://xxx/5006"	"4"
"http://xxx/3542"	"4"
"http://xxx/8102"	"4"
"http://xxx/7193"	"4"
"http://xxx/2300"	"4"
"http://xxx/3362"	"4"
"http://xxx/13149"	"4"
"http://xxx/452"	"4"
"http://xxx/6326"	"4"
"http://xxx/2601"	"4"
"http://xxx/1502"	"4"
"http://xxx/7906"	"4"
"http://xxx/4710"	"1"
"http://xxx/7742"	"4"
"http://xxx/1126"	"4"
"http://xxx/12199"	"4"
"http://xxx/5055"	"3"
"http://xxx/3911"	"3"
"http://xxx/4903"	"3"
"http://xxx/9119"	"3"
"http://xxx/12819"	"3"
"http://xxx/6641"	"3"
"http://xxx/4889"	"3"
"http://xxx/279"	"3"
"http://xxx/4660"	"3"
"http://xxx/4653"	"4"
"http://xxx/903"	"3"
"http://xxx/10237"	"3"
"http://xxx/10706"	"3"
"http://xxx/10189"	"3"
"http://xxx/4610"	"3"
"http://xxx/1708"	"3"
"http://xxx/5537"	"3"
"http://xxx/7983"	"3"
"http://xxx/760"	"4"
"http://xxx/7852"	"3"
"http://xxx/9159"	"3"
"http://xxx/1704"	"4"
"http://xxx/6318"	"4"
"http://xxx/10670"	"4"
"http://xxx/7525"	"4"
"http://xxx/1467"	"4"
"http://xxx/2700"	"4"
"http://xxx/2697"	"4"
"http://xxx/4054"	"3"
"http://xxx/2880"	"3"
"http://xxx/13319"	"3"
"http://xxx/8580"	"3"
"http://xxx/4250"	"3"
"http://xxx/5786"	"4"
"http://xxx/2911"	"3"
"http://xxx/2530"	"3"
"http://xxx/7295"	"4"
"http://xxx/8110"	"4"
"http://xxx/517"	"4"
"http://xxx/1955"	"4"
"http://xxx/2795"	"1"
"http://xxx/5283"	"4"
"http://xxx/2109"	"4"
"http://xxx/2665"	"4"
"http://xxx/1774"	"4"
"http://xxx/7858"	"3"
"http://xxx/2963"	"4"
"http://xxx/2347"	"4"
"http://xxx/9080"	"4"
"http://xxx/678"	"4"
"http://xxx/4668"	"4"
"http://xxx/9168"	"3"
"http://xxx/9330"	"3"
"http://xxx/1519"	"3"
"http://xxx/7896"	"3"
"http://xxx/8163"	"4"
"http://xxx/7850"	"3"
"http://xxx/7871"	"3"
"http://xxx/7867"	"3"
"http://xxx/7892"	"3"
"http://xxx/7862"	"3"
"http://xxx/11224"	"3"
"http://xxx/551"	"4"
"http://xxx/3416"	"4"
"http://xxx/6362"	"4"
"http://xxx/7595"	"4"
"http://xxx/5224"	"4"
"http://xxx/8685"	"4"
"http://xxx/10198"	"4"
"http://xxx/1559"	"4"
"http://xxx/8807"	"4"
"http://xxx/5403"	"4"
"http://xxx/4515"	"4"
"http://xxx/3947"	"4"
"http://xxx/8360"	"4"
"http://xxx/9353"	"4"
"http://xxx/1516"	"4"
"http://xxx/5031"	"4"
"http://xxx/3489"	"4"
"http://xxx/1517"	"3"
"http://xxx/5498"	"4"
"http://xxx/773"	"3"
"http://xxx/3252"	"4"
"http://xxx/5043"	"4"
"http://xxx/6282"	"4"
"http://xxx/775"	"4"
"http://xxx/3492"	"4"
"http://xxx/474"	"4"
"http://xxx/360"	"4"
"http://xxx/7182"	"4"
"http://xxx/148"	"4"
"http://xxx/5027"	"4"
"http://xxx/4045"	"4"
"http://xxx/10644"	"4"
"http://xxx/5369"	"4"
"http://xxx/5333"	"4"
"http://xxx/4830"	"4"
"http://xxx/2969"	"4"
"http://xxx/3487"	"4"
"http://xxx/5218"	"4"
"http://xxx/4088"	"4"
"http://xxx/8494"	"3"
"http://xxx/3628"	"4"
"http://xxx/935"	"4"
"http://xxx/5150"	"4"
"http://xxx/11835"	"3"
"http://xxx/5890"	"3"
"http://xxx/7716"	"4"
"http://xxx/1239"	"3"
"http://xxx/5443"	"3"
"http://xxx/10018"	"3"
"http://xxx/2705"	"3"
"http://xxx/4945"	"3"
"http://xxx/5569"	"3"
"http://xxx/11836"	"3"
"http://xxx/10548"	"4"
"http://xxx/8918"	"4"
"http://xxx/13111"	"4"
"http://xxx/2182"	"3"
"http://xxx/10043"	"3"
"http://xxx/862"	"4"
"http://xxx/11868"	"3"
"http://xxx/839"	"3"
"http://xxx/846"	"3"
"http://xxx/173"	"4"
"http://xxx/3663"	"3"
"http://xxx/4802"	"3"
"http://xxx/13118"	"4"
"http://xxx/2654"	"3"
"http://xxx/7567"	"4"
"http://xxx/2573"	"4"
"http://xxx/2653"	"4"
"http://xxx/10003"	"3"
"http://xxx/394"	"4"
"http://xxx/146"	"4"
"http://xxx/895"	"4"
"http://xxx/14098"	"4"
"http://xxx/3065"	"4"
"http://xxx/10496"	"3"
"http://xxx/3536"	"3"
"http://xxx/6487"	"4"
"http://xxx/6183"	"3"
"http://xxx/3821"	"4"
"http://xxx/298"	"3"
"http://xxx/12017"	"4"
"http://xxx/2979"	"3"
"http://xxx/8673"	"3"
"http://xxx/322"	"3"
"http://xxx/5199"	"4"
"http://xxx/308"	"3"
"http://xxx/309"	"4"
"http://xxx/312"	"3"
"http://xxx/562"	"3"
"http://xxx/776"	"4"
"http://xxx/87"	"3"
"http://xxx/5935"	"3"
"http://xxx/5937"	"3"
"http://xxx/5931"	"3"
"http://xxx/372"	"3"
"http://xxx/5618"	"4"
"http://xxx/11714"	"3"
"http://xxx/5604"	"3"
"http://xxx/6128"	"4"
"http://xxx/6846"	"3"
"http://xxx/12026"	"3"
"http://xxx/1306"	"3"
"http://xxx/2359"	"3"
"http://xxx/3533"	"4"
"http://xxx/4524"	"4"
"http://xxx/4735"	"4"
"http://xxx/435"	"3"
"http://xxx/7715"	"4"
"http://xxx/945"	"4"
"http://xxx/3986"	"4"
"http://xxx/5953"	"4"
"http://xxx/10721"	"4"
"http://xxx/1121"	"4"
"http://xxx/5404"	"4"
"http://xxx/5080"	"4"
"http://xxx/3701"	"4"
"http://xxx/3395"	"4"
"http://xxx/13568"	"4"
"http://xxx/10906"	"4"
"http://xxx/10860"	"4"
"http://xxx/10907"	"4"
"http://xxx/8870"	"4"
"http://xxx/8159"	"4"
"http://xxx/8285"	"4"
"http://xxx/8720"	"4"
"http://xxx/5854"	"3"
"http://xxx/8719"	"3"
"http://xxx/4358"	"1"
"http://xxx/5945"	"4"
"http://xxx/571"	"4"
"http://xxx/14507"	"4"
"http://xxx/2093"	"4"
"http://xxx/4127"	"4"
"http://xxx/8381"	"4"
"http://xxx/764"	"4"
"http://xxx/4777"	"4"
"http://xxx/2409"	"4"
"http://xxx/5802"	"4"
"http://xxx/1028"	"4"
"http://xxx/1533"	"3"
"http://xxx/3732"	"3"
"http://xxx/2111"	"4"
"http://xxx/572"	"3"
"http://xxx/456"	"4"
"http://xxx/1889"	"3"
"http://xxx/9171"	"4"
"http://xxx/1296"	"3"
"http://xxx/5310"	"4"
"http://xxx/7999"	"4"
"http://xxx/762"	"3"
"http://xxx/1091"	"3"
"http://xxx/2316"	"3"
"http://xxx/11089"	"4"
"http://xxx/13182"	"4"
"http://xxx/1588"	"4"
"http://xxx/443"	"4"
"http://xxx/5685"	"4"
"http://xxx/902"	"4"
"http://xxx/7541"	"4"
"http://xxx/15032"	"4"
"http://xxx/15033"	"4"
"http://xxx/1470"	"4"
"http://xxx/7298"	"4"
"http://xxx/7565"	"4"
"http://xxx/2400"	"4"
"http://xxx/14837"	"4"
"http://xxx/5264"	"4"
"http://xxx/5503"	"4"
"http://xxx/5887"	"4"
"http://xxx/4823"	"4"
"http://xxx/921"	"4"
"http://xxx/1449"	"4"
"http://xxx/6870"	"3"
"http://xxx/1800"	"3"
"http://xxx/9358"	"3"
"http://xxx/1244"	"4"
"http://xxx/6828"	"4"
"http://xxx/7458"	"4"
"http://xxx/8057"	"4"
"http://xxx/1677"	"4"
"http://xxx/5267"	"4"
"http://xxx/4371"	"4"
"http://xxx/7423"	"4"
"http://xxx/5626"	"4"
"http://xxx/8499"	"4"
"http://xxx/7373"	"4"
"http://xxx/8946"	"4"
"http://xxx/4356"	"4"
"http://xxx/1191"	"4"
"http://xxx/1362"	"4"
"http://xxx/6621"	"4"
"http://xxx/7306"	"4"
"http://xxx/508"	"4"
"http://xxx/4632"	"4"
"http://xxx/1275"	"4"
"http://xxx/7617"	"4"
"http://xxx/4871"	"4"
"http://xxx/1870"	"4"
"http://xxx/8519"	"4"
"http://xxx/912"	"3"
"http://xxx/9183"	"4"
"http://xxx/5238"	"4"
"http://xxx/3548"	"4"
"http://xxx/995"	"4"
"http://xxx/404"	"4"
"http://xxx/7927"	"4"
"http://xxx/10305"	"4"
"http://xxx/6312"	"3"
"http://xxx/5076"	"3"
"http://xxx/4238"	"4"
"http://xxx/1505"	"4"
"http://xxx/3805"	"4"
"http://xxx/411"	"4"
"http://xxx/9403"	"4"
"http://xxx/5448"	"4"
"http://xxx/5339"	"3"
"http://xxx/1265"	"4"
"http://xxx/2428"	"3"
"http://xxx/6759"	"3"
"http://xxx/5565"	"3"
"http://xxx/8006"	"3"
"http://xxx/1548"	"3"
"http://xxx/1794"	"4"
"http://xxx/4454"	"4"
"http://xxx/13567"	"4"
"http://xxx/4589"	"4"
"http://xxx/4858"	"4"
"http://xxx/2279"	"4"
"http://xxx/3664"	"4"
"http://xxx/1014"	"4"
"http://xxx/542"	"4"
"http://xxx/7952"	"4"
"http://xxx/5794"	"4"
"http://xxx/464"	"4"
"http://xxx/170"	"4"
"http://xxx/461"	"4"
"http://xxx/5145"	"4"
"http://xxx/7948"	"4"
"http://xxx/5695"	"4"
"http://xxx/2992"	"4"
"http://xxx/5694"	"4"
"http://xxx/598"	"4"
"http://xxx/367"	"4"
"http://xxx/4602"	"4"
"http://xxx/1527"	"4"
"http://xxx/7575"	"3"
"http://xxx/2402"	"4"
"http://xxx/986"	"4"
"http://xxx/7563"	"3"
"http://xxx/7873"	"4"
"http://xxx/7847"	"4"
"http://xxx/2539"	"4"
"http://xxx/3676"	"4"
"http://xxx/3655"	"4"
"http://xxx/6013"	"4"
"http://xxx/5270"	"4"
"http://xxx/12139"	"4"
"http://xxx/3650"	"4"
"http://xxx/1892"	"3"
"http://xxx/8344"	"3"
"http://xxx/5288"	"3"
"http://xxx/6163"	"4"
"http://xxx/12665"	"3"
"http://xxx/12721"	"3"
"http://xxx/5038"	"3"
"http://xxx/4108"	"3"
"http://xxx/5220"	"4"
"http://xxx/2035"	"4"
"http://xxx/7718"	"4"
"http://xxx/637"	"4"
"http://xxx/3348"	"4"
"http://xxx/3496"	"4"
"http://xxx/3812"	"4"
"http://xxx/3860"	"4"
"http://xxx/9327"	"4"
"http://xxx/12082"	"4"
"http://xxx/3347"	"4"
"http://xxx/8115"	"4"
"http://xxx/4077"	"4"
"http://xxx/1491"	"4"
"http://xxx/12091"	"4"
"http://xxx/281"	"4"
"http://xxx/7514"	"3"
"http://xxx/3761"	"3"
"http://xxx/541"	"3"
"http://xxx/463"	"3"
"http://xxx/8686"	"3"
"http://xxx/10194"	"4"
"http://xxx/5033"	"4"
"http://xxx/2944"	"4"
"http://xxx/6118"	"3"
"http://xxx/14956"	"4"
"http://xxx/8143"	"4"
"http://xxx/5823"	"4"
"http://xxx/5874"	"4"
"http://xxx/4819"	"4"
"http://xxx/6084"	"4"
"http://xxx/7500"	"4"
"http://xxx/1507"	"4"
"http://xxx/4818"	"3"
"http://xxx/5505"	"3"
"http://xxx/5504"	"4"
"http://xxx/9169"	"3"
"http://xxx/3781"	"4"
"http://xxx/12511"	"3"
"http://xxx/6081"	"3"
"http://xxx/1500"	"3"
"http://xxx/926"	"4"
"http://xxx/1554"	"4"
"http://xxx/1290"	"4"
"http://xxx/2024"	"4"
"http://xxx/7520"	"4"
"http://xxx/303"	"4"
"http://xxx/5967"	"4"
"http://xxx/12135"	"4"
"http://xxx/7502"	"4"
"http://xxx/5791"	"4"
"http://xxx/7513"	"4"
"http://xxx/9172"	"4"
"http://xxx/4922"	"4"
"http://xxx/7535"	"4"
"http://xxx/1526"	"4"
"http://xxx/4209"	"4"
"http://xxx/1368"	"4"
"http://xxx/6488"	"4"
"http://xxx/3483"	"4"
"http://xxx/1385"	"4"
"http://xxx/11745"	"3"
"http://xxx/1378"	"3"
"http://xxx/6109"	"4"
"http://xxx/4331"	"3"
"http://xxx/5052"	"3"
"http://xxx/10381"	"4"
"http://xxx/6268"	"4"
"http://xxx/5452"	"4"
"http://xxx/1134"	"4"
"http://xxx/10421"	"4"
"http://xxx/9302"	"4"
"http://xxx/7768"	"4"
"http://xxx/5237"	"4"
"http://xxx/6184"	"4"
"http://xxx/8630"	"3"
"http://xxx/7176"	"3"
"http://xxx/11879"	"3"
"http://xxx/8683"	"1"
"http://xxx/6035"	"4"
"http://xxx/6577"	"4"
"http://xxx/7450"	"4"
"http://xxx/425"	"4"
"http://xxx/2474"	"4"
"http://xxx/504"	"4"
"http://xxx/4657"	"4"
"http://xxx/6520"	"4"
"http://xxx/420"	"4"
"http://xxx/5030"	"4"
"http://xxx/191"	"4"
"http://xxx/6382"	"4"
"http://xxx/8910"	"4"
"http://xxx/10130"	"4"
"http://xxx/4047"	"4"
"http://xxx/10128"	"4"
"http://xxx/494"	"4"
"http://xxx/10135"	"4"
"http://xxx/3350"	"3"
"http://xxx/3312"	"3"
"http://xxx/7312"	"3"
"http://xxx/4730"	"3"
"http://xxx/7910"	"4"
"http://xxx/3593"	"4"
"http://xxx/11958"	"4"
"http://xxx/1503"	"4"
"http://xxx/8443"	"4"
"http://xxx/9336"	"4"
"http://xxx/11974"	"4"
"http://xxx/1575"	"4"
"http://xxx/3301"	"3"
"http://xxx/12122"	"3"
"http://xxx/2227"	"3"
"http://xxx/7340"	"3"
"http://xxx/8225"	"4"
"http://xxx/7571"	"4"
"http://xxx/7227"	"4"
"http://xxx/4291"	"3"
"http://xxx/12098"	"4"
"http://xxx/12174"	"3"
"http://xxx/5799"	"3"
"http://xxx/5792"	"3"
"http://xxx/7232"	"3"
"http://xxx/7579"	"3"
"http://xxx/3311"	"3"
"http://xxx/4300"	"4"
"http://xxx/7149"	"3"
"http://xxx/8168"	"3"
"http://xxx/11231"	"3"
"http://xxx/5497"	"4"
"http://xxx/11967"	"3"
"http://xxx/9322"	"4"
"http://xxx/4143"	"4"
"http://xxx/1255"	"3"
"http://xxx/7950"	"3"
"http://xxx/5692"	"3"
"http://xxx/9293"	"3"
"http://xxx/2411"	"3"
"http://xxx/14844"	"3"
"http://xxx/9295"	"3"
"http://xxx/2413"	"3"
"http://xxx/14842"	"4"
"http://xxx/9019"	"3"
"http://xxx/2412"	"3"
"http://xxx/9294"	"3"
"http://xxx/14843"	"4"
"http://xxx/1257"	"3"
"http://xxx/7949"	"3"
"http://xxx/7951"	"3"
"http://xxx/5693"	"3"
"http://xxx/7947"	"3"
"http://xxx/1256"	"3"
"http://xxx/1190"	"3"
"http://xxx/11322"	"4"
"http://xxx/7986"	"4"
"http://xxx/6999"	"4"
"http://xxx/6404"	"4"
"http://xxx/9108"	"4"
"http://xxx/9126"	"4"
"http://xxx/12341"	"4"
"http://xxx/9105"	"4"
"http://xxx/12342"	"4"
"http://xxx/9055"	"4"
"http://xxx/7609"	"4"
"http://xxx/7023"	"4"
"http://xxx/9107"	"4"
"http://xxx/7021"	"4"
"http://xxx/7160"	"4"
"http://xxx/14904"	"4"
"http://xxx/634"	"4"
"http://xxx/888"	"4"
"http://xxx/5733"	"4"
"http://xxx/13781"	"4"
"http://xxx/8850"	"4"
"http://xxx/4507"	"4"
"http://xxx/4361"	"3"
"http://xxx/10671"	"3"
"http://xxx/10672"	"3"
"http://xxx/3307"	"3"
"http://xxx/6968"	"4"
"http://xxx/8250"	"4"
"http://xxx/12096"	"4"
"http://xxx/12171"	"4"
"http://xxx/1881"	"4"
"http://xxx/14581"	"4"
"http://xxx/3955"	"4"
"http://xxx/7319"	"4"
"http://xxx/22"	"4"
"http://xxx/8701"	"4"
"http://xxx/3963"	"4"
"http://xxx/9409"	"4"
"http://xxx/4577"	"4"
"http://xxx/352"	"4"
"http://xxx/12220"	"4"
"http://xxx/7698"	"4"
"http://xxx/341"	"4"
"http://xxx/10154"	"4"
"http://xxx/1757"	"4"
"http://xxx/7560"	"4"
"http://xxx/13127"	"4"
"http://xxx/5869"	"4"
"http://xxx/7464"	"4"
"http://xxx/1279"	"4"
"http://xxx/4974"	"4"
"http://xxx/11789"	"4"
"http://xxx/2023"	"4"
"http://xxx/5847"	"4"
"http://xxx/7400"	"4"
"http://xxx/1738"	"4"
"http://xxx/7047"	"4"
"http://xxx/8299"	"4"
"http://xxx/2247"	"4"
"http://xxx/3117"	"4"
"http://xxx/13336"	"4"
"http://xxx/6594"	"4"
"http://xxx/607"	"4"
"http://xxx/13337"	"4"
"http://xxx/2213"	"3"
"http://xxx/10904"	"3"
"http://xxx/71"	"3"
"http://xxx/5783"	"3"
"http://xxx/4402"	"3"
"http://xxx/2902"	"3"
"http://xxx/4216"	"3"
"http://xxx/6438"	"4"
"http://xxx/6458"	"4"
"http://xxx/4136"	"4"
"http://xxx/11922"	"4"
"http://xxx/8929"	"4"
"http://xxx/10884"	"3"
"http://xxx/12417"	"4"
"http://xxx/1426"	"4"
"http://xxx/11648"	"4"
"http://xxx/6346"	"4"
"http://xxx/2298"	"3"
"http://xxx/434"	"3"
"http://xxx/11923"	"3"
"http://xxx/10092"	"3"
"http://xxx/5635"	"3"
"http://xxx/7266"	"4"
"http://xxx/8149"	"4"
"http://xxx/4412"	"4"
"http://xxx/11921"	"4"
"http://xxx/8084"	"4"
"http://xxx/4178"	"4"
"http://xxx/11918"	"4"
"http://xxx/151"	"4"
"http://xxx/7945"	"3"
"http://xxx/7942"	"3"
"http://xxx/1389"	"4"
"http://xxx/6497"	"4"
"http://xxx/1692"	"4"
"http://xxx/3313"	"4"
"http://xxx/10617"	"3"
"http://xxx/6962"	"3"
"http://xxx/3729"	"3"
"http://xxx/8501"	"3"
"http://xxx/7032"	"3"
"http://xxx/10605"	"3"
"http://xxx/10612"	"3"
"http://xxx/9186"	"3"
"http://xxx/5774"	"3"
"http://xxx/7214"	"3"
"http://xxx/51"	"4"
"http://xxx/6894"	"4"
"http://xxx/6371"	"1"
"http://xxx/6381"	"4"
"http://xxx/4436"	"4"
"http://xxx/6388"	"4"
"http://xxx/6380"	"4"
"http://xxx/6387"	"3"
"http://xxx/2054"	"3"
"http://xxx/2755"	"3"
"http://xxx/13135"	"3"
"http://xxx/2056"	"4"
"http://xxx/5965"	"4"
"http://xxx/6750"	"3"
"http://xxx/10097"	"4"
"http://xxx/3367"	"4"
"http://xxx/3956"	"4"
"http://xxx/8606"	"4"
"http://xxx/7769"	"4"
"http://xxx/12084"	"4"
"http://xxx/12485"	"3"
"http://xxx/3611"	"4"
"http://xxx/6882"	"4"
"http://xxx/313"	"3"
"http://xxx/1751"	"3"
"http://xxx/10076"	"3"
"http://xxx/10818"	"4"
"http://xxx/13231"	"4"
"http://xxx/4584"	"3"
"http://xxx/8576"	"4"
"http://xxx/4424"	"4"
"http://xxx/2683"	"3"
"http://xxx/2684"	"4"
"http://xxx/8572"	"4"
"http://xxx/13340"	"4"
"http://xxx/2687"	"4"
"http://xxx/13338"	"4"
"http://xxx/13339"	"4"
"http://xxx/8768"	"4"
"http://xxx/10837"	"3"
"http://xxx/9371"	"4"
"http://xxx/13342"	"4"
"http://xxx/13343"	"3"
"http://xxx/1623"	"4"
"http://xxx/5818"	"4"
"http://xxx/4581"	"3"
"http://xxx/13341"	"4"
"http://xxx/5234"	"4"
"http://xxx/5004"	"4"
"http://xxx/1561"	"4"
"http://xxx/3106"	"4"
"http://xxx/3958"	"4"
"http://xxx/10160"	"4"
"http://xxx/11477"	"3"
"http://xxx/7498"	"3"
"http://xxx/10593"	"4"
"http://xxx/10574"	"4"
"http://xxx/7384"	"4"
