"Test10"	"GEMET_it_es_en_linkset_mk_4_dco_90_dls_90.nt"	"253"					
"Test11"	"GEMET_it_es_en_linkset_mk_4.nt"	"2526"					
"Test12"	"GEMET_it_es_en_linkset_mk_4.nt"	"2526"					
"Test13"	"GEMET_it_es_en_linkset_mk_4_dlo_30.nt"	"1769"					
"Test14"	"GEMET_it_es_en_linkset_mk_4_dlo_30.nt"	"1769"					
"Test15"	"GEMET_it_es_en_linkset_mk_4_dlo_90.nt"	"253"					
"Test16"	"GEMET_it_es_en_linkset_mk_4_dlo_90.nt"	"253"					
"Test17"	"GEMET_it_es_en_linkset_mk_4_dcs_30_dls_30.nt"	"1769"					
"Test18"	"GEMET_it_es_en_linkset_mk_4_dcs_30_dls_90.nt"	"253"					
"Test19"	"GEMET_it_es_en_linkset_mk_4_dcs_90_dls_30.nt"	"1769"					
"Test1"	"GEMET_it_es_en_linkset_mk_4.nt"	"2526"					
"Test20"	"GEMET_it_es_en_linkset_mk_4_dcs_90_dls_90.nt"	"253"					
"Test21"	"GEMET_it_es_en_linkset_mk_4_dlo_30.nt"	"1769"					
"Test22"	"GEMET_it_es_en_linkset_mk_4_dlo_90.nt"	"253"					
"Test23"	"GEMET_it_es_en_linkset_mk_4_dlo_30.nt"	"1769"					
"Test24"	"GEMET_it_es_en_linkset_mk_4_dlo_30.nt"	"1769"					
"Test25"	"GEMET_it_es_en_linkset_mk_4_dlo_90.nt"	"253"					
"Test26"	"GEMET_it_es_en_linkset_mk_4_dlo_90.nt"	"253"					
"Test27"	"GEMET_it_es_en_linkset_mk_4_dlo_30.nt"	"1769"					
"Test28"	"GEMET_it_es_en_linkset_mk_4_dlo_30.nt"	"1769"					
"Test29"	"GEMET_it_es_en_linkset_mk_4_dlo_90.nt"	"253"					
"Test2"	"GEMET_it_es_en_linkset_mk_4.nt"	"2526"					
"Test30"	"GEMET_it_es_en_linkset_mk_4_dlo_90.nt"	"253"					
"Test31"	"GEMET_it_es_en_linkset_mk_4_dls_30.nt"	"1769"					
"Test32"	"GEMET_it_es_en_linkset_mk_4_dls_90.nt"	"253"					
"Test33"	"GEMET_it_es_en_linkset_mk_4_dls_30.nt"	"1769"					
"Test34"	"GEMET_it_es_en_linkset_mk_4_dls_30.nt"	"1769"					
"Test35"	"GEMET_it_es_en_linkset_mk_4_dls_90.nt"	"253"					
"Test36"	"GEMET_it_es_en_linkset_mk_4_dls_90.nt"	"253"					
"Test37"	"GEMET_it_es_en_linkset_mk_4_dls_30.nt"	"1769"					
"Test38"	"GEMET_it_es_en_linkset_mk_4_dls_30.nt"	"1769"					
"Test39"	"GEMET_it_es_en_linkset_mk_4_dls_90.nt"	"253"					
"Test3"	"GEMET_it_es_en_linkset_mk_4_dco_30_dlo_30.nt"	"1769"					
"Test40"	"GEMET_it_es_en_linkset_mk_4_dls_90.nt"	"253"					
"Test4"	"GEMET_it_es_en_linkset_mk_4_dco_30_dlo_90.nt"	"253"					
"Test5"	"GEMET_it_es_en_linkset_mk_4_dco_90_dlo_30.nt"	"1769"					
"Test6"	"GEMET_it_es_en_linkset_mk_4_dco_90_dlo_90.nt"	"253"					
"Test7"	"GEMET_it_es_en_linkset_mk_4_dco_30_dls_30.nt"	"1769"					
"Test8"	"GEMET_it_es_en_linkset_mk_4_dco_30_dls_90.nt"	"253"					
"Test9"	"GEMET_it_es_en_linkset_mk_4_dco_90_dls_30.nt"	"1769"					
"TestName"	"linksetName"	"TotalNumberofLinks"					
