[
   {
      "class":"Quality.Assesser.setAlgebra.EquivalenceClass",
      "elements":[
         "http://dbpedia.org/ontology/SoccerClub",
         "http://deporte.linkeddata.es/futbol/ontology/Football_League#FootballClub"
      ],
      "representativeMember":"http://deporte.linkeddata.es/futbol/ontology/Football_League#FootballClub"
   },
   {
      "class":"Quality.Assesser.setAlgebra.EquivalenceClass",
      "elements":[
         "http://dbpedia.org/ontology/FootballMatch",
         "http://deporte.linkeddata.es/futbol/ontology/Football_League#FootballMatch"
      ],
      "representativeMember":"http://deporte.linkeddata.es/futbol/ontology/Football_League#FootballMatch"
   },
   {
      "class":"Quality.Assesser.setAlgebra.EquivalenceClass",
      "elements":[
         "http://dbpedia.org/ontology/Stadium",
         "http://schema.org/StadiumOrArena",
         "http://dbpedia.org/ontology/Building",
         "http://deporte.linkeddata.es/futbol/ontology/Football_League#Stadium"
      ],
      "representativeMember":"http://deporte.linkeddata.es/futbol/ontology/Football_League#Stadium"
   }
]
